X_RANGE 314.33
Y_RANGE 745956816.00
ORDER HashMap 1
ORDER SMALL_MUT_ARR_PTRS_FROZEN_CLEAN 2
ORDER Integer 3
ORDER Double 4
ORDER ARR_WORDS 5
ORDER Roster 6
ORDER IntMap 7
SHADE HashMap 0.00
SHADE SMALL_MUT_ARR_PTRS_FROZEN_CLEAN 0.00
SHADE Integer 0.00
SHADE Double 0.00
SHADE ARR_WORDS 0.10
SHADE Roster 0.10
SHADE IntMap 0.10
