%!PS-Adobe-2.0
%%Title: draftsim-mcoffq-exe ../app/draftsim.json 23 7 +RTS -N -hy -L20000
%%Creator: hp2ps (version 0.25)
%%CreationDate: Fri Jun 25 08:53 2021
%%EndComments
-90 rotate
-756.000000 72.000000 translate
/HE10 /Helvetica findfont 10 scalefont def
/HE12 /Helvetica findfont 12 scalefont def
newpath
0 0 moveto
0 432.000000 rlineto
648.000000 0 rlineto
0 -432.000000 rlineto
closepath
0.500000 setlinewidth
stroke
newpath
5.000000 387.000000 moveto
0 40.000000 rlineto
638.000000 0 rlineto
0 -40.000000 rlineto
closepath
0.500000 setlinewidth
stroke
5.000000 407.000000 moveto
638.000000 0 rlineto
stroke
HE12 setfont
11.000000 413.000000 moveto
(draftsim-mcoffq-exe ../app/draftsim.json 23 7 +RTS -N -hy -L20000) show
HE12 setfont
11.000000 393.000000 moveto
(157,602,397,477 bytes x seconds)
show
HE12 setfont
(Fri Jun 25 08:53 2021)
dup stringwidth pop
637.000000
exch sub
393.000000 moveto
show
45.000000 20.000000 moveto
317.385798 0 rlineto
0.500000 setlinewidth
stroke
HE10 setfont
(seconds)
dup stringwidth pop
362.385798
exch sub
5.000000 moveto
show
45.000000 20.000000 moveto
0 -4 rlineto
stroke
HE10 setfont
(0.0)
dup stringwidth pop
2 div
45.000000 exch sub
5.000000 moveto
show
95.486836 20.000000 moveto
0 -4 rlineto
stroke
HE10 setfont
(50.0)
dup stringwidth pop
2 div
95.486836 exch sub
5.000000 moveto
show
145.973673 20.000000 moveto
0 -4 rlineto
stroke
HE10 setfont
(100.0)
dup stringwidth pop
2 div
145.973673 exch sub
5.000000 moveto
show
196.460509 20.000000 moveto
0 -4 rlineto
stroke
HE10 setfont
(150.0)
dup stringwidth pop
2 div
196.460509 exch sub
5.000000 moveto
show
246.947346 20.000000 moveto
0 -4 rlineto
stroke
HE10 setfont
(200.0)
dup stringwidth pop
2 div
246.947346 exch sub
5.000000 moveto
show
297.434182 20.000000 moveto
0 -4 rlineto
stroke
HE10 setfont
(250.0)
dup stringwidth pop
2 div
297.434182 exch sub
5.000000 moveto
show
45.000000 20.000000 moveto
0 362.000000 rlineto
0.500000 setlinewidth
stroke
gsave
HE10 setfont
(bytes)
dup stringwidth pop
382.000000
exch sub
40.000000 exch
translate
90 rotate
0 0 moveto
show
grestore
45.000000 20.000000 moveto
-4 0 rlineto
stroke
HE10 setfont
(0M)
dup stringwidth
2 div
20.000000 exch sub
exch
40.000000 exch sub
exch
moveto
show
45.000000 117.056557 moveto
-4 0 rlineto
stroke
HE10 setfont
(200M)
dup stringwidth
2 div
117.056557 exch sub
exch
40.000000 exch sub
exch
moveto
show
45.000000 214.113113 moveto
-4 0 rlineto
stroke
HE10 setfont
(400M)
dup stringwidth
2 div
214.113113 exch sub
exch
40.000000 exch sub
exch
moveto
show
45.000000 311.169670 moveto
-4 0 rlineto
stroke
HE10 setfont
(600M)
dup stringwidth
2 div
311.169670 exch sub
exch
40.000000 exch sub
exch
moveto
show
367.385798 58.250000 moveto
0 14 rlineto
14 0 rlineto
0 -14 rlineto
closepath
gsave
0.000000 0.000000 0.000000 setrgbcolor
fill
grestore
stroke
HE10 setfont
386.385798 60.250000 moveto
(HashMap) show
367.385798 103.500000 moveto
0 14 rlineto
14 0 rlineto
0 -14 rlineto
closepath
gsave
0.000000 0.000000 1.000000 setrgbcolor
fill
grestore
stroke
HE10 setfont
386.385798 105.500000 moveto
(SMALL_MUT_ARR_PTRS_FROZEN_CLEAN) show
367.385798 148.750000 moveto
0 14 rlineto
14 0 rlineto
0 -14 rlineto
closepath
gsave
0.000000 1.000000 0.000000 setrgbcolor
fill
grestore
stroke
HE10 setfont
386.385798 150.750000 moveto
(Integer) show
367.385798 194.000000 moveto
0 14 rlineto
14 0 rlineto
0 -14 rlineto
closepath
gsave
0.000000 1.000000 1.000000 setrgbcolor
fill
grestore
stroke
HE10 setfont
386.385798 196.000000 moveto
(Double) show
367.385798 239.250000 moveto
0 14 rlineto
14 0 rlineto
0 -14 rlineto
closepath
gsave
1.000000 0.000000 0.000000 setrgbcolor
fill
grestore
stroke
HE10 setfont
386.385798 241.250000 moveto
(ARR_WORDS) show
367.385798 284.500000 moveto
0 14 rlineto
14 0 rlineto
0 -14 rlineto
closepath
gsave
1.000000 0.000000 1.000000 setrgbcolor
fill
grestore
stroke
HE10 setfont
386.385798 286.500000 moveto
(Roster) show
367.385798 329.750000 moveto
0 14 rlineto
14 0 rlineto
0 -14 rlineto
closepath
gsave
1.000000 1.000000 0.000000 setrgbcolor
fill
grestore
stroke
HE10 setfont
386.385798 331.750000 moveto
(IntMap) show
45.000000 20.000000 moveto
45.000000 20.000000 lineto
45.158067 20.000000 lineto
45.304676 20.000000 lineto
45.491819 20.000000 lineto
45.740045 20.000000 lineto
45.930657 20.000000 lineto
46.100455 20.000000 lineto
46.292084 20.000000 lineto
46.496416 20.000000 lineto
46.746185 20.000000 lineto
47.137713 20.000000 lineto
47.389792 20.000000 lineto
47.654752 20.000000 lineto
47.948759 20.000000 lineto
48.189220 20.000000 lineto
48.478007 20.000000 lineto
48.848127 20.000000 lineto
49.150884 20.000000 lineto
49.499297 20.000000 lineto
49.841980 20.000000 lineto
50.183475 20.000000 lineto
50.585328 20.000000 lineto
50.983183 20.000000 lineto
51.400163 20.000000 lineto
51.791135 20.000000 lineto
52.195037 20.000000 lineto
52.663347 20.000000 lineto
53.097456 20.000000 lineto
53.610740 20.000000 lineto
54.062113 20.000000 lineto
54.535920 20.000000 lineto
55.019495 20.000000 lineto
55.516800 20.000000 lineto
55.920038 20.000000 lineto
56.511381 20.000000 lineto
57.100319 20.000000 lineto
57.649519 20.000000 lineto
58.203195 20.000000 lineto
58.755444 20.000000 lineto
59.311387 20.000000 lineto
59.875356 20.000000 lineto
60.467399 20.000000 lineto
61.094787 20.000000 lineto
61.747255 20.000000 lineto
62.377078 20.000000 lineto
63.010848 20.000000 lineto
63.701448 20.000000 lineto
64.425636 20.000000 lineto
65.134564 20.000000 lineto
65.843417 20.000000 lineto
66.425368 20.000000 lineto
67.153520 20.000000 lineto
67.902919 20.000000 lineto
68.655352 20.000000 lineto
69.511666 20.000000 lineto
70.457550 20.000000 lineto
71.558919 20.000000 lineto
72.461651 20.000000 lineto
73.387531 20.000000 lineto
74.369126 20.000000 lineto
75.347257 20.000000 lineto
76.298617 20.000000 lineto
77.212311 20.000000 lineto
78.598649 20.000000 lineto
79.547250 20.000000 lineto
80.742602 20.000000 lineto
81.751247 20.000000 lineto
82.704240 20.000000 lineto
83.686926 20.000000 lineto
84.725104 20.000000 lineto
85.814245 20.000000 lineto
86.884535 20.000000 lineto
87.926925 20.000000 lineto
88.979794 20.000000 lineto
90.098504 20.000000 lineto
91.143695 20.000000 lineto
92.469881 20.000000 lineto
93.589957 20.000000 lineto
94.804896 20.000000 lineto
95.976764 20.000000 lineto
97.257092 20.000000 lineto
98.797435 20.000000 lineto
99.925925 20.000000 lineto
101.226552 20.000000 lineto
102.358545 20.000000 lineto
103.523689 20.000000 lineto
104.863391 20.000000 lineto
106.147090 20.000000 lineto
107.249445 20.000000 lineto
108.708197 20.000000 lineto
109.956060 20.000000 lineto
111.458115 20.000000 lineto
112.855874 20.000000 lineto
114.180824 20.000000 lineto
115.540830 20.000000 lineto
116.863593 20.000000 lineto
118.219474 20.000000 lineto
119.564320 20.000000 lineto
120.923222 20.000000 lineto
122.335043 20.000000 lineto
123.791640 20.000000 lineto
125.226917 20.000000 lineto
126.658928 20.000000 lineto
128.086259 20.000000 lineto
129.530373 20.000000 lineto
130.982792 20.000000 lineto
132.505868 20.000000 lineto
133.976650 20.000000 lineto
135.406464 20.000000 lineto
136.836023 20.000000 lineto
138.390990 20.000000 lineto
139.892713 20.000000 lineto
141.426974 20.000000 lineto
142.881503 20.000000 lineto
144.462882 20.000000 lineto
145.935233 20.000000 lineto
147.413558 20.000000 lineto
148.996271 20.000000 lineto
150.624667 20.000000 lineto
152.487780 20.000000 lineto
154.169956 20.000000 lineto
155.787374 20.000000 lineto
157.388866 20.000000 lineto
159.044280 20.000000 lineto
160.709583 20.000000 lineto
162.415566 20.000000 lineto
164.216285 20.000000 lineto
165.980539 20.000000 lineto
167.823296 20.000000 lineto
169.519122 20.000000 lineto
171.226237 20.000000 lineto
172.957675 20.000000 lineto
174.714262 20.000000 lineto
176.481955 20.000000 lineto
178.273810 20.000000 lineto
180.016034 20.000000 lineto
181.770805 20.000000 lineto
183.531731 20.000000 lineto
185.387117 20.000000 lineto
187.289893 20.000000 lineto
189.134940 20.000000 lineto
191.123029 20.000000 lineto
192.988910 20.000000 lineto
194.944607 20.000000 lineto
196.832211 20.000000 lineto
198.825014 20.000000 lineto
200.751461 20.000000 lineto
202.737861 20.000000 lineto
204.784474 20.000000 lineto
206.718978 20.000000 lineto
208.667202 20.000000 lineto
210.596383 20.000000 lineto
212.653389 20.000000 lineto
214.742612 20.000000 lineto
216.799549 20.000000 lineto
218.770999 20.000000 lineto
220.815932 20.000000 lineto
222.823815 20.000000 lineto
224.985208 20.000000 lineto
227.109641 20.000000 lineto
229.263785 20.000000 lineto
231.399323 20.000000 lineto
233.553545 20.000000 lineto
235.763969 20.000000 lineto
237.950450 20.000000 lineto
240.133031 20.000000 lineto
242.289813 20.000000 lineto
244.413295 20.000000 lineto
246.691221 20.000000 lineto
248.836808 20.000000 lineto
250.998717 20.000000 lineto
253.321415 20.000000 lineto
255.562676 20.000000 lineto
257.890223 20.000000 lineto
260.144135 20.000000 lineto
262.368558 20.000000 lineto
264.802378 20.000000 lineto
267.127247 20.000000 lineto
269.304449 20.000000 lineto
271.552841 20.000000 lineto
273.894534 20.000000 lineto
276.167257 20.000000 lineto
278.460394 20.000000 lineto
280.945297 20.000000 lineto
283.297818 20.000000 lineto
285.618466 20.000000 lineto
287.961613 20.000000 lineto
290.321767 20.000000 lineto
292.781257 20.000000 lineto
295.147176 20.000000 lineto
297.619771 20.000000 lineto
300.024429 20.000000 lineto
302.574086 20.000000 lineto
305.073345 20.000000 lineto
307.541112 20.000000 lineto
310.041288 20.000000 lineto
312.668559 20.000000 lineto
315.147969 20.000000 lineto
317.657003 20.000000 lineto
320.198981 20.000000 lineto
322.744363 20.000000 lineto
325.287569 20.000000 lineto
327.844123 20.000000 lineto
330.430641 20.000000 lineto
332.957145 20.000000 lineto
335.499533 20.000000 lineto
338.053267 20.000000 lineto
340.748097 20.000000 lineto
343.380878 20.000000 lineto
345.979889 20.000000 lineto
348.659232 20.000000 lineto
351.254165 20.000000 lineto
353.874697 20.000000 lineto
356.497865 20.000000 lineto
359.095812 20.000000 lineto
362.385798 20.000000 lineto
362.385798 20.000000 lineto
362.385798 20.000000 lineto
359.095812 23.558353 lineto
356.497865 23.558458 lineto
353.874697 23.558482 lineto
351.254165 23.558738 lineto
348.659232 23.558699 lineto
345.979889 23.558765 lineto
343.380878 23.558738 lineto
340.748097 23.559017 lineto
338.053267 23.559060 lineto
335.499533 23.559111 lineto
332.957145 23.559541 lineto
330.430641 23.559619 lineto
327.844123 23.559673 lineto
325.287569 23.560054 lineto
322.744363 23.559914 lineto
320.198981 23.560128 lineto
317.657003 23.559926 lineto
315.147969 23.560314 lineto
312.668559 23.561149 lineto
310.041288 23.560958 lineto
307.541112 23.560924 lineto
305.073345 23.560958 lineto
302.574086 23.561440 lineto
300.024429 23.561506 lineto
297.619771 23.561370 lineto
295.147176 23.561366 lineto
292.781257 23.561774 lineto
290.321767 23.561809 lineto
287.961613 23.562061 lineto
285.618466 23.562030 lineto
283.297818 23.562282 lineto
280.945297 23.562469 lineto
278.460394 23.562748 lineto
276.167257 23.562857 lineto
273.894534 23.563424 lineto
271.552841 23.562927 lineto
269.304449 23.563136 lineto
267.127247 23.563447 lineto
264.802378 23.563563 lineto
262.368558 23.563428 lineto
260.144135 23.563610 lineto
257.890223 23.564227 lineto
255.562676 23.564053 lineto
253.321415 23.564511 lineto
250.998717 23.564371 lineto
248.836808 23.564352 lineto
246.691221 23.563859 lineto
244.413295 23.564643 lineto
242.289813 23.564965 lineto
240.133031 23.565217 lineto
237.950450 23.565237 lineto
235.763969 23.565501 lineto
233.553545 23.565745 lineto
231.399323 23.565644 lineto
229.263785 23.566048 lineto
227.109641 23.565726 lineto
224.985208 23.566266 lineto
222.823815 23.559250 lineto
220.815932 23.523499 lineto
218.770999 23.486633 lineto
216.799549 23.450574 lineto
214.742612 23.409624 lineto
212.653389 23.405777 lineto
210.596383 23.407869 lineto
208.667202 23.385888 lineto
206.718978 23.351821 lineto
204.784474 23.316030 lineto
202.737861 23.282624 lineto
200.751461 23.242826 lineto
198.825014 23.242788 lineto
196.832211 23.244275 lineto
194.944607 23.224654 lineto
192.988910 23.194058 lineto
191.123029 23.157056 lineto
189.134940 23.121929 lineto
187.289893 23.081678 lineto
185.387117 23.080397 lineto
183.531731 23.081088 lineto
181.770805 23.071192 lineto
180.016034 23.033429 lineto
178.273810 22.999090 lineto
176.481955 22.963102 lineto
174.714262 22.923363 lineto
172.957675 22.916553 lineto
171.226237 22.917039 lineto
169.519122 22.903342 lineto
167.823296 22.867400 lineto
165.980539 22.835476 lineto
164.216285 22.798113 lineto
162.415566 22.758033 lineto
160.709583 22.752586 lineto
159.044280 22.753786 lineto
157.388866 22.720600 lineto
155.787374 22.685970 lineto
154.169956 22.662056 lineto
152.487780 22.625923 lineto
150.624667 22.589349 lineto
148.996271 22.589205 lineto
147.413558 22.590901 lineto
145.935233 22.580874 lineto
144.462882 22.571490 lineto
142.881503 22.538091 lineto
141.426974 22.507433 lineto
139.892713 22.470936 lineto
138.390990 22.431962 lineto
136.836023 22.425210 lineto
135.406464 22.425571 lineto
133.976650 22.426841 lineto
132.505868 22.417077 lineto
130.982792 22.414266 lineto
129.530373 22.411339 lineto
128.086259 22.376865 lineto
126.658928 22.340445 lineto
125.226917 22.301723 lineto
123.791640 22.266306 lineto
122.335043 22.261041 lineto
120.923222 22.261041 lineto
119.564320 22.255261 lineto
118.219474 22.221830 lineto
116.863593 22.187286 lineto
115.540830 22.149682 lineto
114.180824 22.111636 lineto
112.855874 22.097066 lineto
111.458115 22.097051 lineto
109.956060 22.092174 lineto
108.708197 22.062005 lineto
107.249445 22.029666 lineto
106.147090 21.993732 lineto
104.863391 21.962631 lineto
103.523689 21.934434 lineto
102.358545 21.934434 lineto
101.226552 21.934749 lineto
99.925925 21.917834 lineto
98.797435 21.886616 lineto
97.257092 21.876344 lineto
95.976764 21.840111 lineto
94.804896 21.808723 lineto
93.589957 21.771333 lineto
92.469881 21.771305 lineto
91.143695 21.771317 lineto
90.098504 21.760695 lineto
88.979794 21.733158 lineto
87.926925 21.698630 lineto
86.884535 21.664722 lineto
85.814245 21.627658 lineto
84.725104 21.611457 lineto
83.686926 21.611403 lineto
82.704240 21.612653 lineto
81.751247 21.603576 lineto
80.742602 21.590151 lineto
79.547250 21.555739 lineto
78.598649 21.525438 lineto
77.212311 21.490416 lineto
76.298617 21.464055 lineto
75.347257 21.448061 lineto
74.369126 21.448099 lineto
73.387531 21.449229 lineto
72.461651 21.424301 lineto
71.558919 21.393200 lineto
70.457550 21.357546 lineto
69.511666 21.325668 lineto
68.655352 21.295115 lineto
67.902919 21.286958 lineto
67.153520 21.287024 lineto
66.425368 21.260578 lineto
65.843417 21.222986 lineto
65.134564 21.187549 lineto
64.425636 21.148117 lineto
63.701448 21.124086 lineto
63.010848 21.124163 lineto
62.377078 21.107008 lineto
61.747255 21.066434 lineto
61.094787 21.028869 lineto
60.467399 20.986786 lineto
59.875356 20.963240 lineto
59.311387 20.963240 lineto
58.755444 20.942485 lineto
58.203195 20.905491 lineto
57.649519 20.870780 lineto
57.100319 20.835824 lineto
56.511381 20.803504 lineto
55.920038 20.803500 lineto
55.516800 20.804199 lineto
55.019495 20.772081 lineto
54.535920 20.734706 lineto
54.062113 20.697650 lineto
53.610740 20.660497 lineto
53.097456 20.645438 lineto
52.663347 20.645438 lineto
52.195037 20.622463 lineto
51.791135 20.584013 lineto
51.400163 20.543959 lineto
50.983183 20.505894 lineto
50.585328 20.489724 lineto
50.183475 20.489724 lineto
49.841980 20.465891 lineto
49.499297 20.424731 lineto
49.150884 20.388785 lineto
48.848127 20.349427 lineto
48.478007 20.337260 lineto
48.189220 20.337248 lineto
47.948759 20.321230 lineto
47.654752 20.285482 lineto
47.389792 20.255298 lineto
47.137713 20.222341 lineto
46.746185 20.187331 lineto
46.496416 20.187315 lineto
46.292084 20.188026 lineto
46.100455 20.147320 lineto
45.930657 20.109503 lineto
45.740045 20.071764 lineto
45.491819 20.052721 lineto
45.304676 20.040888 lineto
45.158067 20.040888 lineto
45.000000 20.000000 lineto
closepath
gsave
0.000000 0.000000 0.000000 setrgbcolor
fill
grestore
stroke
45.000000 20.000000 moveto
45.000000 20.000000 lineto
45.158067 20.040888 lineto
45.304676 20.040888 lineto
45.491819 20.052721 lineto
45.740045 20.071764 lineto
45.930657 20.109503 lineto
46.100455 20.147320 lineto
46.292084 20.188026 lineto
46.496416 20.187315 lineto
46.746185 20.187331 lineto
47.137713 20.222341 lineto
47.389792 20.255298 lineto
47.654752 20.285482 lineto
47.948759 20.321230 lineto
48.189220 20.337248 lineto
48.478007 20.337260 lineto
48.848127 20.349427 lineto
49.150884 20.388785 lineto
49.499297 20.424731 lineto
49.841980 20.465891 lineto
50.183475 20.489724 lineto
50.585328 20.489724 lineto
50.983183 20.505894 lineto
51.400163 20.543959 lineto
51.791135 20.584013 lineto
52.195037 20.622463 lineto
52.663347 20.645438 lineto
53.097456 20.645438 lineto
53.610740 20.660497 lineto
54.062113 20.697650 lineto
54.535920 20.734706 lineto
55.019495 20.772081 lineto
55.516800 20.804199 lineto
55.920038 20.803500 lineto
56.511381 20.803504 lineto
57.100319 20.835824 lineto
57.649519 20.870780 lineto
58.203195 20.905491 lineto
58.755444 20.942485 lineto
59.311387 20.963240 lineto
59.875356 20.963240 lineto
60.467399 20.986786 lineto
61.094787 21.028869 lineto
61.747255 21.066434 lineto
62.377078 21.107008 lineto
63.010848 21.124163 lineto
63.701448 21.124086 lineto
64.425636 21.148117 lineto
65.134564 21.187549 lineto
65.843417 21.222986 lineto
66.425368 21.260578 lineto
67.153520 21.287024 lineto
67.902919 21.286958 lineto
68.655352 21.295115 lineto
69.511666 21.325668 lineto
70.457550 21.357546 lineto
71.558919 21.393200 lineto
72.461651 21.424301 lineto
73.387531 21.449229 lineto
74.369126 21.448099 lineto
75.347257 21.448061 lineto
76.298617 21.464055 lineto
77.212311 21.490416 lineto
78.598649 21.525438 lineto
79.547250 21.555739 lineto
80.742602 21.590151 lineto
81.751247 21.603576 lineto
82.704240 21.612653 lineto
83.686926 21.611403 lineto
84.725104 21.611457 lineto
85.814245 21.627658 lineto
86.884535 21.664722 lineto
87.926925 21.698630 lineto
88.979794 21.733158 lineto
90.098504 21.760695 lineto
91.143695 21.771317 lineto
92.469881 21.771305 lineto
93.589957 21.771333 lineto
94.804896 21.808723 lineto
95.976764 21.840111 lineto
97.257092 21.876344 lineto
98.797435 21.886616 lineto
99.925925 21.917834 lineto
101.226552 21.934749 lineto
102.358545 21.934434 lineto
103.523689 21.934434 lineto
104.863391 21.962631 lineto
106.147090 21.993732 lineto
107.249445 22.029666 lineto
108.708197 22.062005 lineto
109.956060 22.092174 lineto
111.458115 22.097051 lineto
112.855874 22.097066 lineto
114.180824 22.111636 lineto
115.540830 22.149682 lineto
116.863593 22.187286 lineto
118.219474 22.221830 lineto
119.564320 22.255261 lineto
120.923222 22.261041 lineto
122.335043 22.261041 lineto
123.791640 22.266306 lineto
125.226917 22.301723 lineto
126.658928 22.340445 lineto
128.086259 22.376865 lineto
129.530373 22.411339 lineto
130.982792 22.414266 lineto
132.505868 22.417077 lineto
133.976650 22.426841 lineto
135.406464 22.425571 lineto
136.836023 22.425210 lineto
138.390990 22.431962 lineto
139.892713 22.470936 lineto
141.426974 22.507433 lineto
142.881503 22.538091 lineto
144.462882 22.571490 lineto
145.935233 22.580874 lineto
147.413558 22.590901 lineto
148.996271 22.589205 lineto
150.624667 22.589349 lineto
152.487780 22.625923 lineto
154.169956 22.662056 lineto
155.787374 22.685970 lineto
157.388866 22.720600 lineto
159.044280 22.753786 lineto
160.709583 22.752586 lineto
162.415566 22.758033 lineto
164.216285 22.798113 lineto
165.980539 22.835476 lineto
167.823296 22.867400 lineto
169.519122 22.903342 lineto
171.226237 22.917039 lineto
172.957675 22.916553 lineto
174.714262 22.923363 lineto
176.481955 22.963102 lineto
178.273810 22.999090 lineto
180.016034 23.033429 lineto
181.770805 23.071192 lineto
183.531731 23.081088 lineto
185.387117 23.080397 lineto
187.289893 23.081678 lineto
189.134940 23.121929 lineto
191.123029 23.157056 lineto
192.988910 23.194058 lineto
194.944607 23.224654 lineto
196.832211 23.244275 lineto
198.825014 23.242788 lineto
200.751461 23.242826 lineto
202.737861 23.282624 lineto
204.784474 23.316030 lineto
206.718978 23.351821 lineto
208.667202 23.385888 lineto
210.596383 23.407869 lineto
212.653389 23.405777 lineto
214.742612 23.409624 lineto
216.799549 23.450574 lineto
218.770999 23.486633 lineto
220.815932 23.523499 lineto
222.823815 23.559250 lineto
224.985208 23.566266 lineto
227.109641 23.565726 lineto
229.263785 23.566048 lineto
231.399323 23.565644 lineto
233.553545 23.565745 lineto
235.763969 23.565501 lineto
237.950450 23.565237 lineto
240.133031 23.565217 lineto
242.289813 23.564965 lineto
244.413295 23.564643 lineto
246.691221 23.563859 lineto
248.836808 23.564352 lineto
250.998717 23.564371 lineto
253.321415 23.564511 lineto
255.562676 23.564053 lineto
257.890223 23.564227 lineto
260.144135 23.563610 lineto
262.368558 23.563428 lineto
264.802378 23.563563 lineto
267.127247 23.563447 lineto
269.304449 23.563136 lineto
271.552841 23.562927 lineto
273.894534 23.563424 lineto
276.167257 23.562857 lineto
278.460394 23.562748 lineto
280.945297 23.562469 lineto
283.297818 23.562282 lineto
285.618466 23.562030 lineto
287.961613 23.562061 lineto
290.321767 23.561809 lineto
292.781257 23.561774 lineto
295.147176 23.561366 lineto
297.619771 23.561370 lineto
300.024429 23.561506 lineto
302.574086 23.561440 lineto
305.073345 23.560958 lineto
307.541112 23.560924 lineto
310.041288 23.560958 lineto
312.668559 23.561149 lineto
315.147969 23.560314 lineto
317.657003 23.559926 lineto
320.198981 23.560128 lineto
322.744363 23.559914 lineto
325.287569 23.560054 lineto
327.844123 23.559673 lineto
330.430641 23.559619 lineto
332.957145 23.559541 lineto
335.499533 23.559111 lineto
338.053267 23.559060 lineto
340.748097 23.559017 lineto
343.380878 23.558738 lineto
345.979889 23.558765 lineto
348.659232 23.558699 lineto
351.254165 23.558738 lineto
353.874697 23.558482 lineto
356.497865 23.558458 lineto
359.095812 23.558353 lineto
362.385798 20.000000 lineto
362.385798 20.000000 lineto
362.385798 20.000000 lineto
359.095812 32.869412 lineto
356.497865 32.868725 lineto
353.874697 32.868609 lineto
351.254165 32.868539 lineto
348.659232 32.867898 lineto
345.979889 32.865879 lineto
343.380878 32.865619 lineto
340.748097 32.865697 lineto
338.053267 32.864260 lineto
335.499533 32.864043 lineto
332.957145 32.864482 lineto
330.430641 32.863907 lineto
327.844123 32.864000 lineto
325.287569 32.863387 lineto
322.744363 32.862145 lineto
320.198981 32.861395 lineto
317.657003 32.860409 lineto
315.147969 32.860976 lineto
312.668559 32.861120 lineto
310.041288 32.861255 lineto
307.541112 32.859318 lineto
305.073345 32.859920 lineto
302.574086 32.859679 lineto
300.024429 32.860320 lineto
297.619771 32.857730 lineto
295.147176 32.857206 lineto
292.781257 32.857327 lineto
290.321767 32.857579 lineto
287.961613 32.856837 lineto
285.618466 32.856364 lineto
283.297818 32.856275 lineto
280.945297 32.856123 lineto
278.460394 32.855514 lineto
276.167257 32.854442 lineto
273.894534 32.855840 lineto
271.552841 32.853394 lineto
269.304449 32.854411 lineto
267.127247 32.853293 lineto
264.802378 32.852206 lineto
262.368558 32.851146 lineto
260.144135 32.850148 lineto
257.890223 32.852528 lineto
255.562676 32.850405 lineto
253.321415 32.851593 lineto
250.998717 32.850055 lineto
248.836808 32.848848 lineto
246.691221 32.845824 lineto
244.413295 32.848300 lineto
242.289813 32.847629 lineto
240.133031 32.849667 lineto
237.950450 32.847660 lineto
235.763969 32.848102 lineto
233.553545 32.848145 lineto
231.399323 32.846802 lineto
229.263785 32.847151 lineto
227.109641 32.844538 lineto
224.985208 32.846553 lineto
222.823815 32.817304 lineto
220.815932 32.677962 lineto
218.770999 32.534443 lineto
216.799549 32.394988 lineto
214.742612 32.234911 lineto
212.653389 32.219867 lineto
210.596383 32.227783 lineto
208.667202 32.149792 lineto
206.718978 32.015761 lineto
204.784474 31.876667 lineto
202.737861 31.744309 lineto
200.751461 31.592253 lineto
198.825014 31.592004 lineto
196.832211 31.597171 lineto
194.944607 31.528203 lineto
192.988910 31.410097 lineto
191.123029 31.264563 lineto
189.134940 31.131475 lineto
187.289893 30.975687 lineto
185.387117 30.970947 lineto
183.531731 30.973109 lineto
181.770805 30.941974 lineto
180.016034 30.793481 lineto
178.273810 30.663946 lineto
176.481955 30.524817 lineto
174.714262 30.371056 lineto
172.957675 30.345037 lineto
171.226237 30.347130 lineto
169.519122 30.300205 lineto
167.823296 30.161771 lineto
165.980539 30.039262 lineto
164.216285 29.895471 lineto
162.415566 29.742766 lineto
160.709583 29.721717 lineto
159.044280 29.726111 lineto
157.388866 29.604647 lineto
155.787374 29.471307 lineto
154.169956 29.380015 lineto
152.487780 29.241481 lineto
150.624667 29.101288 lineto
148.996271 29.100725 lineto
147.413558 29.095461 lineto
145.935233 29.074951 lineto
144.462882 29.039285 lineto
142.881503 28.911589 lineto
141.426974 28.794858 lineto
139.892713 28.653388 lineto
138.390990 28.506650 lineto
136.836023 28.481128 lineto
135.406464 28.482398 lineto
133.976650 28.476027 lineto
132.505868 28.456573 lineto
130.982792 28.445535 lineto
129.530373 28.434378 lineto
128.086259 28.303480 lineto
126.658928 28.165477 lineto
125.226917 28.019477 lineto
123.791640 27.883780 lineto
122.335043 27.863681 lineto
120.923222 27.863821 lineto
119.564320 27.847916 lineto
118.219474 27.720826 lineto
116.863593 27.590180 lineto
115.540830 27.449304 lineto
114.180824 27.305614 lineto
112.855874 27.249709 lineto
111.458115 27.249834 lineto
109.956060 27.237480 lineto
108.708197 27.124557 lineto
107.249445 27.001287 lineto
106.147090 26.866825 lineto
104.863391 26.749709 lineto
103.523689 26.644123 lineto
102.358545 26.643983 lineto
101.226552 26.645625 lineto
99.925925 26.587958 lineto
98.797435 26.469949 lineto
97.257092 26.431592 lineto
95.976764 26.295523 lineto
94.804896 26.178073 lineto
93.589957 26.038145 lineto
92.469881 26.038327 lineto
91.143695 26.038339 lineto
90.098504 26.001950 lineto
88.979794 25.902281 lineto
87.926925 25.773324 lineto
86.884535 25.647333 lineto
85.814245 25.510631 lineto
84.725104 25.450704 lineto
83.686926 25.450580 lineto
82.704240 25.445207 lineto
81.751247 25.425722 lineto
80.742602 25.377523 lineto
79.547250 25.250515 lineto
78.598649 25.138667 lineto
77.212311 25.009570 lineto
76.298617 24.912168 lineto
75.347257 24.853531 lineto
74.369126 24.853430 lineto
73.387531 24.847614 lineto
72.461651 24.771906 lineto
71.558919 24.657173 lineto
70.457550 24.526403 lineto
69.511666 24.410463 lineto
68.655352 24.298518 lineto
67.902919 24.269017 lineto
67.153520 24.269223 lineto
66.425368 24.178514 lineto
65.843417 24.042619 lineto
65.134564 23.914066 lineto
64.425636 23.771284 lineto
63.701448 23.684675 lineto
63.010848 23.684682 lineto
62.377078 23.628611 lineto
61.747255 23.482533 lineto
61.094787 23.347267 lineto
60.467399 23.196030 lineto
59.875356 23.111505 lineto
59.311387 23.111505 lineto
58.755444 23.042517 lineto
58.203195 22.909503 lineto
57.649519 22.787095 lineto
57.100319 22.662560 lineto
56.511381 22.547630 lineto
55.920038 22.547626 lineto
55.516800 22.540273 lineto
55.019495 22.442479 lineto
54.535920 22.310796 lineto
54.062113 22.180981 lineto
53.610740 22.050995 lineto
53.097456 21.998208 lineto
52.663347 21.998208 lineto
52.195037 21.923114 lineto
51.791135 21.789529 lineto
51.400163 21.651262 lineto
50.983183 21.520841 lineto
50.585328 21.464906 lineto
50.183475 21.464906 lineto
49.841980 21.388518 lineto
49.499297 21.248543 lineto
49.150884 21.127261 lineto
48.848127 20.994306 lineto
48.478007 20.953542 lineto
48.189220 20.953530 lineto
47.948759 20.904280 lineto
47.654752 20.785832 lineto
47.389792 20.686368 lineto
47.137713 20.579183 lineto
46.746185 20.467925 lineto
46.496416 20.467910 lineto
46.292084 20.461166 lineto
46.100455 20.347808 lineto
45.930657 20.233572 lineto
45.740045 20.124555 lineto
45.491819 20.073332 lineto
45.304676 20.046032 lineto
45.158067 20.046032 lineto
45.000000 20.000000 lineto
closepath
gsave
0.000000 0.000000 1.000000 setrgbcolor
fill
grestore
stroke
45.000000 20.000000 moveto
45.000000 20.000000 lineto
45.158067 20.046032 lineto
45.304676 20.046032 lineto
45.491819 20.073332 lineto
45.740045 20.124555 lineto
45.930657 20.233572 lineto
46.100455 20.347808 lineto
46.292084 20.461166 lineto
46.496416 20.467910 lineto
46.746185 20.467925 lineto
47.137713 20.579183 lineto
47.389792 20.686368 lineto
47.654752 20.785832 lineto
47.948759 20.904280 lineto
48.189220 20.953530 lineto
48.478007 20.953542 lineto
48.848127 20.994306 lineto
49.150884 21.127261 lineto
49.499297 21.248543 lineto
49.841980 21.388518 lineto
50.183475 21.464906 lineto
50.585328 21.464906 lineto
50.983183 21.520841 lineto
51.400163 21.651262 lineto
51.791135 21.789529 lineto
52.195037 21.923114 lineto
52.663347 21.998208 lineto
53.097456 21.998208 lineto
53.610740 22.050995 lineto
54.062113 22.180981 lineto
54.535920 22.310796 lineto
55.019495 22.442479 lineto
55.516800 22.540273 lineto
55.920038 22.547626 lineto
56.511381 22.547630 lineto
57.100319 22.662560 lineto
57.649519 22.787095 lineto
58.203195 22.909503 lineto
58.755444 23.042517 lineto
59.311387 23.111505 lineto
59.875356 23.111505 lineto
60.467399 23.196030 lineto
61.094787 23.347267 lineto
61.747255 23.482533 lineto
62.377078 23.628611 lineto
63.010848 23.684682 lineto
63.701448 23.684675 lineto
64.425636 23.771284 lineto
65.134564 23.914066 lineto
65.843417 24.042619 lineto
66.425368 24.178514 lineto
67.153520 24.269223 lineto
67.902919 24.269017 lineto
68.655352 24.298518 lineto
69.511666 24.410463 lineto
70.457550 24.526403 lineto
71.558919 24.657173 lineto
72.461651 24.771906 lineto
73.387531 24.847614 lineto
74.369126 24.853430 lineto
75.347257 24.853531 lineto
76.298617 24.912168 lineto
77.212311 25.009570 lineto
78.598649 25.138667 lineto
79.547250 25.250515 lineto
80.742602 25.377523 lineto
81.751247 25.425722 lineto
82.704240 25.445207 lineto
83.686926 25.450580 lineto
84.725104 25.450704 lineto
85.814245 25.510631 lineto
86.884535 25.647333 lineto
87.926925 25.773324 lineto
88.979794 25.902281 lineto
90.098504 26.001950 lineto
91.143695 26.038339 lineto
92.469881 26.038327 lineto
93.589957 26.038145 lineto
94.804896 26.178073 lineto
95.976764 26.295523 lineto
97.257092 26.431592 lineto
98.797435 26.469949 lineto
99.925925 26.587958 lineto
101.226552 26.645625 lineto
102.358545 26.643983 lineto
103.523689 26.644123 lineto
104.863391 26.749709 lineto
106.147090 26.866825 lineto
107.249445 27.001287 lineto
108.708197 27.124557 lineto
109.956060 27.237480 lineto
111.458115 27.249834 lineto
112.855874 27.249709 lineto
114.180824 27.305614 lineto
115.540830 27.449304 lineto
116.863593 27.590180 lineto
118.219474 27.720826 lineto
119.564320 27.847916 lineto
120.923222 27.863821 lineto
122.335043 27.863681 lineto
123.791640 27.883780 lineto
125.226917 28.019477 lineto
126.658928 28.165477 lineto
128.086259 28.303480 lineto
129.530373 28.434378 lineto
130.982792 28.445535 lineto
132.505868 28.456573 lineto
133.976650 28.476027 lineto
135.406464 28.482398 lineto
136.836023 28.481128 lineto
138.390990 28.506650 lineto
139.892713 28.653388 lineto
141.426974 28.794858 lineto
142.881503 28.911589 lineto
144.462882 29.039285 lineto
145.935233 29.074951 lineto
147.413558 29.095461 lineto
148.996271 29.100725 lineto
150.624667 29.101288 lineto
152.487780 29.241481 lineto
154.169956 29.380015 lineto
155.787374 29.471307 lineto
157.388866 29.604647 lineto
159.044280 29.726111 lineto
160.709583 29.721717 lineto
162.415566 29.742766 lineto
164.216285 29.895471 lineto
165.980539 30.039262 lineto
167.823296 30.161771 lineto
169.519122 30.300205 lineto
171.226237 30.347130 lineto
172.957675 30.345037 lineto
174.714262 30.371056 lineto
176.481955 30.524817 lineto
178.273810 30.663946 lineto
180.016034 30.793481 lineto
181.770805 30.941974 lineto
183.531731 30.973109 lineto
185.387117 30.970947 lineto
187.289893 30.975687 lineto
189.134940 31.131475 lineto
191.123029 31.264563 lineto
192.988910 31.410097 lineto
194.944607 31.528203 lineto
196.832211 31.597171 lineto
198.825014 31.592004 lineto
200.751461 31.592253 lineto
202.737861 31.744309 lineto
204.784474 31.876667 lineto
206.718978 32.015761 lineto
208.667202 32.149792 lineto
210.596383 32.227783 lineto
212.653389 32.219867 lineto
214.742612 32.234911 lineto
216.799549 32.394988 lineto
218.770999 32.534443 lineto
220.815932 32.677962 lineto
222.823815 32.817304 lineto
224.985208 32.846553 lineto
227.109641 32.844538 lineto
229.263785 32.847151 lineto
231.399323 32.846802 lineto
233.553545 32.848145 lineto
235.763969 32.848102 lineto
237.950450 32.847660 lineto
240.133031 32.849667 lineto
242.289813 32.847629 lineto
244.413295 32.848300 lineto
246.691221 32.845824 lineto
248.836808 32.848848 lineto
250.998717 32.850055 lineto
253.321415 32.851593 lineto
255.562676 32.850405 lineto
257.890223 32.852528 lineto
260.144135 32.850148 lineto
262.368558 32.851146 lineto
264.802378 32.852206 lineto
267.127247 32.853293 lineto
269.304449 32.854411 lineto
271.552841 32.853394 lineto
273.894534 32.855840 lineto
276.167257 32.854442 lineto
278.460394 32.855514 lineto
280.945297 32.856123 lineto
283.297818 32.856275 lineto
285.618466 32.856364 lineto
287.961613 32.856837 lineto
290.321767 32.857579 lineto
292.781257 32.857327 lineto
295.147176 32.857206 lineto
297.619771 32.857730 lineto
300.024429 32.860320 lineto
302.574086 32.859679 lineto
305.073345 32.859920 lineto
307.541112 32.859318 lineto
310.041288 32.861255 lineto
312.668559 32.861120 lineto
315.147969 32.860976 lineto
317.657003 32.860409 lineto
320.198981 32.861395 lineto
322.744363 32.862145 lineto
325.287569 32.863387 lineto
327.844123 32.864000 lineto
330.430641 32.863907 lineto
332.957145 32.864482 lineto
335.499533 32.864043 lineto
338.053267 32.864260 lineto
340.748097 32.865697 lineto
343.380878 32.865619 lineto
345.979889 32.865879 lineto
348.659232 32.867898 lineto
351.254165 32.868539 lineto
353.874697 32.868609 lineto
356.497865 32.868725 lineto
359.095812 32.869412 lineto
362.385798 20.000000 lineto
362.385798 20.000000 lineto
362.385798 20.000000 lineto
359.095812 56.389337 lineto
356.497865 56.373668 lineto
353.874697 56.302382 lineto
351.254165 56.227548 lineto
348.659232 56.136687 lineto
345.979889 56.059873 lineto
343.380878 55.978726 lineto
340.748097 55.885420 lineto
338.053267 55.761979 lineto
335.499533 55.642262 lineto
332.957145 55.478954 lineto
330.430641 55.356566 lineto
327.844123 55.298134 lineto
325.287569 55.218381 lineto
322.744363 55.121876 lineto
320.198981 55.024442 lineto
317.657003 54.907450 lineto
315.147969 54.773967 lineto
312.668559 54.595379 lineto
310.041288 54.519442 lineto
307.541112 54.451828 lineto
305.073345 54.357889 lineto
302.574086 54.258484 lineto
300.024429 54.176129 lineto
297.619771 54.056890 lineto
295.147176 53.915117 lineto
292.781257 53.735291 lineto
290.321767 53.683831 lineto
287.961613 53.610821 lineto
285.618466 53.524934 lineto
283.297818 53.427237 lineto
280.945297 53.330875 lineto
278.460394 53.197788 lineto
276.167257 53.051760 lineto
273.894534 52.903019 lineto
271.552841 52.831818 lineto
269.304449 52.752942 lineto
267.127247 52.654880 lineto
264.802378 52.560211 lineto
262.368558 52.438829 lineto
260.144135 52.289606 lineto
257.890223 52.139475 lineto
255.562676 52.036669 lineto
253.321415 51.978532 lineto
250.998717 51.886359 lineto
248.836808 51.786775 lineto
246.691221 51.686935 lineto
244.413295 51.575320 lineto
242.289813 51.434511 lineto
240.133031 51.266316 lineto
237.950450 51.212919 lineto
235.763969 51.144634 lineto
233.553545 51.043559 lineto
231.399323 50.955230 lineto
229.263785 50.861167 lineto
227.109641 50.725419 lineto
224.985208 50.583697 lineto
222.823815 50.414625 lineto
220.815932 50.275360 lineto
218.770999 50.132594 lineto
216.799549 49.992293 lineto
214.742612 49.832425 lineto
212.653389 49.472163 lineto
210.596383 49.070120 lineto
208.667202 48.964775 lineto
206.718978 48.831427 lineto
204.784474 48.691510 lineto
202.737861 48.559750 lineto
200.751461 48.405806 lineto
198.825014 48.030648 lineto
196.832211 47.701118 lineto
194.944607 47.584188 lineto
192.988910 47.464995 lineto
191.123029 47.320004 lineto
189.134940 47.186962 lineto
187.289893 47.030903 lineto
185.387117 46.731507 lineto
183.531731 46.403739 lineto
181.770805 46.197859 lineto
180.016034 46.049673 lineto
178.273810 45.919796 lineto
176.481955 45.780667 lineto
174.714262 45.626922 lineto
172.957675 45.295307 lineto
171.226237 44.938764 lineto
169.519122 44.709551 lineto
167.823296 44.570124 lineto
165.980539 44.447615 lineto
164.216285 44.303824 lineto
162.415566 44.151119 lineto
160.709583 43.792522 lineto
159.044280 43.293985 lineto
157.388866 43.161938 lineto
155.787374 43.027969 lineto
154.169956 42.936677 lineto
152.487780 42.798112 lineto
150.624667 42.630712 lineto
148.996271 42.102767 lineto
147.413558 41.876094 lineto
145.935233 41.850642 lineto
144.462882 41.814478 lineto
142.881503 41.687016 lineto
141.426974 41.570400 lineto
139.892713 41.428713 lineto
138.390990 41.281828 lineto
136.836023 41.030234 lineto
135.406464 40.656221 lineto
133.976650 40.483779 lineto
132.505868 40.460143 lineto
130.982792 40.447833 lineto
129.530373 40.436675 lineto
128.086259 40.306080 lineto
126.658928 40.167774 lineto
125.226917 40.021774 lineto
123.791640 39.886232 lineto
122.335043 39.593832 lineto
120.923222 39.267202 lineto
119.564320 39.050692 lineto
118.219474 38.923959 lineto
116.863593 38.792964 lineto
115.540830 38.652205 lineto
114.180824 38.508398 lineto
112.855874 38.257371 lineto
111.458115 37.942318 lineto
109.956060 37.643267 lineto
108.708197 37.531011 lineto
107.249445 37.407190 lineto
106.147090 37.272946 lineto
104.863391 37.155581 lineto
103.523689 36.956425 lineto
102.358545 36.604568 lineto
101.226552 36.334219 lineto
99.925925 36.170294 lineto
98.797435 36.052262 lineto
97.257092 36.013913 lineto
95.976764 35.878503 lineto
94.804896 35.760882 lineto
93.589957 35.604532 lineto
92.469881 35.269559 lineto
91.143695 34.967127 lineto
90.098504 34.781861 lineto
88.979794 34.681509 lineto
87.926925 34.552039 lineto
86.884535 34.426700 lineto
85.814245 34.289672 lineto
84.725104 33.990311 lineto
83.686926 33.689280 lineto
82.704240 33.455323 lineto
81.751247 33.432961 lineto
80.742602 33.383482 lineto
79.547250 33.256474 lineto
78.598649 33.144649 lineto
77.212311 33.015537 lineto
76.298617 32.918546 lineto
75.347257 32.706792 lineto
74.369126 32.389122 lineto
73.387531 32.107553 lineto
72.461651 31.998430 lineto
71.558919 31.882929 lineto
70.457550 31.752097 lineto
69.511666 31.636452 lineto
68.655352 31.524468 lineto
67.902919 31.152458 lineto
67.153520 30.816041 lineto
66.425368 30.605859 lineto
65.843417 30.469203 lineto
65.134564 30.340813 lineto
64.425636 30.197457 lineto
63.701448 29.926533 lineto
63.010848 29.561406 lineto
62.377078 29.250938 lineto
61.747255 29.104821 lineto
61.094787 28.969579 lineto
60.467399 28.818559 lineto
59.875356 28.532351 lineto
59.311387 28.176479 lineto
58.755444 27.909845 lineto
58.203195 27.777825 lineto
57.649519 27.654781 lineto
57.100319 27.530129 lineto
56.511381 27.344394 lineto
55.920038 26.952926 lineto
55.516800 26.594310 lineto
55.019495 26.492412 lineto
54.535920 26.360722 lineto
54.062113 26.230907 lineto
53.610740 26.101076 lineto
53.097456 25.761378 lineto
52.663347 25.323094 lineto
52.195037 25.142324 lineto
51.791135 25.008739 lineto
51.400163 24.870644 lineto
50.983183 24.740106 lineto
50.585328 24.441289 lineto
50.183475 24.046641 lineto
49.841980 23.823000 lineto
49.499297 23.683281 lineto
49.150884 23.561191 lineto
48.848127 23.428228 lineto
48.478007 23.176580 lineto
48.189220 22.779009 lineto
47.948759 22.529340 lineto
47.654752 22.410435 lineto
47.389792 22.310963 lineto
47.137713 22.204104 lineto
46.746185 22.088249 lineto
46.496416 21.683725 lineto
46.292084 21.269981 lineto
46.100455 21.153595 lineto
45.930657 21.039212 lineto
45.740045 20.930186 lineto
45.491819 20.878987 lineto
45.304676 20.620871 lineto
45.158067 20.259432 lineto
45.000000 20.000000 lineto
closepath
gsave
0.000000 1.000000 0.000000 setrgbcolor
fill
grestore
stroke
45.000000 20.000000 moveto
45.000000 20.000000 lineto
45.158067 20.259432 lineto
45.304676 20.620871 lineto
45.491819 20.878987 lineto
45.740045 20.930186 lineto
45.930657 21.039212 lineto
46.100455 21.153595 lineto
46.292084 21.269981 lineto
46.496416 21.683725 lineto
46.746185 22.088249 lineto
47.137713 22.204104 lineto
47.389792 22.310963 lineto
47.654752 22.410435 lineto
47.948759 22.529340 lineto
48.189220 22.779009 lineto
48.478007 23.176580 lineto
48.848127 23.428228 lineto
49.150884 23.561191 lineto
49.499297 23.683281 lineto
49.841980 23.823000 lineto
50.183475 24.046641 lineto
50.585328 24.441289 lineto
50.983183 24.740106 lineto
51.400163 24.870644 lineto
51.791135 25.008739 lineto
52.195037 25.142324 lineto
52.663347 25.323094 lineto
53.097456 25.761378 lineto
53.610740 26.101076 lineto
54.062113 26.230907 lineto
54.535920 26.360722 lineto
55.019495 26.492412 lineto
55.516800 26.594310 lineto
55.920038 26.952926 lineto
56.511381 27.344394 lineto
57.100319 27.530129 lineto
57.649519 27.654781 lineto
58.203195 27.777825 lineto
58.755444 27.909845 lineto
59.311387 28.176479 lineto
59.875356 28.532351 lineto
60.467399 28.818559 lineto
61.094787 28.969579 lineto
61.747255 29.104821 lineto
62.377078 29.250938 lineto
63.010848 29.561406 lineto
63.701448 29.926533 lineto
64.425636 30.197457 lineto
65.134564 30.340813 lineto
65.843417 30.469203 lineto
66.425368 30.605859 lineto
67.153520 30.816041 lineto
67.902919 31.152458 lineto
68.655352 31.524468 lineto
69.511666 31.636452 lineto
70.457550 31.752097 lineto
71.558919 31.882929 lineto
72.461651 31.998430 lineto
73.387531 32.107553 lineto
74.369126 32.389122 lineto
75.347257 32.706792 lineto
76.298617 32.918546 lineto
77.212311 33.015537 lineto
78.598649 33.144649 lineto
79.547250 33.256474 lineto
80.742602 33.383482 lineto
81.751247 33.432961 lineto
82.704240 33.455323 lineto
83.686926 33.689280 lineto
84.725104 33.990311 lineto
85.814245 34.289672 lineto
86.884535 34.426700 lineto
87.926925 34.552039 lineto
88.979794 34.681509 lineto
90.098504 34.781861 lineto
91.143695 34.967127 lineto
92.469881 35.269559 lineto
93.589957 35.604532 lineto
94.804896 35.760882 lineto
95.976764 35.878503 lineto
97.257092 36.013913 lineto
98.797435 36.052262 lineto
99.925925 36.170294 lineto
101.226552 36.334219 lineto
102.358545 36.604568 lineto
103.523689 36.956425 lineto
104.863391 37.155581 lineto
106.147090 37.272946 lineto
107.249445 37.407190 lineto
108.708197 37.531011 lineto
109.956060 37.643267 lineto
111.458115 37.942318 lineto
112.855874 38.257371 lineto
114.180824 38.508398 lineto
115.540830 38.652205 lineto
116.863593 38.792964 lineto
118.219474 38.923959 lineto
119.564320 39.050692 lineto
120.923222 39.267202 lineto
122.335043 39.593832 lineto
123.791640 39.886232 lineto
125.226917 40.021774 lineto
126.658928 40.167774 lineto
128.086259 40.306080 lineto
129.530373 40.436675 lineto
130.982792 40.447833 lineto
132.505868 40.460143 lineto
133.976650 40.483779 lineto
135.406464 40.656221 lineto
136.836023 41.030234 lineto
138.390990 41.281828 lineto
139.892713 41.428713 lineto
141.426974 41.570400 lineto
142.881503 41.687016 lineto
144.462882 41.814478 lineto
145.935233 41.850642 lineto
147.413558 41.876094 lineto
148.996271 42.102767 lineto
150.624667 42.630712 lineto
152.487780 42.798112 lineto
154.169956 42.936677 lineto
155.787374 43.027969 lineto
157.388866 43.161938 lineto
159.044280 43.293985 lineto
160.709583 43.792522 lineto
162.415566 44.151119 lineto
164.216285 44.303824 lineto
165.980539 44.447615 lineto
167.823296 44.570124 lineto
169.519122 44.709551 lineto
171.226237 44.938764 lineto
172.957675 45.295307 lineto
174.714262 45.626922 lineto
176.481955 45.780667 lineto
178.273810 45.919796 lineto
180.016034 46.049673 lineto
181.770805 46.197859 lineto
183.531731 46.403739 lineto
185.387117 46.731507 lineto
187.289893 47.030903 lineto
189.134940 47.186962 lineto
191.123029 47.320004 lineto
192.988910 47.464995 lineto
194.944607 47.584188 lineto
196.832211 47.701118 lineto
198.825014 48.030648 lineto
200.751461 48.405806 lineto
202.737861 48.559750 lineto
204.784474 48.691510 lineto
206.718978 48.831427 lineto
208.667202 48.964775 lineto
210.596383 49.070120 lineto
212.653389 49.472163 lineto
214.742612 49.832425 lineto
216.799549 49.992293 lineto
218.770999 50.132594 lineto
220.815932 50.275360 lineto
222.823815 50.414625 lineto
224.985208 50.583697 lineto
227.109641 50.725419 lineto
229.263785 50.861167 lineto
231.399323 50.955230 lineto
233.553545 51.043559 lineto
235.763969 51.144634 lineto
237.950450 51.212919 lineto
240.133031 51.266316 lineto
242.289813 51.434511 lineto
244.413295 51.575320 lineto
246.691221 51.686935 lineto
248.836808 51.786775 lineto
250.998717 51.886359 lineto
253.321415 51.978532 lineto
255.562676 52.036669 lineto
257.890223 52.139475 lineto
260.144135 52.289606 lineto
262.368558 52.438829 lineto
264.802378 52.560211 lineto
267.127247 52.654880 lineto
269.304449 52.752942 lineto
271.552841 52.831818 lineto
273.894534 52.903019 lineto
276.167257 53.051760 lineto
278.460394 53.197788 lineto
280.945297 53.330875 lineto
283.297818 53.427237 lineto
285.618466 53.524934 lineto
287.961613 53.610821 lineto
290.321767 53.683831 lineto
292.781257 53.735291 lineto
295.147176 53.915117 lineto
297.619771 54.056890 lineto
300.024429 54.176129 lineto
302.574086 54.258484 lineto
305.073345 54.357889 lineto
307.541112 54.451828 lineto
310.041288 54.519442 lineto
312.668559 54.595379 lineto
315.147969 54.773967 lineto
317.657003 54.907450 lineto
320.198981 55.024442 lineto
322.744363 55.121876 lineto
325.287569 55.218381 lineto
327.844123 55.298134 lineto
330.430641 55.356566 lineto
332.957145 55.478954 lineto
335.499533 55.642262 lineto
338.053267 55.761979 lineto
340.748097 55.885420 lineto
343.380878 55.978726 lineto
345.979889 56.059873 lineto
348.659232 56.136687 lineto
351.254165 56.227548 lineto
353.874697 56.302382 lineto
356.497865 56.373668 lineto
359.095812 56.389337 lineto
362.385798 20.000000 lineto
362.385798 20.000000 lineto
362.385798 20.000000 lineto
359.095812 80.369372 lineto
356.497865 80.338563 lineto
353.874697 80.195478 lineto
351.254165 80.045763 lineto
348.659232 79.880867 lineto
345.979889 79.728473 lineto
343.380878 79.565985 lineto
340.748097 79.379108 lineto
338.053267 79.133345 lineto
335.499533 78.893705 lineto
332.957145 78.566124 lineto
330.430641 78.321793 lineto
327.844123 78.204468 lineto
325.287569 78.045074 lineto
322.744363 77.853088 lineto
320.198981 77.658334 lineto
317.657003 77.424735 lineto
315.147969 77.156979 lineto
312.668559 76.799489 lineto
310.041288 76.646830 lineto
307.541112 76.513148 lineto
305.073345 76.324094 lineto
302.574086 76.125652 lineto
300.024429 75.959006 lineto
297.619771 75.723034 lineto
295.147176 75.439388 lineto
292.781257 75.079914 lineto
290.321767 74.976627 lineto
287.961613 74.830366 lineto
285.618466 74.658658 lineto
283.297818 74.463493 lineto
280.945297 74.270362 lineto
278.460394 74.003670 lineto
276.167257 73.712531 lineto
273.894534 73.413484 lineto
271.552841 73.273187 lineto
269.304449 73.114243 lineto
267.127247 72.919078 lineto
264.802378 72.729954 lineto
262.368558 72.487646 lineto
260.144135 72.190385 lineto
257.890223 71.886897 lineto
255.562676 71.683043 lineto
253.321415 71.565151 lineto
250.998717 71.381675 lineto
248.836808 71.183451 lineto
246.691221 70.986142 lineto
244.413295 70.760754 lineto
242.289813 70.479166 lineto
240.133031 70.140368 lineto
237.950450 70.035260 lineto
235.763969 69.897816 lineto
233.553545 69.695484 lineto
231.399323 69.519571 lineto
229.263785 69.330160 lineto
227.109641 69.060808 lineto
224.985208 68.774814 lineto
222.823815 68.464217 lineto
220.815932 68.319712 lineto
218.770999 68.171603 lineto
216.799549 68.026162 lineto
214.742612 67.860471 lineto
212.653389 67.154509 lineto
210.596383 66.342211 lineto
208.667202 66.209162 lineto
206.718978 66.070775 lineto
204.784474 65.925610 lineto
202.737861 65.788818 lineto
200.751461 65.627957 lineto
198.825014 64.877904 lineto
196.832211 64.213435 lineto
194.944607 64.047441 lineto
192.988910 63.923791 lineto
191.123029 63.773435 lineto
189.134940 63.635277 lineto
187.289893 63.473596 lineto
185.387117 62.879497 lineto
183.531731 62.221792 lineto
181.770805 61.842242 lineto
180.016034 61.688427 lineto
178.273810 61.553689 lineto
176.481955 61.409320 lineto
174.714262 61.249945 lineto
172.957675 60.611763 lineto
171.226237 59.896585 lineto
169.519122 59.484463 lineto
167.823296 59.339794 lineto
165.980539 59.212627 lineto
164.216285 59.063401 lineto
162.415566 58.905066 lineto
160.709583 58.207835 lineto
159.044280 57.206289 lineto
157.388866 57.061035 lineto
155.787374 56.922018 lineto
154.169956 56.827241 lineto
152.487780 56.683419 lineto
150.624667 56.483362 lineto
148.996271 55.428042 lineto
147.413558 54.977246 lineto
145.935233 54.950388 lineto
144.462882 54.912866 lineto
142.881503 54.780590 lineto
141.426974 54.659471 lineto
139.892713 54.512357 lineto
138.390990 54.360028 lineto
136.836023 53.881376 lineto
135.406464 53.132080 lineto
133.976650 52.790659 lineto
132.505868 52.765610 lineto
130.982792 52.752927 lineto
129.530373 52.741381 lineto
128.086259 52.605739 lineto
126.658928 52.462192 lineto
125.226917 52.310563 lineto
123.791640 52.169974 lineto
122.335043 51.604410 lineto
120.923222 50.951033 lineto
119.564320 50.535658 lineto
118.219474 50.404073 lineto
116.863593 50.268031 lineto
115.540830 50.121836 lineto
114.180824 49.972594 lineto
112.855874 49.524100 lineto
111.458115 48.893830 lineto
109.956060 48.310054 lineto
108.708197 48.193334 lineto
107.249445 48.064862 lineto
106.147090 47.925369 lineto
104.863391 47.803586 lineto
103.523689 47.506721 lineto
102.358545 46.803162 lineto
101.226552 46.260806 lineto
99.925925 45.990694 lineto
98.797435 45.868173 lineto
97.257092 45.828272 lineto
95.976764 45.687637 lineto
94.804896 45.565365 lineto
93.589957 45.387584 lineto
92.469881 44.717448 lineto
91.143695 44.112548 lineto
90.098504 43.777963 lineto
88.979794 43.673721 lineto
87.926925 43.539212 lineto
86.884535 43.408896 lineto
85.814245 43.266549 lineto
84.725104 42.725626 lineto
83.686926 42.123689 lineto
82.704240 41.659817 lineto
81.751247 41.635972 lineto
80.742602 41.584707 lineto
79.547250 41.452651 lineto
78.598649 41.336385 lineto
77.212311 41.202203 lineto
76.298617 41.101330 lineto
75.347257 40.734526 lineto
74.369126 40.099264 lineto
73.387531 39.540750 lineto
72.461651 39.397611 lineto
71.558919 39.277451 lineto
70.457550 39.141378 lineto
69.511666 39.021074 lineto
68.655352 38.904734 lineto
67.902919 38.189113 lineto
67.153520 37.516080 lineto
66.425368 37.183949 lineto
65.843417 37.041889 lineto
65.134564 36.908234 lineto
64.425636 36.759047 lineto
63.701448 36.300237 lineto
63.010848 35.569991 lineto
62.377078 35.005142 lineto
61.747255 34.852984 lineto
61.094787 34.712120 lineto
60.467399 34.554881 lineto
59.875356 34.063441 lineto
59.311387 33.351682 lineto
58.755444 32.887100 lineto
58.203195 32.749520 lineto
57.649519 32.621359 lineto
57.100319 32.491466 lineto
56.511381 32.229957 lineto
55.920038 31.447025 lineto
55.516800 30.735666 lineto
55.019495 30.629320 lineto
54.535920 30.492000 lineto
54.062113 30.356548 lineto
53.610740 30.221088 lineto
53.097456 29.588481 lineto
52.663347 28.711929 lineto
52.195037 28.424567 lineto
51.791135 28.285167 lineto
51.400163 28.140852 lineto
50.983183 28.004507 lineto
50.585328 27.460027 lineto
50.183475 26.670717 lineto
49.841980 26.298384 lineto
49.499297 26.152260 lineto
49.150884 26.024541 lineto
48.848127 25.885366 lineto
48.478007 25.420807 lineto
48.189220 24.625731 lineto
47.948759 24.175288 lineto
47.654752 24.050737 lineto
47.389792 23.946405 lineto
47.137713 23.834344 lineto
46.746185 23.708248 lineto
46.496416 22.899371 lineto
46.292084 22.077841 lineto
46.100455 21.955849 lineto
45.930657 21.835355 lineto
45.740045 21.720102 lineto
45.491819 21.665603 lineto
45.304676 21.174924 lineto
45.158067 20.452435 lineto
45.000000 20.000000 lineto
closepath
gsave
0.000000 1.000000 1.000000 setrgbcolor
fill
grestore
stroke
45.000000 20.000000 moveto
45.000000 20.000000 lineto
45.158067 20.452435 lineto
45.304676 21.174924 lineto
45.491819 21.665603 lineto
45.740045 21.720102 lineto
45.930657 21.835355 lineto
46.100455 21.955849 lineto
46.292084 22.077841 lineto
46.496416 22.899371 lineto
46.746185 23.708248 lineto
47.137713 23.834344 lineto
47.389792 23.946405 lineto
47.654752 24.050737 lineto
47.948759 24.175288 lineto
48.189220 24.625731 lineto
48.478007 25.420807 lineto
48.848127 25.885366 lineto
49.150884 26.024541 lineto
49.499297 26.152260 lineto
49.841980 26.298384 lineto
50.183475 26.670717 lineto
50.585328 27.460027 lineto
50.983183 28.004507 lineto
51.400163 28.140852 lineto
51.791135 28.285167 lineto
52.195037 28.424567 lineto
52.663347 28.711929 lineto
53.097456 29.588481 lineto
53.610740 30.221088 lineto
54.062113 30.356548 lineto
54.535920 30.492000 lineto
55.019495 30.629320 lineto
55.516800 30.735666 lineto
55.920038 31.447025 lineto
56.511381 32.229957 lineto
57.100319 32.491466 lineto
57.649519 32.621359 lineto
58.203195 32.749520 lineto
58.755444 32.887100 lineto
59.311387 33.351682 lineto
59.875356 34.063441 lineto
60.467399 34.554881 lineto
61.094787 34.712120 lineto
61.747255 34.852984 lineto
62.377078 35.005142 lineto
63.010848 35.569991 lineto
63.701448 36.300237 lineto
64.425636 36.759047 lineto
65.134564 36.908234 lineto
65.843417 37.041889 lineto
66.425368 37.183949 lineto
67.153520 37.516080 lineto
67.902919 38.189113 lineto
68.655352 38.904734 lineto
69.511666 39.021074 lineto
70.457550 39.141378 lineto
71.558919 39.277451 lineto
72.461651 39.397611 lineto
73.387531 39.540750 lineto
74.369126 40.099264 lineto
75.347257 40.734526 lineto
76.298617 41.101330 lineto
77.212311 41.202203 lineto
78.598649 41.336385 lineto
79.547250 41.452651 lineto
80.742602 41.584707 lineto
81.751247 41.635972 lineto
82.704240 41.659817 lineto
83.686926 42.123689 lineto
84.725104 42.725626 lineto
85.814245 43.266549 lineto
86.884535 43.408896 lineto
87.926925 43.539212 lineto
88.979794 43.673721 lineto
90.098504 43.777963 lineto
91.143695 44.112548 lineto
92.469881 44.717448 lineto
93.589957 45.387584 lineto
94.804896 45.565365 lineto
95.976764 45.687637 lineto
97.257092 45.828272 lineto
98.797435 45.868173 lineto
99.925925 45.990694 lineto
101.226552 46.260806 lineto
102.358545 46.803162 lineto
103.523689 47.506721 lineto
104.863391 47.803586 lineto
106.147090 47.925369 lineto
107.249445 48.064862 lineto
108.708197 48.193334 lineto
109.956060 48.310054 lineto
111.458115 48.893830 lineto
112.855874 49.524100 lineto
114.180824 49.972594 lineto
115.540830 50.121836 lineto
116.863593 50.268031 lineto
118.219474 50.404073 lineto
119.564320 50.535658 lineto
120.923222 50.951033 lineto
122.335043 51.604410 lineto
123.791640 52.169974 lineto
125.226917 52.310563 lineto
126.658928 52.462192 lineto
128.086259 52.605739 lineto
129.530373 52.741381 lineto
130.982792 52.752927 lineto
132.505868 52.765610 lineto
133.976650 52.790659 lineto
135.406464 53.132080 lineto
136.836023 53.881376 lineto
138.390990 54.360028 lineto
139.892713 54.512357 lineto
141.426974 54.659471 lineto
142.881503 54.780590 lineto
144.462882 54.912866 lineto
145.935233 54.950388 lineto
147.413558 54.977246 lineto
148.996271 55.428042 lineto
150.624667 56.483362 lineto
152.487780 56.683419 lineto
154.169956 56.827241 lineto
155.787374 56.922018 lineto
157.388866 57.061035 lineto
159.044280 57.206289 lineto
160.709583 58.207835 lineto
162.415566 58.905066 lineto
164.216285 59.063401 lineto
165.980539 59.212627 lineto
167.823296 59.339794 lineto
169.519122 59.484463 lineto
171.226237 59.896585 lineto
172.957675 60.611763 lineto
174.714262 61.249945 lineto
176.481955 61.409320 lineto
178.273810 61.553689 lineto
180.016034 61.688427 lineto
181.770805 61.842242 lineto
183.531731 62.221792 lineto
185.387117 62.879497 lineto
187.289893 63.473596 lineto
189.134940 63.635277 lineto
191.123029 63.773435 lineto
192.988910 63.923791 lineto
194.944607 64.047441 lineto
196.832211 64.213435 lineto
198.825014 64.877904 lineto
200.751461 65.627957 lineto
202.737861 65.788818 lineto
204.784474 65.925610 lineto
206.718978 66.070775 lineto
208.667202 66.209162 lineto
210.596383 66.342211 lineto
212.653389 67.154509 lineto
214.742612 67.860471 lineto
216.799549 68.026162 lineto
218.770999 68.171603 lineto
220.815932 68.319712 lineto
222.823815 68.464217 lineto
224.985208 68.774814 lineto
227.109641 69.060808 lineto
229.263785 69.330160 lineto
231.399323 69.519571 lineto
233.553545 69.695484 lineto
235.763969 69.897816 lineto
237.950450 70.035260 lineto
240.133031 70.140368 lineto
242.289813 70.479166 lineto
244.413295 70.760754 lineto
246.691221 70.986142 lineto
248.836808 71.183451 lineto
250.998717 71.381675 lineto
253.321415 71.565151 lineto
255.562676 71.683043 lineto
257.890223 71.886897 lineto
260.144135 72.190385 lineto
262.368558 72.487646 lineto
264.802378 72.729954 lineto
267.127247 72.919078 lineto
269.304449 73.114243 lineto
271.552841 73.273187 lineto
273.894534 73.413484 lineto
276.167257 73.712531 lineto
278.460394 74.003670 lineto
280.945297 74.270362 lineto
283.297818 74.463493 lineto
285.618466 74.658658 lineto
287.961613 74.830366 lineto
290.321767 74.976627 lineto
292.781257 75.079914 lineto
295.147176 75.439388 lineto
297.619771 75.723034 lineto
300.024429 75.959006 lineto
302.574086 76.125652 lineto
305.073345 76.324094 lineto
307.541112 76.513148 lineto
310.041288 76.646830 lineto
312.668559 76.799489 lineto
315.147969 77.156979 lineto
317.657003 77.424735 lineto
320.198981 77.658334 lineto
322.744363 77.853088 lineto
325.287569 78.045074 lineto
327.844123 78.204468 lineto
330.430641 78.321793 lineto
332.957145 78.566124 lineto
335.499533 78.893705 lineto
338.053267 79.133345 lineto
340.748097 79.379108 lineto
343.380878 79.565985 lineto
345.979889 79.728473 lineto
348.659232 79.880867 lineto
351.254165 80.045763 lineto
353.874697 80.195478 lineto
356.497865 80.338563 lineto
359.095812 80.369372 lineto
362.385798 20.000000 lineto
362.385798 20.000000 lineto
362.385798 20.000000 lineto
359.095812 129.100126 lineto
356.497865 129.030009 lineto
353.874697 128.714967 lineto
351.254165 128.400178 lineto
348.659232 128.066901 lineto
345.979889 127.744207 lineto
343.380878 127.398441 lineto
340.748097 127.003662 lineto
338.053267 126.497873 lineto
335.499533 125.999744 lineto
332.957145 125.339200 lineto
330.430641 124.897243 lineto
327.844123 124.646667 lineto
325.287569 124.309325 lineto
322.744363 123.905822 lineto
320.198981 123.493456 lineto
317.657003 123.011528 lineto
315.147969 122.448821 lineto
312.668559 121.776378 lineto
310.041288 121.479719 lineto
307.541112 121.193981 lineto
305.073345 120.794756 lineto
302.574086 120.376687 lineto
300.024429 120.030979 lineto
297.619771 119.545362 lineto
295.147176 118.959719 lineto
292.781257 118.297879 lineto
290.321767 118.074808 lineto
287.961613 117.765644 lineto
285.618466 117.397295 lineto
283.297818 116.987313 lineto
280.945297 116.593911 lineto
278.460394 116.036624 lineto
276.167257 115.454246 lineto
273.894534 114.897957 lineto
271.552841 114.599636 lineto
269.304449 114.256611 lineto
267.127247 113.849288 lineto
264.802378 113.444197 lineto
262.368558 112.949795 lineto
260.144135 112.326323 lineto
257.890223 111.769308 lineto
255.562676 111.363483 lineto
253.321415 111.106275 lineto
250.998717 110.721714 lineto
248.836808 110.306098 lineto
246.691221 109.904812 lineto
244.413295 109.431491 lineto
242.289813 108.868109 lineto
240.133031 108.229111 lineto
237.950450 108.004674 lineto
235.763969 107.711552 lineto
233.553545 107.278675 lineto
231.399323 106.910835 lineto
229.263785 106.525435 lineto
227.109641 105.964021 lineto
224.985208 105.388542 lineto
222.823815 104.844408 lineto
220.815932 104.700120 lineto
218.770999 104.552943 lineto
216.799549 104.406318 lineto
214.742612 104.241127 lineto
212.653389 102.787457 lineto
210.596383 101.136211 lineto
208.667202 100.929251 lineto
206.718978 100.792149 lineto
204.784474 100.645660 lineto
202.737861 100.509745 lineto
200.751461 100.345172 lineto
198.825014 98.787764 lineto
196.832211 97.454448 lineto
194.944607 97.174032 lineto
192.988910 97.049027 lineto
191.123029 96.898970 lineto
189.134940 96.761316 lineto
187.289893 96.599348 lineto
185.387117 95.401993 lineto
183.531731 93.976702 lineto
181.770805 93.203118 lineto
180.016034 93.049334 lineto
178.273810 92.914565 lineto
176.481955 92.770195 lineto
174.714262 92.610840 lineto
172.957675 91.388925 lineto
171.226237 89.979059 lineto
169.519122 89.124429 lineto
167.823296 88.978083 lineto
165.980539 88.850916 lineto
164.216285 88.701689 lineto
162.415566 88.543355 lineto
160.709583 87.203171 lineto
159.044280 85.106944 lineto
157.388866 84.931527 lineto
155.787374 84.791106 lineto
154.169956 84.696290 lineto
152.487780 84.552467 lineto
150.624667 84.293982 lineto
148.996271 82.078173 lineto
147.413558 81.243405 lineto
145.935233 81.215958 lineto
144.462882 81.177263 lineto
142.881503 81.045453 lineto
141.426974 80.924734 lineto
139.892713 80.776773 lineto
138.390990 80.624425 lineto
136.836023 79.661776 lineto
135.406464 78.135037 lineto
133.976650 77.435516 lineto
132.505868 77.410432 lineto
130.982792 77.396021 lineto
129.530373 77.384476 lineto
128.086259 77.249563 lineto
126.658928 77.105287 lineto
125.226917 76.953657 lineto
123.791640 76.813418 lineto
122.335043 75.644023 lineto
120.923222 74.370400 lineto
119.564320 73.533656 lineto
118.219474 73.402921 lineto
116.863593 73.266028 lineto
115.540830 73.120164 lineto
114.180824 72.970592 lineto
112.855874 72.171793 lineto
111.458115 70.854351 lineto
109.956060 69.672288 lineto
108.708197 69.557031 lineto
107.249445 69.427348 lineto
106.147090 69.287761 lineto
104.863391 69.165820 lineto
103.523689 68.663765 lineto
102.358545 67.183381 lineto
101.226552 66.078524 lineto
99.925925 65.626179 lineto
98.797435 65.503658 lineto
97.257092 65.463795 lineto
95.976764 65.324170 lineto
94.804896 65.201684 lineto
93.589957 64.984802 lineto
92.469881 63.579085 lineto
91.143695 62.361468 lineto
90.098504 61.775141 lineto
88.979794 61.670437 lineto
87.926925 61.534697 lineto
86.884535 61.405371 lineto
85.814245 61.262691 lineto
84.725104 60.213831 lineto
83.686926 58.933620 lineto
82.704240 57.968742 lineto
81.751247 57.946625 lineto
80.742602 57.893632 lineto
79.547250 57.761577 lineto
78.598649 57.645311 lineto
77.212311 57.511140 lineto
76.298617 57.410939 lineto
75.347257 56.701195 lineto
74.369126 55.389464 lineto
73.387531 54.289569 lineto
72.461651 54.092172 lineto
71.558919 53.970595 lineto
70.457550 53.834347 lineto
69.511666 53.714726 lineto
68.655352 53.598123 lineto
67.902919 52.189048 lineto
67.153520 50.820147 lineto
66.425368 50.197020 lineto
65.843417 50.053516 lineto
65.134564 49.920824 lineto
64.425636 49.770534 lineto
63.701448 48.879815 lineto
63.010848 47.414296 lineto
62.377078 46.315620 lineto
61.747255 46.163423 lineto
61.094787 46.022559 lineto
60.467399 45.865879 lineto
59.875356 44.957791 lineto
59.311387 43.478424 lineto
58.755444 42.594363 lineto
58.203195 42.458142 lineto
57.649519 42.329425 lineto
57.100319 42.199245 lineto
56.511381 41.829114 lineto
55.920038 40.270398 lineto
55.516800 38.817690 lineto
55.019495 38.705931 lineto
54.535920 38.568612 lineto
54.062113 38.433160 lineto
53.610740 38.298100 lineto
53.097456 37.052251 lineto
52.663347 35.286870 lineto
52.195037 34.766879 lineto
51.791135 34.627479 lineto
51.400163 34.483203 lineto
50.983183 34.346819 lineto
50.585328 33.263652 lineto
50.183475 31.886291 lineto
49.841980 31.179118 lineto
49.499297 31.032659 lineto
49.150884 30.904017 lineto
48.848127 30.764842 lineto
48.478007 29.825354 lineto
48.189220 28.220201 lineto
47.948759 27.392767 lineto
47.654752 27.268216 lineto
47.389792 27.163845 lineto
47.137713 27.052374 lineto
46.746185 26.917271 lineto
46.496416 25.192526 lineto
46.292084 23.573964 lineto
46.100455 23.442503 lineto
45.930657 23.322009 lineto
45.740045 23.206795 lineto
45.491819 23.152257 lineto
45.304676 22.221590 lineto
45.158067 20.750690 lineto
45.000000 20.000000 lineto
closepath
gsave
1.000000 0.000000 0.000000 setrgbcolor
fill
grestore
stroke
45.000000 20.000000 moveto
45.000000 20.000000 lineto
45.158067 20.750690 lineto
45.304676 22.221590 lineto
45.491819 23.152257 lineto
45.740045 23.206795 lineto
45.930657 23.322009 lineto
46.100455 23.442503 lineto
46.292084 23.573964 lineto
46.496416 25.192526 lineto
46.746185 26.917271 lineto
47.137713 27.052374 lineto
47.389792 27.163845 lineto
47.654752 27.268216 lineto
47.948759 27.392767 lineto
48.189220 28.220201 lineto
48.478007 29.825354 lineto
48.848127 30.764842 lineto
49.150884 30.904017 lineto
49.499297 31.032659 lineto
49.841980 31.179118 lineto
50.183475 31.886291 lineto
50.585328 33.263652 lineto
50.983183 34.346819 lineto
51.400163 34.483203 lineto
51.791135 34.627479 lineto
52.195037 34.766879 lineto
52.663347 35.286870 lineto
53.097456 37.052251 lineto
53.610740 38.298100 lineto
54.062113 38.433160 lineto
54.535920 38.568612 lineto
55.019495 38.705931 lineto
55.516800 38.817690 lineto
55.920038 40.270398 lineto
56.511381 41.829114 lineto
57.100319 42.199245 lineto
57.649519 42.329425 lineto
58.203195 42.458142 lineto
58.755444 42.594363 lineto
59.311387 43.478424 lineto
59.875356 44.957791 lineto
60.467399 45.865879 lineto
61.094787 46.022559 lineto
61.747255 46.163423 lineto
62.377078 46.315620 lineto
63.010848 47.414296 lineto
63.701448 48.879815 lineto
64.425636 49.770534 lineto
65.134564 49.920824 lineto
65.843417 50.053516 lineto
66.425368 50.197020 lineto
67.153520 50.820147 lineto
67.902919 52.189048 lineto
68.655352 53.598123 lineto
69.511666 53.714726 lineto
70.457550 53.834347 lineto
71.558919 53.970595 lineto
72.461651 54.092172 lineto
73.387531 54.289569 lineto
74.369126 55.389464 lineto
75.347257 56.701195 lineto
76.298617 57.410939 lineto
77.212311 57.511140 lineto
78.598649 57.645311 lineto
79.547250 57.761577 lineto
80.742602 57.893632 lineto
81.751247 57.946625 lineto
82.704240 57.968742 lineto
83.686926 58.933620 lineto
84.725104 60.213831 lineto
85.814245 61.262691 lineto
86.884535 61.405371 lineto
87.926925 61.534697 lineto
88.979794 61.670437 lineto
90.098504 61.775141 lineto
91.143695 62.361468 lineto
92.469881 63.579085 lineto
93.589957 64.984802 lineto
94.804896 65.201684 lineto
95.976764 65.324170 lineto
97.257092 65.463795 lineto
98.797435 65.503658 lineto
99.925925 65.626179 lineto
101.226552 66.078524 lineto
102.358545 67.183381 lineto
103.523689 68.663765 lineto
104.863391 69.165820 lineto
106.147090 69.287761 lineto
107.249445 69.427348 lineto
108.708197 69.557031 lineto
109.956060 69.672288 lineto
111.458115 70.854351 lineto
112.855874 72.171793 lineto
114.180824 72.970592 lineto
115.540830 73.120164 lineto
116.863593 73.266028 lineto
118.219474 73.402921 lineto
119.564320 73.533656 lineto
120.923222 74.370400 lineto
122.335043 75.644023 lineto
123.791640 76.813418 lineto
125.226917 76.953657 lineto
126.658928 77.105287 lineto
128.086259 77.249563 lineto
129.530373 77.384476 lineto
130.982792 77.396021 lineto
132.505868 77.410432 lineto
133.976650 77.435516 lineto
135.406464 78.135037 lineto
136.836023 79.661776 lineto
138.390990 80.624425 lineto
139.892713 80.776773 lineto
141.426974 80.924734 lineto
142.881503 81.045453 lineto
144.462882 81.177263 lineto
145.935233 81.215958 lineto
147.413558 81.243405 lineto
148.996271 82.078173 lineto
150.624667 84.293982 lineto
152.487780 84.552467 lineto
154.169956 84.696290 lineto
155.787374 84.791106 lineto
157.388866 84.931527 lineto
159.044280 85.106944 lineto
160.709583 87.203171 lineto
162.415566 88.543355 lineto
164.216285 88.701689 lineto
165.980539 88.850916 lineto
167.823296 88.978083 lineto
169.519122 89.124429 lineto
171.226237 89.979059 lineto
172.957675 91.388925 lineto
174.714262 92.610840 lineto
176.481955 92.770195 lineto
178.273810 92.914565 lineto
180.016034 93.049334 lineto
181.770805 93.203118 lineto
183.531731 93.976702 lineto
185.387117 95.401993 lineto
187.289893 96.599348 lineto
189.134940 96.761316 lineto
191.123029 96.898970 lineto
192.988910 97.049027 lineto
194.944607 97.174032 lineto
196.832211 97.454448 lineto
198.825014 98.787764 lineto
200.751461 100.345172 lineto
202.737861 100.509745 lineto
204.784474 100.645660 lineto
206.718978 100.792149 lineto
208.667202 100.929251 lineto
210.596383 101.136211 lineto
212.653389 102.787457 lineto
214.742612 104.241127 lineto
216.799549 104.406318 lineto
218.770999 104.552943 lineto
220.815932 104.700120 lineto
222.823815 104.844408 lineto
224.985208 105.388542 lineto
227.109641 105.964021 lineto
229.263785 106.525435 lineto
231.399323 106.910835 lineto
233.553545 107.278675 lineto
235.763969 107.711552 lineto
237.950450 108.004674 lineto
240.133031 108.229111 lineto
242.289813 108.868109 lineto
244.413295 109.431491 lineto
246.691221 109.904812 lineto
248.836808 110.306098 lineto
250.998717 110.721714 lineto
253.321415 111.106275 lineto
255.562676 111.363483 lineto
257.890223 111.769308 lineto
260.144135 112.326323 lineto
262.368558 112.949795 lineto
264.802378 113.444197 lineto
267.127247 113.849288 lineto
269.304449 114.256611 lineto
271.552841 114.599636 lineto
273.894534 114.897957 lineto
276.167257 115.454246 lineto
278.460394 116.036624 lineto
280.945297 116.593911 lineto
283.297818 116.987313 lineto
285.618466 117.397295 lineto
287.961613 117.765644 lineto
290.321767 118.074808 lineto
292.781257 118.297879 lineto
295.147176 118.959719 lineto
297.619771 119.545362 lineto
300.024429 120.030979 lineto
302.574086 120.376687 lineto
305.073345 120.794756 lineto
307.541112 121.193981 lineto
310.041288 121.479719 lineto
312.668559 121.776378 lineto
315.147969 122.448821 lineto
317.657003 123.011528 lineto
320.198981 123.493456 lineto
322.744363 123.905822 lineto
325.287569 124.309325 lineto
327.844123 124.646667 lineto
330.430641 124.897243 lineto
332.957145 125.339200 lineto
335.499533 125.999744 lineto
338.053267 126.497873 lineto
340.748097 127.003662 lineto
343.380878 127.398441 lineto
345.979889 127.744207 lineto
348.659232 128.066901 lineto
351.254165 128.400178 lineto
353.874697 128.714967 lineto
356.497865 129.030009 lineto
359.095812 129.100126 lineto
362.385798 20.000000 lineto
362.385798 20.000000 lineto
362.385798 20.000000 lineto
359.095812 198.363416 lineto
356.497865 198.040866 lineto
353.874697 197.427760 lineto
351.254165 196.874281 lineto
348.659232 196.232260 lineto
345.979889 195.620702 lineto
343.380878 195.005197 lineto
340.748097 194.283713 lineto
338.053267 193.461307 lineto
335.499533 192.707810 lineto
332.957145 191.715345 lineto
330.430641 191.012675 lineto
327.844123 190.459200 lineto
325.287569 189.838446 lineto
322.744363 189.153184 lineto
320.198981 188.439142 lineto
317.657003 187.655119 lineto
315.147969 186.810654 lineto
312.668559 185.796564 lineto
310.041288 185.257908 lineto
307.541112 184.652558 lineto
305.073345 183.970107 lineto
302.574086 183.269347 lineto
300.024429 182.641880 lineto
297.619771 181.876217 lineto
295.147176 180.986977 lineto
292.781257 180.003126 lineto
290.321767 179.538547 lineto
287.961613 178.922048 lineto
285.618466 178.278742 lineto
283.297818 177.565524 lineto
280.945297 176.890363 lineto
278.460394 176.032379 lineto
276.167257 175.145426 lineto
273.894534 174.310161 lineto
271.552841 173.689679 lineto
269.304449 173.063765 lineto
267.127247 172.354557 lineto
264.802378 171.641537 lineto
262.368558 170.835432 lineto
260.144135 169.905812 lineto
257.890223 169.050546 lineto
255.562676 168.334230 lineto
253.321415 167.780111 lineto
250.998717 167.133916 lineto
248.836808 166.436541 lineto
246.691221 165.713245 lineto
244.413295 164.978290 lineto
242.289813 164.113023 lineto
240.133031 163.172141 lineto
237.950450 162.709969 lineto
235.763969 162.113110 lineto
233.553545 161.376428 lineto
231.399323 160.718862 lineto
229.263785 160.059669 lineto
227.109641 159.198886 lineto
224.985208 158.319006 lineto
222.823815 157.533365 lineto
220.815932 157.389077 lineto
218.770999 157.241900 lineto
216.799549 157.095275 lineto
214.742612 156.930084 lineto
212.653389 154.402103 lineto
210.596383 151.501832 lineto
208.667202 151.223256 lineto
206.718978 151.086154 lineto
204.784474 150.939664 lineto
202.737861 150.803750 lineto
200.751461 150.632201 lineto
198.825014 147.877538 lineto
196.832211 145.491864 lineto
194.944607 145.073085 lineto
192.988910 144.948080 lineto
191.123029 144.798023 lineto
189.134940 144.660369 lineto
187.289893 144.498401 lineto
185.387117 142.343889 lineto
183.531731 139.994030 lineto
181.770805 138.707219 lineto
180.016034 138.553435 lineto
178.273810 138.418666 lineto
176.481955 138.274296 lineto
174.714262 138.114941 lineto
172.957675 136.003317 lineto
171.226237 133.531531 lineto
169.519122 132.233578 lineto
167.823296 132.087232 lineto
165.980539 131.960065 lineto
164.216285 131.810838 lineto
162.415566 131.652504 lineto
160.709583 129.362245 lineto
159.044280 125.843444 lineto
157.388866 125.645724 lineto
155.787374 125.505303 lineto
154.169956 125.410486 lineto
152.487780 125.266664 lineto
150.624667 124.921003 lineto
148.996271 121.070008 lineto
147.413558 119.562650 lineto
145.935233 119.535203 lineto
144.462882 119.496508 lineto
142.881503 119.364697 lineto
141.426974 119.243979 lineto
139.892713 119.096018 lineto
138.390990 118.943670 lineto
136.836023 117.214650 lineto
135.406464 114.498996 lineto
133.976650 113.359808 lineto
132.505868 113.334725 lineto
130.982792 113.320314 lineto
129.530373 113.308768 lineto
128.086259 113.173856 lineto
126.658928 113.029579 lineto
125.226917 112.877950 lineto
123.791640 112.737711 lineto
122.335043 110.720860 lineto
120.923222 108.467253 lineto
119.564320 107.062996 lineto
118.219474 106.932261 lineto
116.863593 106.795369 lineto
115.540830 106.649504 lineto
114.180824 106.499932 lineto
112.855874 105.074199 lineto
111.458115 102.851417 lineto
109.956060 100.806676 lineto
108.708197 100.691420 lineto
107.249445 100.561737 lineto
106.147090 100.422150 lineto
104.863391 100.300208 lineto
103.523689 99.540154 lineto
102.358545 97.026514 lineto
101.226552 95.110866 lineto
99.925925 94.365615 lineto
98.797435 94.243095 lineto
97.257092 94.203232 lineto
95.976764 94.063606 lineto
94.804896 93.941121 lineto
93.589957 93.678711 lineto
92.469881 91.286465 lineto
91.143695 89.168854 lineto
90.098504 88.119626 lineto
88.979794 88.014921 lineto
87.926925 87.879182 lineto
86.884535 87.749856 lineto
85.814245 87.607175 lineto
84.725104 85.849259 lineto
83.686926 83.598289 lineto
82.704240 81.918275 lineto
81.751247 81.896157 lineto
80.742602 81.843165 lineto
79.547250 81.711109 lineto
78.598649 81.594843 lineto
77.212311 81.460672 lineto
76.298617 81.360471 lineto
75.347257 80.145944 lineto
74.369126 77.842746 lineto
73.387531 75.904526 lineto
72.461651 75.646752 lineto
71.558919 75.525175 lineto
70.457550 75.388927 lineto
69.511666 75.269307 lineto
68.655352 75.152703 lineto
67.902919 72.832313 lineto
67.153520 70.321934 lineto
66.425368 69.356648 lineto
65.843417 69.213144 lineto
65.134564 69.080453 lineto
64.425636 68.930162 lineto
63.701448 67.497448 lineto
63.010848 64.891196 lineto
62.377078 63.080296 lineto
61.747255 62.928099 lineto
61.094787 62.787235 lineto
60.467399 62.630555 lineto
59.875356 61.059765 lineto
59.311387 58.414321 lineto
58.755444 56.964087 lineto
58.203195 56.827866 lineto
57.649519 56.699149 lineto
57.100319 56.568969 lineto
56.511381 55.995986 lineto
55.920038 53.273616 lineto
55.516800 50.792462 lineto
55.019495 50.680703 lineto
54.535920 50.543384 lineto
54.062113 50.407932 lineto
53.610740 50.272872 lineto
53.097456 48.234575 lineto
52.663347 45.162809 lineto
52.195037 44.346699 lineto
51.791135 44.207299 lineto
51.400163 44.063022 lineto
50.983183 43.926639 lineto
50.585328 42.129372 lineto
50.183475 39.511711 lineto
49.841980 38.363986 lineto
49.499297 38.217527 lineto
49.150884 38.088885 lineto
48.848127 37.949709 lineto
48.478007 36.379455 lineto
48.189220 33.641373 lineto
47.948759 32.182683 lineto
47.654752 32.058132 lineto
47.389792 31.953761 lineto
47.137713 31.842290 lineto
46.746185 31.692407 lineto
46.496416 28.782869 lineto
46.292084 25.968928 lineto
46.100455 25.837467 lineto
45.930657 25.716973 lineto
45.740045 25.601759 lineto
45.491819 25.547221 lineto
45.304676 23.812075 lineto
45.158067 21.150780 lineto
45.000000 20.000000 lineto
closepath
gsave
1.000000 0.000000 1.000000 setrgbcolor
fill
grestore
stroke
45.000000 20.000000 moveto
45.000000 20.000000 lineto
45.158067 21.150780 lineto
45.304676 23.812075 lineto
45.491819 25.547221 lineto
45.740045 25.601759 lineto
45.930657 25.716973 lineto
46.100455 25.837467 lineto
46.292084 25.968928 lineto
46.496416 28.782869 lineto
46.746185 31.692407 lineto
47.137713 31.842290 lineto
47.389792 31.953761 lineto
47.654752 32.058132 lineto
47.948759 32.182683 lineto
48.189220 33.641373 lineto
48.478007 36.379455 lineto
48.848127 37.949709 lineto
49.150884 38.088885 lineto
49.499297 38.217527 lineto
49.841980 38.363986 lineto
50.183475 39.511711 lineto
50.585328 42.129372 lineto
50.983183 43.926639 lineto
51.400163 44.063022 lineto
51.791135 44.207299 lineto
52.195037 44.346699 lineto
52.663347 45.162809 lineto
53.097456 48.234575 lineto
53.610740 50.272872 lineto
54.062113 50.407932 lineto
54.535920 50.543384 lineto
55.019495 50.680703 lineto
55.516800 50.792462 lineto
55.920038 53.273616 lineto
56.511381 55.995986 lineto
57.100319 56.568969 lineto
57.649519 56.699149 lineto
58.203195 56.827866 lineto
58.755444 56.964087 lineto
59.311387 58.414321 lineto
59.875356 61.059765 lineto
60.467399 62.630555 lineto
61.094787 62.787235 lineto
61.747255 62.928099 lineto
62.377078 63.080296 lineto
63.010848 64.891196 lineto
63.701448 67.497448 lineto
64.425636 68.930162 lineto
65.134564 69.080453 lineto
65.843417 69.213144 lineto
66.425368 69.356648 lineto
67.153520 70.321934 lineto
67.902919 72.832313 lineto
68.655352 75.152703 lineto
69.511666 75.269307 lineto
70.457550 75.388927 lineto
71.558919 75.525175 lineto
72.461651 75.646752 lineto
73.387531 75.904526 lineto
74.369126 77.842746 lineto
75.347257 80.145944 lineto
76.298617 81.360471 lineto
77.212311 81.460672 lineto
78.598649 81.594843 lineto
79.547250 81.711109 lineto
80.742602 81.843165 lineto
81.751247 81.896157 lineto
82.704240 81.918275 lineto
83.686926 83.598289 lineto
84.725104 85.849259 lineto
85.814245 87.607175 lineto
86.884535 87.749856 lineto
87.926925 87.879182 lineto
88.979794 88.014921 lineto
90.098504 88.119626 lineto
91.143695 89.168854 lineto
92.469881 91.286465 lineto
93.589957 93.678711 lineto
94.804896 93.941121 lineto
95.976764 94.063606 lineto
97.257092 94.203232 lineto
98.797435 94.243095 lineto
99.925925 94.365615 lineto
101.226552 95.110866 lineto
102.358545 97.026514 lineto
103.523689 99.540154 lineto
104.863391 100.300208 lineto
106.147090 100.422150 lineto
107.249445 100.561737 lineto
108.708197 100.691420 lineto
109.956060 100.806676 lineto
111.458115 102.851417 lineto
112.855874 105.074199 lineto
114.180824 106.499932 lineto
115.540830 106.649504 lineto
116.863593 106.795369 lineto
118.219474 106.932261 lineto
119.564320 107.062996 lineto
120.923222 108.467253 lineto
122.335043 110.720860 lineto
123.791640 112.737711 lineto
125.226917 112.877950 lineto
126.658928 113.029579 lineto
128.086259 113.173856 lineto
129.530373 113.308768 lineto
130.982792 113.320314 lineto
132.505868 113.334725 lineto
133.976650 113.359808 lineto
135.406464 114.498996 lineto
136.836023 117.214650 lineto
138.390990 118.943670 lineto
139.892713 119.096018 lineto
141.426974 119.243979 lineto
142.881503 119.364697 lineto
144.462882 119.496508 lineto
145.935233 119.535203 lineto
147.413558 119.562650 lineto
148.996271 121.070008 lineto
150.624667 124.921003 lineto
152.487780 125.266664 lineto
154.169956 125.410486 lineto
155.787374 125.505303 lineto
157.388866 125.645724 lineto
159.044280 125.843444 lineto
160.709583 129.362245 lineto
162.415566 131.652504 lineto
164.216285 131.810838 lineto
165.980539 131.960065 lineto
167.823296 132.087232 lineto
169.519122 132.233578 lineto
171.226237 133.531531 lineto
172.957675 136.003317 lineto
174.714262 138.114941 lineto
176.481955 138.274296 lineto
178.273810 138.418666 lineto
180.016034 138.553435 lineto
181.770805 138.707219 lineto
183.531731 139.994030 lineto
185.387117 142.343889 lineto
187.289893 144.498401 lineto
189.134940 144.660369 lineto
191.123029 144.798023 lineto
192.988910 144.948080 lineto
194.944607 145.073085 lineto
196.832211 145.491864 lineto
198.825014 147.877538 lineto
200.751461 150.632201 lineto
202.737861 150.803750 lineto
204.784474 150.939664 lineto
206.718978 151.086154 lineto
208.667202 151.223256 lineto
210.596383 151.501832 lineto
212.653389 154.402103 lineto
214.742612 156.930084 lineto
216.799549 157.095275 lineto
218.770999 157.241900 lineto
220.815932 157.389077 lineto
222.823815 157.533365 lineto
224.985208 158.319006 lineto
227.109641 159.198886 lineto
229.263785 160.059669 lineto
231.399323 160.718862 lineto
233.553545 161.376428 lineto
235.763969 162.113110 lineto
237.950450 162.709969 lineto
240.133031 163.172141 lineto
242.289813 164.113023 lineto
244.413295 164.978290 lineto
246.691221 165.713245 lineto
248.836808 166.436541 lineto
250.998717 167.133916 lineto
253.321415 167.780111 lineto
255.562676 168.334230 lineto
257.890223 169.050546 lineto
260.144135 169.905812 lineto
262.368558 170.835432 lineto
264.802378 171.641537 lineto
267.127247 172.354557 lineto
269.304449 173.063765 lineto
271.552841 173.689679 lineto
273.894534 174.310161 lineto
276.167257 175.145426 lineto
278.460394 176.032379 lineto
280.945297 176.890363 lineto
283.297818 177.565524 lineto
285.618466 178.278742 lineto
287.961613 178.922048 lineto
290.321767 179.538547 lineto
292.781257 180.003126 lineto
295.147176 180.986977 lineto
297.619771 181.876217 lineto
300.024429 182.641880 lineto
302.574086 183.269347 lineto
305.073345 183.970107 lineto
307.541112 184.652558 lineto
310.041288 185.257908 lineto
312.668559 185.796564 lineto
315.147969 186.810654 lineto
317.657003 187.655119 lineto
320.198981 188.439142 lineto
322.744363 189.153184 lineto
325.287569 189.838446 lineto
327.844123 190.459200 lineto
330.430641 191.012675 lineto
332.957145 191.715345 lineto
335.499533 192.707810 lineto
338.053267 193.461307 lineto
340.748097 194.283713 lineto
343.380878 195.005197 lineto
345.979889 195.620702 lineto
348.659232 196.232260 lineto
351.254165 196.874281 lineto
353.874697 197.427760 lineto
356.497865 198.040866 lineto
359.095812 198.363416 lineto
362.385798 20.000000 lineto
362.385798 20.000000 lineto
362.385798 20.000000 lineto
359.095812 382.000000 lineto
356.497865 381.008140 lineto
353.874697 379.604893 lineto
351.254165 378.418559 lineto
348.659232 376.957955 lineto
345.979889 375.580617 lineto
343.380878 374.249921 lineto
340.748097 372.662247 lineto
338.053267 371.000297 lineto
335.499533 369.569928 lineto
332.957145 367.697424 lineto
330.430641 366.303575 lineto
327.844123 364.947012 lineto
325.287569 363.574818 lineto
322.744363 362.142547 lineto
320.198981 360.628736 lineto
317.657003 359.043779 lineto
315.147969 357.452273 lineto
312.668559 355.532444 lineto
310.041288 354.352151 lineto
307.541112 352.899474 lineto
305.073345 351.466120 lineto
302.574086 350.015846 lineto
300.024429 348.641370 lineto
297.619771 347.133321 lineto
295.147176 345.439121 lineto
292.781257 343.601514 lineto
290.321767 342.496642 lineto
287.961613 341.065357 lineto
285.618466 339.693121 lineto
283.297818 338.175874 lineto
280.945297 336.753705 lineto
278.460394 335.098386 lineto
276.167257 333.404104 lineto
273.894534 331.829272 lineto
271.552841 330.354603 lineto
269.304449 328.978628 lineto
267.127247 327.469053 lineto
264.802378 325.939741 lineto
262.368558 324.307183 lineto
260.144135 322.565849 lineto
257.890223 320.919867 lineto
255.562676 319.380445 lineto
253.321415 318.039046 lineto
250.998717 316.699200 lineto
248.836808 315.254815 lineto
246.691221 313.677825 lineto
244.413295 312.249187 lineto
242.289813 310.583553 lineto
240.133031 308.842304 lineto
237.950450 307.749843 lineto
235.763969 306.347776 lineto
233.553545 304.805563 lineto
231.399323 303.379899 lineto
229.263785 301.994786 lineto
227.109641 300.340189 lineto
224.985208 298.653389 lineto
222.823815 297.227453 lineto
220.815932 297.083165 lineto
218.770999 296.935988 lineto
216.799549 296.789363 lineto
214.742612 296.624173 lineto
212.653389 291.249394 lineto
210.596383 285.044176 lineto
208.667202 284.567765 lineto
206.718978 284.430662 lineto
204.784474 284.284173 lineto
202.737861 284.148259 lineto
200.751461 283.958261 lineto
198.825014 278.030796 lineto
196.832211 272.860213 lineto
194.944607 272.068014 lineto
192.988910 271.943009 lineto
191.123029 271.792952 lineto
189.134940 271.655298 lineto
187.289893 271.493330 lineto
185.387117 266.802649 lineto
183.531731 262.002977 lineto
181.770805 259.352568 lineto
180.016034 259.198784 lineto
178.273810 259.064015 lineto
176.481955 258.919645 lineto
174.714262 258.760290 lineto
172.957675 254.290840 lineto
171.226237 249.005477 lineto
169.519122 246.529347 lineto
167.823296 246.383001 lineto
165.980539 246.255834 lineto
164.216285 246.106608 lineto
162.415566 245.948273 lineto
160.709583 241.140592 lineto
159.044280 233.858167 lineto
157.388866 233.591914 lineto
155.787374 233.451493 lineto
154.169956 233.356676 lineto
152.487780 233.212854 lineto
150.624667 232.636140 lineto
148.996271 224.452195 lineto
147.413558 221.159260 lineto
145.935233 221.131813 lineto
144.462882 221.093118 lineto
142.881503 220.961308 lineto
141.426974 220.840589 lineto
139.892713 220.692628 lineto
138.390990 220.540280 lineto
136.836023 216.780387 lineto
135.406464 210.914467 lineto
133.976650 208.606839 lineto
132.505868 208.581755 lineto
130.982792 208.567344 lineto
129.530373 208.555799 lineto
128.086259 208.420886 lineto
126.658928 208.276610 lineto
125.226917 208.124980 lineto
123.791640 207.984741 lineto
122.335043 203.722475 lineto
120.923222 198.872054 lineto
119.564320 195.960447 lineto
118.219474 195.829712 lineto
116.863593 195.692819 lineto
115.540830 195.546955 lineto
114.180824 195.397383 lineto
112.855874 192.310480 lineto
111.458115 187.688794 lineto
109.956060 183.354547 lineto
108.708197 183.239291 lineto
107.249445 183.109608 lineto
106.147090 182.970021 lineto
104.863391 182.848079 lineto
103.523689 181.404025 lineto
102.358545 176.152854 lineto
101.226552 172.088568 lineto
99.925925 170.563906 lineto
98.797435 170.441386 lineto
97.257092 170.401523 lineto
95.976764 170.261897 lineto
94.804896 170.139412 lineto
93.589957 169.756353 lineto
92.469881 164.750017 lineto
91.143695 160.247757 lineto
90.098504 157.968337 lineto
88.979794 157.863633 lineto
87.926925 157.727893 lineto
86.884535 157.598567 lineto
85.814245 157.455886 lineto
84.725104 153.819061 lineto
83.686926 148.995730 lineto
82.704240 145.417407 lineto
81.751247 145.395289 lineto
80.742602 145.342296 lineto
79.547250 145.210241 lineto
78.598649 145.093975 lineto
77.212311 144.959804 lineto
76.298617 144.859603 lineto
75.347257 142.307315 lineto
74.369126 137.377249 lineto
73.387531 133.214152 lineto
72.461651 132.796304 lineto
71.558919 132.674727 lineto
70.457550 132.538479 lineto
69.511666 132.418859 lineto
68.655352 132.302255 lineto
67.902919 127.567164 lineto
67.153520 122.031963 lineto
66.425368 120.156621 lineto
65.843417 120.013117 lineto
65.134564 119.880425 lineto
64.425636 119.730135 lineto
63.701448 116.860992 lineto
63.010848 111.232255 lineto
62.377078 107.530689 lineto
61.747255 107.378492 lineto
61.094787 107.237628 lineto
60.467399 107.080948 lineto
59.875356 103.754171 lineto
59.311387 98.019049 lineto
58.755444 95.064900 lineto
58.203195 94.928679 lineto
57.649519 94.799963 lineto
57.100319 94.669782 lineto
56.511381 93.559044 lineto
55.920038 87.753435 lineto
55.516800 82.543695 lineto
55.019495 82.431937 lineto
54.535920 82.294617 lineto
54.062113 82.159165 lineto
53.610740 82.024105 lineto
53.097456 77.885777 lineto
52.663347 71.352407 lineto
52.195037 69.748353 lineto
51.791135 69.608953 lineto
51.400163 69.464676 lineto
50.983183 69.328292 lineto
50.585328 65.638796 lineto
50.183475 59.734686 lineto
49.841980 57.416060 lineto
49.499297 57.269601 lineto
49.150884 57.140959 lineto
48.848127 57.001783 lineto
48.478007 53.760199 lineto
48.189220 48.019859 lineto
47.948759 44.885177 lineto
47.654752 44.760626 lineto
47.389792 44.656255 lineto
47.137713 44.544784 lineto
46.746185 44.355819 lineto
46.496416 38.306439 lineto
46.292084 32.321842 lineto
46.100455 32.190381 lineto
45.930657 32.069887 lineto
45.740045 31.954673 lineto
45.491819 31.900135 lineto
45.304676 28.033107 lineto
45.158067 22.217711 lineto
45.000000 20.000000 lineto
closepath
gsave
1.000000 1.000000 0.000000 setrgbcolor
fill
grestore
stroke
showpage
