%!PS-Adobe-2.0
%%Title: draftsim-mcoffq-exe ../app/draftsim.json 23 7 +RTS -N -hy -L20000
%%Creator: hp2ps (version 0.25)
%%CreationDate: Fri Jun 25 08:39 2021
%%EndComments
-90 rotate
-756.000000 72.000000 translate
/HE10 /Helvetica findfont 10 scalefont def
/HE12 /Helvetica findfont 12 scalefont def
newpath
0 0 moveto
0 432.000000 rlineto
648.000000 0 rlineto
0 -432.000000 rlineto
closepath
0.500000 setlinewidth
stroke
newpath
5.000000 387.000000 moveto
0 40.000000 rlineto
638.000000 0 rlineto
0 -40.000000 rlineto
closepath
0.500000 setlinewidth
stroke
5.000000 407.000000 moveto
638.000000 0 rlineto
stroke
HE12 setfont
11.000000 413.000000 moveto
(draftsim-mcoffq-exe ../app/draftsim.json 23 7 +RTS -N -hy -L20000) show
HE12 setfont
11.000000 393.000000 moveto
(159,751,959,429 bytes x seconds)
show
HE12 setfont
(Fri Jun 25 08:39 2021)
dup stringwidth pop
637.000000
exch sub
393.000000 moveto
show
45.000000 20.000000 moveto
317.385798 0 rlineto
0.500000 setlinewidth
stroke
HE10 setfont
(seconds)
dup stringwidth pop
362.385798
exch sub
5.000000 moveto
show
45.000000 20.000000 moveto
0 -4 rlineto
stroke
HE10 setfont
(0.0)
dup stringwidth pop
2 div
45.000000 exch sub
5.000000 moveto
show
95.523420 20.000000 moveto
0 -4 rlineto
stroke
HE10 setfont
(50.0)
dup stringwidth pop
2 div
95.523420 exch sub
5.000000 moveto
show
146.046841 20.000000 moveto
0 -4 rlineto
stroke
HE10 setfont
(100.0)
dup stringwidth pop
2 div
146.046841 exch sub
5.000000 moveto
show
196.570261 20.000000 moveto
0 -4 rlineto
stroke
HE10 setfont
(150.0)
dup stringwidth pop
2 div
196.570261 exch sub
5.000000 moveto
show
247.093681 20.000000 moveto
0 -4 rlineto
stroke
HE10 setfont
(200.0)
dup stringwidth pop
2 div
247.093681 exch sub
5.000000 moveto
show
297.617101 20.000000 moveto
0 -4 rlineto
stroke
HE10 setfont
(250.0)
dup stringwidth pop
2 div
297.617101 exch sub
5.000000 moveto
show
45.000000 20.000000 moveto
0 362.000000 rlineto
0.500000 setlinewidth
stroke
gsave
HE10 setfont
(bytes)
dup stringwidth pop
382.000000
exch sub
40.000000 exch
translate
90 rotate
0 0 moveto
show
grestore
45.000000 20.000000 moveto
-4 0 rlineto
stroke
HE10 setfont
(0M)
dup stringwidth
2 div
20.000000 exch sub
exch
40.000000 exch sub
exch
moveto
show
45.000000 116.933871 moveto
-4 0 rlineto
stroke
HE10 setfont
(200M)
dup stringwidth
2 div
116.933871 exch sub
exch
40.000000 exch sub
exch
moveto
show
45.000000 213.867743 moveto
-4 0 rlineto
stroke
HE10 setfont
(400M)
dup stringwidth
2 div
213.867743 exch sub
exch
40.000000 exch sub
exch
moveto
show
45.000000 310.801614 moveto
-4 0 rlineto
stroke
HE10 setfont
(600M)
dup stringwidth
2 div
310.801614 exch sub
exch
40.000000 exch sub
exch
moveto
show
367.385798 58.250000 moveto
0 14 rlineto
14 0 rlineto
0 -14 rlineto
closepath
gsave
0.000000 0.000000 0.000000 setrgbcolor
fill
grestore
stroke
HE10 setfont
386.385798 60.250000 moveto
(HashMap) show
367.385798 103.500000 moveto
0 14 rlineto
14 0 rlineto
0 -14 rlineto
closepath
gsave
0.000000 0.000000 1.000000 setrgbcolor
fill
grestore
stroke
HE10 setfont
386.385798 105.500000 moveto
(SMALL_MUT_ARR_PTRS_FROZEN_CLEAN) show
367.385798 148.750000 moveto
0 14 rlineto
14 0 rlineto
0 -14 rlineto
closepath
gsave
0.000000 1.000000 0.000000 setrgbcolor
fill
grestore
stroke
HE10 setfont
386.385798 150.750000 moveto
(Integer) show
367.385798 194.000000 moveto
0 14 rlineto
14 0 rlineto
0 -14 rlineto
closepath
gsave
0.000000 1.000000 1.000000 setrgbcolor
fill
grestore
stroke
HE10 setfont
386.385798 196.000000 moveto
(Double) show
367.385798 239.250000 moveto
0 14 rlineto
14 0 rlineto
0 -14 rlineto
closepath
gsave
1.000000 0.000000 0.000000 setrgbcolor
fill
grestore
stroke
HE10 setfont
386.385798 241.250000 moveto
(ARR_WORDS) show
367.385798 284.500000 moveto
0 14 rlineto
14 0 rlineto
0 -14 rlineto
closepath
gsave
1.000000 0.000000 1.000000 setrgbcolor
fill
grestore
stroke
HE10 setfont
386.385798 286.500000 moveto
(Roster) show
367.385798 329.750000 moveto
0 14 rlineto
14 0 rlineto
0 -14 rlineto
closepath
gsave
1.000000 1.000000 0.000000 setrgbcolor
fill
grestore
stroke
HE10 setfont
386.385798 331.750000 moveto
(IntMap) show
45.000000 20.000000 moveto
45.000000 20.000000 lineto
45.155220 20.000000 lineto
45.309707 20.000000 lineto
45.488327 20.000000 lineto
45.655007 20.000000 lineto
45.832779 20.000000 lineto
46.021803 20.000000 lineto
46.219438 20.000000 lineto
46.406390 20.000000 lineto
46.652449 20.000000 lineto
46.900002 20.000000 lineto
47.163119 20.000000 lineto
47.415980 20.000000 lineto
47.668761 20.000000 lineto
47.926881 20.000000 lineto
48.227560 20.000000 lineto
48.556567 20.000000 lineto
48.849379 20.000000 lineto
49.163348 20.000000 lineto
49.521879 20.000000 lineto
49.848059 20.000000 lineto
50.196519 20.000000 lineto
50.594489 20.000000 lineto
51.007530 20.000000 lineto
51.419872 20.000000 lineto
51.818320 20.000000 lineto
52.232016 20.000000 lineto
52.671880 20.000000 lineto
53.134298 20.000000 lineto
53.612803 20.000000 lineto
54.102636 20.000000 lineto
54.529858 20.000000 lineto
55.003635 20.000000 lineto
55.482918 20.000000 lineto
55.967117 20.000000 lineto
56.503667 20.000000 lineto
57.044614 20.000000 lineto
57.614246 20.000000 lineto
58.159967 20.000000 lineto
58.710644 20.000000 lineto
59.301490 20.000000 lineto
59.903878 20.000000 lineto
60.533379 20.000000 lineto
61.161953 20.000000 lineto
61.772925 20.000000 lineto
62.421643 20.000000 lineto
63.100074 20.000000 lineto
63.796209 20.000000 lineto
64.496361 20.000000 lineto
65.197526 20.000000 lineto
65.938020 20.000000 lineto
66.641499 20.000000 lineto
67.325798 20.000000 lineto
68.143333 20.000000 lineto
68.959281 20.000000 lineto
69.699240 20.000000 lineto
70.460471 20.000000 lineto
71.225066 20.000000 lineto
71.988239 20.000000 lineto
72.777693 20.000000 lineto
73.615094 20.000000 lineto
74.482600 20.000000 lineto
75.309352 20.000000 lineto
76.159107 20.000000 lineto
77.020401 20.000000 lineto
77.872493 20.000000 lineto
78.735384 20.000000 lineto
79.617385 20.000000 lineto
80.642045 20.000000 lineto
81.760140 20.000000 lineto
82.801289 20.000000 lineto
84.216207 20.000000 lineto
85.003086 20.000000 lineto
85.988803 20.000000 lineto
87.025891 20.000000 lineto
88.099595 20.000000 lineto
89.279444 20.000000 lineto
90.450676 20.000000 lineto
91.646411 20.000000 lineto
92.765839 20.000000 lineto
93.946263 20.000000 lineto
95.157866 20.000000 lineto
96.381786 20.000000 lineto
97.595977 20.000000 lineto
98.849310 20.000000 lineto
100.107168 20.000000 lineto
101.339710 20.000000 lineto
102.589200 20.000000 lineto
103.826549 20.000000 lineto
105.082944 20.000000 lineto
106.367908 20.000000 lineto
107.669274 20.000000 lineto
108.999851 20.000000 lineto
110.345873 20.000000 lineto
111.676113 20.000000 lineto
113.020271 20.000000 lineto
114.571811 20.000000 lineto
115.954732 20.000000 lineto
117.369298 20.000000 lineto
118.803683 20.000000 lineto
120.163661 20.000000 lineto
121.604546 20.000000 lineto
123.030259 20.000000 lineto
124.476423 20.000000 lineto
125.920204 20.000000 lineto
127.325110 20.000000 lineto
128.756350 20.000000 lineto
130.195597 20.000000 lineto
131.636045 20.000000 lineto
133.140340 20.000000 lineto
134.653331 20.000000 lineto
136.136471 20.000000 lineto
137.652670 20.000000 lineto
139.142896 20.000000 lineto
140.648710 20.000000 lineto
142.134333 20.000000 lineto
143.657914 20.000000 lineto
145.227104 20.000000 lineto
146.754527 20.000000 lineto
148.342073 20.000000 lineto
149.915574 20.000000 lineto
151.502297 20.000000 lineto
153.055936 20.000000 lineto
154.595616 20.000000 lineto
156.232135 20.000000 lineto
158.080356 20.000000 lineto
159.795241 20.000000 lineto
161.549288 20.000000 lineto
163.269064 20.000000 lineto
164.983810 20.000000 lineto
166.695250 20.000000 lineto
168.500925 20.000000 lineto
170.274088 20.000000 lineto
172.032858 20.000000 lineto
173.757699 20.000000 lineto
175.528746 20.000000 lineto
177.293865 20.000000 lineto
179.078628 20.000000 lineto
180.992770 20.000000 lineto
182.857775 20.000000 lineto
184.837815 20.000000 lineto
186.745866 20.000000 lineto
188.613867 20.000000 lineto
190.577208 20.000000 lineto
192.500210 20.000000 lineto
194.334657 20.000000 lineto
196.263360 20.000000 lineto
198.186387 20.000000 lineto
200.143705 20.000000 lineto
202.118559 20.000000 lineto
204.142423 20.000000 lineto
206.136054 20.000000 lineto
208.133672 20.000000 lineto
210.170099 20.000000 lineto
212.212009 20.000000 lineto
214.274503 20.000000 lineto
216.306150 20.000000 lineto
218.341984 20.000000 lineto
220.384673 20.000000 lineto
222.417415 20.000000 lineto
224.581627 20.000000 lineto
226.573470 20.000000 lineto
228.781035 20.000000 lineto
230.898032 20.000000 lineto
233.008564 20.000000 lineto
235.127264 20.000000 lineto
237.271938 20.000000 lineto
239.369779 20.000000 lineto
241.513930 20.000000 lineto
243.662662 20.000000 lineto
245.802341 20.000000 lineto
247.955919 20.000000 lineto
250.225587 20.000000 lineto
252.428692 20.000000 lineto
254.661317 20.000000 lineto
256.961031 20.000000 lineto
259.166072 20.000000 lineto
261.451821 20.000000 lineto
263.719424 20.000000 lineto
265.972531 20.000000 lineto
268.296805 20.000000 lineto
270.690021 20.000000 lineto
273.057797 20.000000 lineto
275.471137 20.000000 lineto
277.847035 20.000000 lineto
280.164496 20.000000 lineto
282.452913 20.000000 lineto
284.834748 20.000000 lineto
287.019630 20.000000 lineto
289.504072 20.000000 lineto
292.019140 20.000000 lineto
294.567654 20.000000 lineto
297.034068 20.000000 lineto
299.490732 20.000000 lineto
301.902040 20.000000 lineto
304.345860 20.000000 lineto
306.744353 20.000000 lineto
309.215759 20.000000 lineto
311.754786 20.000000 lineto
314.406863 20.000000 lineto
316.931472 20.000000 lineto
319.463801 20.000000 lineto
321.951853 20.000000 lineto
324.538944 20.000000 lineto
327.291833 20.000000 lineto
329.963531 20.000000 lineto
332.570181 20.000000 lineto
335.152601 20.000000 lineto
337.790276 20.000000 lineto
340.426742 20.000000 lineto
343.103237 20.000000 lineto
345.840138 20.000000 lineto
348.516581 20.000000 lineto
351.160817 20.000000 lineto
353.889344 20.000000 lineto
356.548681 20.000000 lineto
359.251107 20.000000 lineto
362.385798 20.000000 lineto
362.385798 20.000000 lineto
362.385798 20.000000 lineto
359.251107 23.553305 lineto
356.548681 23.553340 lineto
353.889344 23.553852 lineto
351.160817 23.553762 lineto
348.516581 23.554181 lineto
345.840138 23.554061 lineto
343.103237 23.554398 lineto
340.426742 23.554472 lineto
337.790276 23.554394 lineto
335.152601 23.554464 lineto
332.570181 23.554154 lineto
329.963531 23.555123 lineto
327.291833 23.555116 lineto
324.538944 23.555275 lineto
321.951853 23.555589 lineto
319.463801 23.555806 lineto
316.931472 23.555786 lineto
314.406863 23.556027 lineto
311.754786 23.555926 lineto
309.215759 23.556325 lineto
306.744353 23.556783 lineto
304.345860 23.556663 lineto
301.902040 23.556469 lineto
299.490732 23.556562 lineto
297.034068 23.556760 lineto
294.567654 23.556802 lineto
292.019140 23.557450 lineto
289.504072 23.557240 lineto
287.019630 23.557535 lineto
284.834748 23.556981 lineto
282.452913 23.557667 lineto
280.164496 23.557845 lineto
277.847035 23.558423 lineto
275.471137 23.557927 lineto
273.057797 23.558233 lineto
270.690021 23.558450 lineto
268.296805 23.558462 lineto
265.972531 23.558931 lineto
263.719424 23.559323 lineto
261.451821 23.559117 lineto
259.166072 23.559167 lineto
256.961031 23.559071 lineto
254.661317 23.559513 lineto
252.428692 23.559648 lineto
250.225587 23.559544 lineto
247.955919 23.559660 lineto
245.802341 23.560005 lineto
243.662662 23.560358 lineto
241.513930 23.560152 lineto
239.369779 23.560528 lineto
237.271938 23.560842 lineto
235.127264 23.560943 lineto
233.008564 23.560947 lineto
230.898032 23.560998 lineto
228.781035 23.560901 lineto
226.573470 23.560478 lineto
224.581627 23.561102 lineto
222.417415 23.561199 lineto
220.384673 23.561940 lineto
218.341984 23.528540 lineto
216.306150 23.493702 lineto
214.274503 23.457639 lineto
212.212009 23.420459 lineto
210.170099 23.401452 lineto
208.133672 23.401735 lineto
206.136054 23.403647 lineto
204.142423 23.367626 lineto
202.118559 23.335859 lineto
200.143705 23.302564 lineto
198.186387 23.266776 lineto
196.263360 23.238766 lineto
194.334657 23.239003 lineto
192.500210 23.240112 lineto
190.577208 23.220446 lineto
188.613867 23.187957 lineto
186.745866 23.156589 lineto
184.837815 23.124512 lineto
182.857775 23.086026 lineto
180.992770 23.076472 lineto
179.078628 23.076569 lineto
177.293865 23.078628 lineto
175.528746 23.040389 lineto
173.757699 23.009583 lineto
172.032858 22.976672 lineto
170.274088 22.943459 lineto
168.500925 22.912797 lineto
166.695250 22.912859 lineto
164.983810 22.913844 lineto
163.269064 22.884833 lineto
161.549288 22.854450 lineto
159.795241 22.824696 lineto
158.080356 22.788148 lineto
156.232135 22.751840 lineto
154.595616 22.749246 lineto
153.055936 22.749475 lineto
151.502297 22.743864 lineto
149.915574 22.706386 lineto
148.342073 22.677283 lineto
146.754527 22.642890 lineto
145.227104 22.606106 lineto
143.657914 22.585979 lineto
142.134333 22.585909 lineto
140.648710 22.587820 lineto
139.142896 22.578639 lineto
137.652670 22.549078 lineto
136.136471 22.517493 lineto
134.653331 22.484454 lineto
133.140340 22.450667 lineto
131.636045 22.422106 lineto
130.195597 22.422060 lineto
128.756350 22.424006 lineto
127.325110 22.416139 lineto
125.920204 22.412265 lineto
124.476423 22.409594 lineto
123.030259 22.381161 lineto
121.604546 22.350778 lineto
120.163661 22.316278 lineto
118.803683 22.278109 lineto
117.369298 22.258183 lineto
115.954732 22.258191 lineto
114.571811 22.259912 lineto
113.020271 22.241483 lineto
111.676113 22.207215 lineto
110.345873 22.174987 lineto
108.999851 22.138768 lineto
107.669274 22.103546 lineto
106.367908 22.094528 lineto
105.082944 22.094446 lineto
103.826549 22.089735 lineto
102.589200 22.059166 lineto
101.339710 22.026046 lineto
100.107168 21.993740 lineto
98.849310 21.957293 lineto
97.595977 21.932004 lineto
96.381786 21.932055 lineto
95.157866 21.932679 lineto
93.946263 21.905941 lineto
92.765839 21.872809 lineto
91.646411 21.839685 lineto
90.450676 21.805176 lineto
89.279444 21.770381 lineto
88.099595 21.769082 lineto
87.025891 21.769253 lineto
85.988803 21.753813 lineto
85.003086 21.721747 lineto
84.216207 21.692442 lineto
82.801289 21.676646 lineto
81.760140 21.651079 lineto
80.642045 21.612065 lineto
79.617385 21.609381 lineto
78.735384 21.609405 lineto
77.872493 21.603116 lineto
77.020401 21.597381 lineto
76.159107 21.561938 lineto
75.309352 21.524766 lineto
74.482600 21.489967 lineto
73.615094 21.447537 lineto
72.777693 21.446218 lineto
71.988239 21.447300 lineto
71.225066 21.414715 lineto
70.460471 21.381106 lineto
69.699240 21.343624 lineto
68.959281 21.307855 lineto
68.143333 21.285363 lineto
67.325798 21.285370 lineto
66.641499 21.273723 lineto
65.938020 21.236159 lineto
65.197526 21.200607 lineto
64.496361 21.166475 lineto
63.796209 21.125243 lineto
63.100074 21.122669 lineto
62.421643 21.123623 lineto
61.772925 21.086229 lineto
61.161953 21.050879 lineto
60.533379 21.014440 lineto
59.903878 20.973596 lineto
59.301490 20.962049 lineto
58.710644 20.961991 lineto
58.159967 20.930965 lineto
57.614246 20.894424 lineto
57.044614 20.860556 lineto
56.503667 20.821809 lineto
55.967117 20.802473 lineto
55.482918 20.802481 lineto
55.003635 20.789476 lineto
54.529858 20.756697 lineto
54.102636 20.722138 lineto
53.612803 20.686156 lineto
53.134298 20.645630 lineto
52.671880 20.644622 lineto
52.232016 20.644599 lineto
51.818320 20.609858 lineto
51.419872 20.573255 lineto
51.007530 20.538037 lineto
50.594489 20.498000 lineto
50.196519 20.489105 lineto
49.848059 20.489078 lineto
49.521879 20.454922 lineto
49.163348 20.425365 lineto
48.849379 20.390810 lineto
48.556567 20.353890 lineto
48.227560 20.336822 lineto
47.926881 20.336822 lineto
47.668761 20.317160 lineto
47.415980 20.281438 lineto
47.163119 20.252513 lineto
46.900002 20.217434 lineto
46.652449 20.187078 lineto
46.406390 20.187078 lineto
46.219438 20.180576 lineto
46.021803 20.142280 lineto
45.832779 20.111807 lineto
45.655007 20.078315 lineto
45.488327 20.046059 lineto
45.309707 20.040836 lineto
45.155220 20.040836 lineto
45.000000 20.000000 lineto
closepath
gsave
0.000000 0.000000 0.000000 setrgbcolor
fill
grestore
stroke
45.000000 20.000000 moveto
45.000000 20.000000 lineto
45.155220 20.040836 lineto
45.309707 20.040836 lineto
45.488327 20.046059 lineto
45.655007 20.078315 lineto
45.832779 20.111807 lineto
46.021803 20.142280 lineto
46.219438 20.180576 lineto
46.406390 20.187078 lineto
46.652449 20.187078 lineto
46.900002 20.217434 lineto
47.163119 20.252513 lineto
47.415980 20.281438 lineto
47.668761 20.317160 lineto
47.926881 20.336822 lineto
48.227560 20.336822 lineto
48.556567 20.353890 lineto
48.849379 20.390810 lineto
49.163348 20.425365 lineto
49.521879 20.454922 lineto
49.848059 20.489078 lineto
50.196519 20.489105 lineto
50.594489 20.498000 lineto
51.007530 20.538037 lineto
51.419872 20.573255 lineto
51.818320 20.609858 lineto
52.232016 20.644599 lineto
52.671880 20.644622 lineto
53.134298 20.645630 lineto
53.612803 20.686156 lineto
54.102636 20.722138 lineto
54.529858 20.756697 lineto
55.003635 20.789476 lineto
55.482918 20.802481 lineto
55.967117 20.802473 lineto
56.503667 20.821809 lineto
57.044614 20.860556 lineto
57.614246 20.894424 lineto
58.159967 20.930965 lineto
58.710644 20.961991 lineto
59.301490 20.962049 lineto
59.903878 20.973596 lineto
60.533379 21.014440 lineto
61.161953 21.050879 lineto
61.772925 21.086229 lineto
62.421643 21.123623 lineto
63.100074 21.122669 lineto
63.796209 21.125243 lineto
64.496361 21.166475 lineto
65.197526 21.200607 lineto
65.938020 21.236159 lineto
66.641499 21.273723 lineto
67.325798 21.285370 lineto
68.143333 21.285363 lineto
68.959281 21.307855 lineto
69.699240 21.343624 lineto
70.460471 21.381106 lineto
71.225066 21.414715 lineto
71.988239 21.447300 lineto
72.777693 21.446218 lineto
73.615094 21.447537 lineto
74.482600 21.489967 lineto
75.309352 21.524766 lineto
76.159107 21.561938 lineto
77.020401 21.597381 lineto
77.872493 21.603116 lineto
78.735384 21.609405 lineto
79.617385 21.609381 lineto
80.642045 21.612065 lineto
81.760140 21.651079 lineto
82.801289 21.676646 lineto
84.216207 21.692442 lineto
85.003086 21.721747 lineto
85.988803 21.753813 lineto
87.025891 21.769253 lineto
88.099595 21.769082 lineto
89.279444 21.770381 lineto
90.450676 21.805176 lineto
91.646411 21.839685 lineto
92.765839 21.872809 lineto
93.946263 21.905941 lineto
95.157866 21.932679 lineto
96.381786 21.932055 lineto
97.595977 21.932004 lineto
98.849310 21.957293 lineto
100.107168 21.993740 lineto
101.339710 22.026046 lineto
102.589200 22.059166 lineto
103.826549 22.089735 lineto
105.082944 22.094446 lineto
106.367908 22.094528 lineto
107.669274 22.103546 lineto
108.999851 22.138768 lineto
110.345873 22.174987 lineto
111.676113 22.207215 lineto
113.020271 22.241483 lineto
114.571811 22.259912 lineto
115.954732 22.258191 lineto
117.369298 22.258183 lineto
118.803683 22.278109 lineto
120.163661 22.316278 lineto
121.604546 22.350778 lineto
123.030259 22.381161 lineto
124.476423 22.409594 lineto
125.920204 22.412265 lineto
127.325110 22.416139 lineto
128.756350 22.424006 lineto
130.195597 22.422060 lineto
131.636045 22.422106 lineto
133.140340 22.450667 lineto
134.653331 22.484454 lineto
136.136471 22.517493 lineto
137.652670 22.549078 lineto
139.142896 22.578639 lineto
140.648710 22.587820 lineto
142.134333 22.585909 lineto
143.657914 22.585979 lineto
145.227104 22.606106 lineto
146.754527 22.642890 lineto
148.342073 22.677283 lineto
149.915574 22.706386 lineto
151.502297 22.743864 lineto
153.055936 22.749475 lineto
154.595616 22.749246 lineto
156.232135 22.751840 lineto
158.080356 22.788148 lineto
159.795241 22.824696 lineto
161.549288 22.854450 lineto
163.269064 22.884833 lineto
164.983810 22.913844 lineto
166.695250 22.912859 lineto
168.500925 22.912797 lineto
170.274088 22.943459 lineto
172.032858 22.976672 lineto
173.757699 23.009583 lineto
175.528746 23.040389 lineto
177.293865 23.078628 lineto
179.078628 23.076569 lineto
180.992770 23.076472 lineto
182.857775 23.086026 lineto
184.837815 23.124512 lineto
186.745866 23.156589 lineto
188.613867 23.187957 lineto
190.577208 23.220446 lineto
192.500210 23.240112 lineto
194.334657 23.239003 lineto
196.263360 23.238766 lineto
198.186387 23.266776 lineto
200.143705 23.302564 lineto
202.118559 23.335859 lineto
204.142423 23.367626 lineto
206.136054 23.403647 lineto
208.133672 23.401735 lineto
210.170099 23.401452 lineto
212.212009 23.420459 lineto
214.274503 23.457639 lineto
216.306150 23.493702 lineto
218.341984 23.528540 lineto
220.384673 23.561940 lineto
222.417415 23.561199 lineto
224.581627 23.561102 lineto
226.573470 23.560478 lineto
228.781035 23.560901 lineto
230.898032 23.560998 lineto
233.008564 23.560947 lineto
235.127264 23.560943 lineto
237.271938 23.560842 lineto
239.369779 23.560528 lineto
241.513930 23.560152 lineto
243.662662 23.560358 lineto
245.802341 23.560005 lineto
247.955919 23.559660 lineto
250.225587 23.559544 lineto
252.428692 23.559648 lineto
254.661317 23.559513 lineto
256.961031 23.559071 lineto
259.166072 23.559167 lineto
261.451821 23.559117 lineto
263.719424 23.559323 lineto
265.972531 23.558931 lineto
268.296805 23.558462 lineto
270.690021 23.558450 lineto
273.057797 23.558233 lineto
275.471137 23.557927 lineto
277.847035 23.558423 lineto
280.164496 23.557845 lineto
282.452913 23.557667 lineto
284.834748 23.556981 lineto
287.019630 23.557535 lineto
289.504072 23.557240 lineto
292.019140 23.557450 lineto
294.567654 23.556802 lineto
297.034068 23.556760 lineto
299.490732 23.556562 lineto
301.902040 23.556469 lineto
304.345860 23.556663 lineto
306.744353 23.556783 lineto
309.215759 23.556325 lineto
311.754786 23.555926 lineto
314.406863 23.556027 lineto
316.931472 23.555786 lineto
319.463801 23.555806 lineto
321.951853 23.555589 lineto
324.538944 23.555275 lineto
327.291833 23.555116 lineto
329.963531 23.555123 lineto
332.570181 23.554154 lineto
335.152601 23.554464 lineto
337.790276 23.554394 lineto
340.426742 23.554472 lineto
343.103237 23.554398 lineto
345.840138 23.554061 lineto
348.516581 23.554181 lineto
351.160817 23.553762 lineto
353.889344 23.553852 lineto
356.548681 23.553340 lineto
359.251107 23.553305 lineto
362.385798 20.000000 lineto
362.385798 20.000000 lineto
362.385798 20.000000 lineto
359.251107 32.852291 lineto
356.548681 32.850519 lineto
353.889344 32.852815 lineto
351.160817 32.850213 lineto
348.516581 32.851865 lineto
345.840138 32.849062 lineto
343.103237 32.849391 lineto
340.426742 32.850132 lineto
337.790276 32.848185 lineto
335.152601 32.846983 lineto
332.570181 32.844773 lineto
329.963531 32.848643 lineto
327.291833 32.847511 lineto
324.538944 32.846150 lineto
321.951853 32.847092 lineto
319.463801 32.846921 lineto
316.931472 32.846483 lineto
314.406863 32.846041 lineto
311.754786 32.845064 lineto
309.215759 32.845363 lineto
306.744353 32.846890 lineto
304.345860 32.845421 lineto
301.902040 32.843963 lineto
299.490732 32.842059 lineto
297.034068 32.843083 lineto
294.567654 32.841536 lineto
292.019140 32.842470 lineto
289.504072 32.840260 lineto
287.019630 32.842129 lineto
284.834748 32.838186 lineto
282.452913 32.840020 lineto
280.164496 32.840586 lineto
277.847035 32.841590 lineto
275.471137 32.838480 lineto
273.057797 32.838422 lineto
270.690021 32.838096 lineto
268.296805 32.836867 lineto
265.972531 32.838143 lineto
263.719424 32.838635 lineto
261.451821 32.837709 lineto
259.166072 32.836146 lineto
256.961031 32.835677 lineto
254.661317 32.836196 lineto
252.428692 32.836115 lineto
250.225587 32.834366 lineto
247.955919 32.832544 lineto
245.802341 32.834045 lineto
243.662662 32.833661 lineto
241.513930 32.833114 lineto
239.369779 32.832877 lineto
237.271938 32.833083 lineto
235.127264 32.832106 lineto
233.008564 32.832110 lineto
230.898032 32.830985 lineto
228.781035 32.829396 lineto
226.573470 32.826422 lineto
224.581627 32.828899 lineto
222.417415 32.828376 lineto
220.384673 32.829334 lineto
218.341984 32.698547 lineto
216.306150 32.563743 lineto
214.274503 32.423603 lineto
212.212009 32.278423 lineto
210.170099 32.204540 lineto
208.133672 32.205661 lineto
206.136054 32.200430 lineto
204.142423 32.078879 lineto
202.118559 31.955545 lineto
200.143705 31.826227 lineto
198.186387 31.686320 lineto
196.263360 31.577499 lineto
194.334657 31.577735 lineto
192.500210 31.582520 lineto
190.577208 31.513359 lineto
188.613867 31.387659 lineto
186.745866 31.265829 lineto
184.837815 31.142273 lineto
182.857775 30.993829 lineto
180.992770 30.956773 lineto
179.078628 30.956800 lineto
177.293865 30.955059 lineto
175.528746 30.824741 lineto
173.757699 30.705699 lineto
172.032858 30.578153 lineto
170.274088 30.450138 lineto
168.500925 30.331611 lineto
166.695250 30.331999 lineto
164.983810 30.335838 lineto
163.269064 30.230695 lineto
161.549288 30.113929 lineto
159.795241 29.997709 lineto
158.080356 29.858838 lineto
156.232135 29.719935 lineto
154.595616 29.710056 lineto
153.055936 29.710564 lineto
151.502297 29.695617 lineto
149.915574 29.551755 lineto
148.342073 29.439490 lineto
146.754527 29.308094 lineto
145.227104 29.166893 lineto
143.657914 29.089474 lineto
142.134333 29.089268 lineto
140.648710 29.086058 lineto
139.142896 29.065593 lineto
137.652670 28.952161 lineto
136.136471 28.833541 lineto
134.653331 28.708337 lineto
133.140340 28.578527 lineto
131.636045 28.470229 lineto
130.195597 28.470322 lineto
128.756350 28.467286 lineto
127.325110 28.452758 lineto
125.920204 28.439276 lineto
124.476423 28.427698 lineto
123.030259 28.318931 lineto
121.604546 28.205336 lineto
120.163661 28.074812 lineto
118.803683 27.929904 lineto
117.369298 27.853951 lineto
115.954732 27.853749 lineto
114.571811 27.850360 lineto
113.020271 27.796632 lineto
111.676113 27.666845 lineto
110.345873 27.545678 lineto
108.999851 27.409013 lineto
107.669274 27.275694 lineto
106.367908 27.240728 lineto
105.082944 27.240786 lineto
103.826549 27.229375 lineto
102.589200 27.114132 lineto
101.339710 26.989045 lineto
100.107168 26.867811 lineto
98.849310 26.731208 lineto
97.595977 26.635670 lineto
96.381786 26.635860 lineto
95.157866 26.637927 lineto
93.946263 26.541970 lineto
92.765839 26.419260 lineto
91.646411 26.294967 lineto
90.450676 26.165374 lineto
89.279444 26.035460 lineto
88.099595 26.030780 lineto
87.025891 26.031648 lineto
85.988803 25.980106 lineto
85.003086 25.861052 lineto
84.216207 25.750982 lineto
82.801289 25.692531 lineto
81.760140 25.598288 lineto
80.642045 25.453690 lineto
79.617385 25.443636 lineto
78.735384 25.443868 lineto
77.872493 25.426350 lineto
77.020401 25.402633 lineto
76.159107 25.273451 lineto
75.309352 25.137034 lineto
74.482600 25.008457 lineto
73.615094 24.852075 lineto
72.777693 24.847314 lineto
71.988239 24.841669 lineto
71.225066 24.737042 lineto
70.460471 24.613661 lineto
69.699240 24.476616 lineto
68.959281 24.345212 lineto
68.143333 24.263722 lineto
67.325798 24.263729 lineto
66.641499 24.226670 lineto
65.938020 24.090850 lineto
65.197526 23.961881 lineto
64.496361 23.838694 lineto
63.796209 23.689171 lineto
63.100074 23.679951 lineto
62.421643 23.673460 lineto
61.772925 23.553890 lineto
61.161953 23.427237 lineto
60.533379 23.295693 lineto
59.903878 23.149366 lineto
59.301490 23.107669 lineto
58.710644 23.107339 lineto
58.159967 23.001410 lineto
57.614246 22.871561 lineto
57.044614 22.751282 lineto
56.503667 22.613136 lineto
55.967117 22.544394 lineto
55.482918 22.544402 lineto
55.003635 22.503879 lineto
54.529858 22.388485 lineto
54.102636 22.267376 lineto
53.612803 22.138823 lineto
53.134298 21.999509 lineto
52.671880 21.995682 lineto
52.232016 21.995581 lineto
51.818320 21.879633 lineto
51.419872 21.752638 lineto
51.007530 21.628896 lineto
50.594489 21.493650 lineto
50.196519 21.463054 lineto
49.848059 21.462833 lineto
49.521879 21.351568 lineto
49.163348 21.250885 lineto
48.849379 21.134119 lineto
48.556567 21.009655 lineto
48.227560 20.952325 lineto
47.926881 20.952325 lineto
47.668761 20.890865 lineto
47.415980 20.772571 lineto
47.163119 20.677467 lineto
46.900002 20.563593 lineto
46.652449 20.467318 lineto
46.406390 20.467318 lineto
46.219438 20.450642 lineto
46.021803 20.332235 lineto
45.832779 20.240400 lineto
45.655007 20.142768 lineto
45.488327 20.057048 lineto
45.309707 20.045974 lineto
45.155220 20.045974 lineto
45.000000 20.000000 lineto
closepath
gsave
0.000000 0.000000 1.000000 setrgbcolor
fill
grestore
stroke
45.000000 20.000000 moveto
45.000000 20.000000 lineto
45.155220 20.045974 lineto
45.309707 20.045974 lineto
45.488327 20.057048 lineto
45.655007 20.142768 lineto
45.832779 20.240400 lineto
46.021803 20.332235 lineto
46.219438 20.450642 lineto
46.406390 20.467318 lineto
46.652449 20.467318 lineto
46.900002 20.563593 lineto
47.163119 20.677467 lineto
47.415980 20.772571 lineto
47.668761 20.890865 lineto
47.926881 20.952325 lineto
48.227560 20.952325 lineto
48.556567 21.009655 lineto
48.849379 21.134119 lineto
49.163348 21.250885 lineto
49.521879 21.351568 lineto
49.848059 21.462833 lineto
50.196519 21.463054 lineto
50.594489 21.493650 lineto
51.007530 21.628896 lineto
51.419872 21.752638 lineto
51.818320 21.879633 lineto
52.232016 21.995581 lineto
52.671880 21.995682 lineto
53.134298 21.999509 lineto
53.612803 22.138823 lineto
54.102636 22.267376 lineto
54.529858 22.388485 lineto
55.003635 22.503879 lineto
55.482918 22.544402 lineto
55.967117 22.544394 lineto
56.503667 22.613136 lineto
57.044614 22.751282 lineto
57.614246 22.871561 lineto
58.159967 23.001410 lineto
58.710644 23.107339 lineto
59.301490 23.107669 lineto
59.903878 23.149366 lineto
60.533379 23.295693 lineto
61.161953 23.427237 lineto
61.772925 23.553890 lineto
62.421643 23.673460 lineto
63.100074 23.679951 lineto
63.796209 23.689171 lineto
64.496361 23.838694 lineto
65.197526 23.961881 lineto
65.938020 24.090850 lineto
66.641499 24.226670 lineto
67.325798 24.263729 lineto
68.143333 24.263722 lineto
68.959281 24.345212 lineto
69.699240 24.476616 lineto
70.460471 24.613661 lineto
71.225066 24.737042 lineto
71.988239 24.841669 lineto
72.777693 24.847314 lineto
73.615094 24.852075 lineto
74.482600 25.008457 lineto
75.309352 25.137034 lineto
76.159107 25.273451 lineto
77.020401 25.402633 lineto
77.872493 25.426350 lineto
78.735384 25.443868 lineto
79.617385 25.443636 lineto
80.642045 25.453690 lineto
81.760140 25.598288 lineto
82.801289 25.692531 lineto
84.216207 25.750982 lineto
85.003086 25.861052 lineto
85.988803 25.980106 lineto
87.025891 26.031648 lineto
88.099595 26.030780 lineto
89.279444 26.035460 lineto
90.450676 26.165374 lineto
91.646411 26.294967 lineto
92.765839 26.419260 lineto
93.946263 26.541970 lineto
95.157866 26.637927 lineto
96.381786 26.635860 lineto
97.595977 26.635670 lineto
98.849310 26.731208 lineto
100.107168 26.867811 lineto
101.339710 26.989045 lineto
102.589200 27.114132 lineto
103.826549 27.229375 lineto
105.082944 27.240786 lineto
106.367908 27.240728 lineto
107.669274 27.275694 lineto
108.999851 27.409013 lineto
110.345873 27.545678 lineto
111.676113 27.666845 lineto
113.020271 27.796632 lineto
114.571811 27.850360 lineto
115.954732 27.853749 lineto
117.369298 27.853951 lineto
118.803683 27.929904 lineto
120.163661 28.074812 lineto
121.604546 28.205336 lineto
123.030259 28.318931 lineto
124.476423 28.427698 lineto
125.920204 28.439276 lineto
127.325110 28.452758 lineto
128.756350 28.467286 lineto
130.195597 28.470322 lineto
131.636045 28.470229 lineto
133.140340 28.578527 lineto
134.653331 28.708337 lineto
136.136471 28.833541 lineto
137.652670 28.952161 lineto
139.142896 29.065593 lineto
140.648710 29.086058 lineto
142.134333 29.089268 lineto
143.657914 29.089474 lineto
145.227104 29.166893 lineto
146.754527 29.308094 lineto
148.342073 29.439490 lineto
149.915574 29.551755 lineto
151.502297 29.695617 lineto
153.055936 29.710564 lineto
154.595616 29.710056 lineto
156.232135 29.719935 lineto
158.080356 29.858838 lineto
159.795241 29.997709 lineto
161.549288 30.113929 lineto
163.269064 30.230695 lineto
164.983810 30.335838 lineto
166.695250 30.331999 lineto
168.500925 30.331611 lineto
170.274088 30.450138 lineto
172.032858 30.578153 lineto
173.757699 30.705699 lineto
175.528746 30.824741 lineto
177.293865 30.955059 lineto
179.078628 30.956800 lineto
180.992770 30.956773 lineto
182.857775 30.993829 lineto
184.837815 31.142273 lineto
186.745866 31.265829 lineto
188.613867 31.387659 lineto
190.577208 31.513359 lineto
192.500210 31.582520 lineto
194.334657 31.577735 lineto
196.263360 31.577499 lineto
198.186387 31.686320 lineto
200.143705 31.826227 lineto
202.118559 31.955545 lineto
204.142423 32.078879 lineto
206.136054 32.200430 lineto
208.133672 32.205661 lineto
210.170099 32.204540 lineto
212.212009 32.278423 lineto
214.274503 32.423603 lineto
216.306150 32.563743 lineto
218.341984 32.698547 lineto
220.384673 32.829334 lineto
222.417415 32.828376 lineto
224.581627 32.828899 lineto
226.573470 32.826422 lineto
228.781035 32.829396 lineto
230.898032 32.830985 lineto
233.008564 32.832110 lineto
235.127264 32.832106 lineto
237.271938 32.833083 lineto
239.369779 32.832877 lineto
241.513930 32.833114 lineto
243.662662 32.833661 lineto
245.802341 32.834045 lineto
247.955919 32.832544 lineto
250.225587 32.834366 lineto
252.428692 32.836115 lineto
254.661317 32.836196 lineto
256.961031 32.835677 lineto
259.166072 32.836146 lineto
261.451821 32.837709 lineto
263.719424 32.838635 lineto
265.972531 32.838143 lineto
268.296805 32.836867 lineto
270.690021 32.838096 lineto
273.057797 32.838422 lineto
275.471137 32.838480 lineto
277.847035 32.841590 lineto
280.164496 32.840586 lineto
282.452913 32.840020 lineto
284.834748 32.838186 lineto
287.019630 32.842129 lineto
289.504072 32.840260 lineto
292.019140 32.842470 lineto
294.567654 32.841536 lineto
297.034068 32.843083 lineto
299.490732 32.842059 lineto
301.902040 32.843963 lineto
304.345860 32.845421 lineto
306.744353 32.846890 lineto
309.215759 32.845363 lineto
311.754786 32.845064 lineto
314.406863 32.846041 lineto
316.931472 32.846483 lineto
319.463801 32.846921 lineto
321.951853 32.847092 lineto
324.538944 32.846150 lineto
327.291833 32.847511 lineto
329.963531 32.848643 lineto
332.570181 32.844773 lineto
335.152601 32.846983 lineto
337.790276 32.848185 lineto
340.426742 32.850132 lineto
343.103237 32.849391 lineto
345.840138 32.849062 lineto
348.516581 32.851865 lineto
351.160817 32.850213 lineto
353.889344 32.852815 lineto
356.548681 32.850519 lineto
359.251107 32.852291 lineto
362.385798 20.000000 lineto
362.385798 20.000000 lineto
362.385798 20.000000 lineto
359.251107 56.350527 lineto
356.548681 56.333169 lineto
353.889344 56.288176 lineto
351.160817 56.214099 lineto
348.516581 56.116238 lineto
345.840138 56.051285 lineto
343.103237 55.958647 lineto
340.426742 55.860736 lineto
337.790276 55.769455 lineto
335.152601 55.642918 lineto
332.570181 55.494287 lineto
329.963531 55.339965 lineto
327.291833 55.276667 lineto
324.538944 55.206320 lineto
321.951853 55.127846 lineto
319.463801 55.032673 lineto
316.931472 54.937309 lineto
314.406863 54.815746 lineto
311.754786 54.677224 lineto
309.215759 54.516275 lineto
306.744353 54.466242 lineto
304.345860 54.410260 lineto
301.902040 54.317634 lineto
299.490732 54.213892 lineto
297.034068 54.111239 lineto
294.567654 53.980560 lineto
292.019140 53.831573 lineto
289.504072 53.690592 lineto
287.019630 53.622991 lineto
284.834748 53.547913 lineto
282.452913 53.490401 lineto
280.164496 53.388763 lineto
277.847035 53.287553 lineto
275.471137 53.153788 lineto
273.057797 52.999935 lineto
270.690021 52.855681 lineto
268.296805 52.794834 lineto
265.972531 52.718442 lineto
263.719424 52.626584 lineto
261.451821 52.556039 lineto
259.166072 52.458865 lineto
256.961031 52.336155 lineto
254.661317 52.188838 lineto
252.428692 52.038513 lineto
250.225587 51.967620 lineto
247.955919 51.886157 lineto
245.802341 51.791177 lineto
243.662662 51.702467 lineto
241.513930 51.582273 lineto
239.369779 51.442389 lineto
237.271938 51.274930 lineto
235.127264 51.198120 lineto
233.008564 51.128250 lineto
230.898032 51.044918 lineto
228.781035 50.937480 lineto
226.573470 50.845800 lineto
224.581627 50.726890 lineto
222.417415 50.579399 lineto
220.384673 50.403285 lineto
218.341984 50.292095 lineto
216.306150 50.189093 lineto
214.274503 50.089549 lineto
212.212009 49.965354 lineto
210.170099 49.671408 lineto
208.133672 49.268407 lineto
206.136054 48.999458 lineto
204.142423 48.884339 lineto
202.118559 48.810433 lineto
200.143705 48.723162 lineto
198.186387 48.615360 lineto
196.263360 48.442026 lineto
194.334657 48.062391 lineto
192.500210 47.664031 lineto
190.577208 47.554159 lineto
188.613867 47.451583 lineto
186.745866 47.367797 lineto
184.837815 47.294639 lineto
182.857775 47.190048 lineto
180.992770 46.901220 lineto
179.078628 46.511201 lineto
177.293865 46.195964 lineto
175.528746 46.081004 lineto
173.757699 45.991941 lineto
172.032858 45.902634 lineto
170.274088 45.821249 lineto
168.500925 45.645608 lineto
166.695250 45.220704 lineto
164.983810 44.805959 lineto
163.269064 44.630691 lineto
161.549288 44.560236 lineto
159.795241 44.482464 lineto
158.080356 44.392370 lineto
156.232135 44.284889 lineto
154.595616 43.921729 lineto
153.055936 43.497278 lineto
151.502297 43.235134 lineto
149.915574 43.115374 lineto
148.342073 43.046280 lineto
146.754527 42.972292 lineto
145.227104 42.854580 lineto
143.657914 42.624307 lineto
142.134333 42.199105 lineto
140.648710 41.849182 lineto
139.142896 41.825925 lineto
137.652670 41.727320 lineto
136.136471 41.638649 lineto
134.653331 41.574785 lineto
133.140340 41.485904 lineto
131.636045 41.265271 lineto
130.195597 40.839786 lineto
128.756350 40.481669 lineto
127.325110 40.441171 lineto
125.920204 40.427666 lineto
124.476423 40.416072 lineto
123.030259 40.327296 lineto
121.604546 40.245256 lineto
120.163661 40.150233 lineto
118.803683 40.044471 lineto
117.369298 39.843232 lineto
115.954732 39.428386 lineto
114.571811 39.109101 lineto
113.020271 38.985767 lineto
111.676113 38.885851 lineto
110.345873 38.812375 lineto
108.999851 38.718252 lineto
107.669274 38.625576 lineto
106.367908 38.331005 lineto
105.082944 37.877467 lineto
103.826549 37.622008 lineto
102.589200 37.525423 lineto
101.339710 37.428501 lineto
100.107168 37.358735 lineto
98.849310 37.263201 lineto
97.595977 37.034693 lineto
96.381786 36.618099 lineto
95.157866 36.228498 lineto
93.946263 36.122034 lineto
92.765839 36.031769 lineto
91.646411 35.956711 lineto
90.450676 35.873887 lineto
89.279444 35.780598 lineto
88.099595 35.296979 lineto
87.025891 34.935393 lineto
85.988803 34.748795 lineto
85.003086 34.653307 lineto
84.216207 34.584321 lineto
82.801289 34.547971 lineto
81.760140 34.490997 lineto
80.642045 34.399224 lineto
79.617385 34.027777 lineto
78.735384 33.630349 lineto
77.872493 33.422476 lineto
77.020401 33.399735 lineto
76.159107 33.295174 lineto
75.309352 33.210528 lineto
74.482600 33.114591 lineto
73.615094 32.994586 lineto
72.777693 32.521200 lineto
71.988239 32.092671 lineto
71.225066 31.962051 lineto
70.460471 31.875787 lineto
69.699240 31.793638 lineto
68.959281 31.702473 lineto
68.143333 31.411350 lineto
67.325798 30.961205 lineto
66.641499 30.644820 lineto
65.938020 30.537763 lineto
65.197526 30.458393 lineto
64.496361 30.393537 lineto
63.796209 30.290946 lineto
63.100074 29.824174 lineto
62.421643 29.291057 lineto
61.772925 29.184178 lineto
61.161953 29.108147 lineto
60.533379 29.024985 lineto
59.903878 28.911771 lineto
59.301490 28.552309 lineto
58.710644 28.118817 lineto
58.159967 27.871705 lineto
57.614246 27.774240 lineto
57.044614 27.689144 lineto
56.503667 27.600302 lineto
55.967117 27.283495 lineto
55.482918 26.850317 lineto
55.003635 26.548670 lineto
54.529858 26.447522 lineto
54.102636 26.387163 lineto
53.612803 26.316134 lineto
53.134298 26.220557 lineto
52.671880 25.690639 lineto
52.232016 25.231211 lineto
51.818320 25.107260 lineto
51.419872 25.019992 lineto
51.007530 24.947276 lineto
50.594489 24.848276 lineto
50.196519 24.451044 lineto
49.848059 23.979120 lineto
49.521879 23.794589 lineto
49.163348 23.738425 lineto
48.849379 23.674337 lineto
48.556567 23.587794 lineto
48.227560 23.269254 lineto
47.926881 22.769416 lineto
47.668761 22.520091 lineto
47.415980 22.442966 lineto
47.163119 22.395151 lineto
46.900002 22.331783 lineto
46.652449 22.196696 lineto
46.406390 21.672043 lineto
46.219438 21.255798 lineto
46.021803 21.161632 lineto
45.832779 21.110067 lineto
45.655007 21.045882 lineto
45.488327 20.995468 lineto
45.309707 20.675920 lineto
45.155220 20.255560 lineto
45.000000 20.000000 lineto
closepath
gsave
0.000000 1.000000 0.000000 setrgbcolor
fill
grestore
stroke
45.000000 20.000000 moveto
45.000000 20.000000 lineto
45.155220 20.255560 lineto
45.309707 20.675920 lineto
45.488327 20.995468 lineto
45.655007 21.045882 lineto
45.832779 21.110067 lineto
46.021803 21.161632 lineto
46.219438 21.255798 lineto
46.406390 21.672043 lineto
46.652449 22.196696 lineto
46.900002 22.331783 lineto
47.163119 22.395151 lineto
47.415980 22.442966 lineto
47.668761 22.520091 lineto
47.926881 22.769416 lineto
48.227560 23.269254 lineto
48.556567 23.587794 lineto
48.849379 23.674337 lineto
49.163348 23.738425 lineto
49.521879 23.794589 lineto
49.848059 23.979120 lineto
50.196519 24.451044 lineto
50.594489 24.848276 lineto
51.007530 24.947276 lineto
51.419872 25.019992 lineto
51.818320 25.107260 lineto
52.232016 25.231211 lineto
52.671880 25.690639 lineto
53.134298 26.220557 lineto
53.612803 26.316134 lineto
54.102636 26.387163 lineto
54.529858 26.447522 lineto
55.003635 26.548670 lineto
55.482918 26.850317 lineto
55.967117 27.283495 lineto
56.503667 27.600302 lineto
57.044614 27.689144 lineto
57.614246 27.774240 lineto
58.159967 27.871705 lineto
58.710644 28.118817 lineto
59.301490 28.552309 lineto
59.903878 28.911771 lineto
60.533379 29.024985 lineto
61.161953 29.108147 lineto
61.772925 29.184178 lineto
62.421643 29.291057 lineto
63.100074 29.824174 lineto
63.796209 30.290946 lineto
64.496361 30.393537 lineto
65.197526 30.458393 lineto
65.938020 30.537763 lineto
66.641499 30.644820 lineto
67.325798 30.961205 lineto
68.143333 31.411350 lineto
68.959281 31.702473 lineto
69.699240 31.793638 lineto
70.460471 31.875787 lineto
71.225066 31.962051 lineto
71.988239 32.092671 lineto
72.777693 32.521200 lineto
73.615094 32.994586 lineto
74.482600 33.114591 lineto
75.309352 33.210528 lineto
76.159107 33.295174 lineto
77.020401 33.399735 lineto
77.872493 33.422476 lineto
78.735384 33.630349 lineto
79.617385 34.027777 lineto
80.642045 34.399224 lineto
81.760140 34.490997 lineto
82.801289 34.547971 lineto
84.216207 34.584321 lineto
85.003086 34.653307 lineto
85.988803 34.748795 lineto
87.025891 34.935393 lineto
88.099595 35.296979 lineto
89.279444 35.780598 lineto
90.450676 35.873887 lineto
91.646411 35.956711 lineto
92.765839 36.031769 lineto
93.946263 36.122034 lineto
95.157866 36.228498 lineto
96.381786 36.618099 lineto
97.595977 37.034693 lineto
98.849310 37.263201 lineto
100.107168 37.358735 lineto
101.339710 37.428501 lineto
102.589200 37.525423 lineto
103.826549 37.622008 lineto
105.082944 37.877467 lineto
106.367908 38.331005 lineto
107.669274 38.625576 lineto
108.999851 38.718252 lineto
110.345873 38.812375 lineto
111.676113 38.885851 lineto
113.020271 38.985767 lineto
114.571811 39.109101 lineto
115.954732 39.428386 lineto
117.369298 39.843232 lineto
118.803683 40.044471 lineto
120.163661 40.150233 lineto
121.604546 40.245256 lineto
123.030259 40.327296 lineto
124.476423 40.416072 lineto
125.920204 40.427666 lineto
127.325110 40.441171 lineto
128.756350 40.481669 lineto
130.195597 40.839786 lineto
131.636045 41.265271 lineto
133.140340 41.485904 lineto
134.653331 41.574785 lineto
136.136471 41.638649 lineto
137.652670 41.727320 lineto
139.142896 41.825925 lineto
140.648710 41.849182 lineto
142.134333 42.199105 lineto
143.657914 42.624307 lineto
145.227104 42.854580 lineto
146.754527 42.972292 lineto
148.342073 43.046280 lineto
149.915574 43.115374 lineto
151.502297 43.235134 lineto
153.055936 43.497278 lineto
154.595616 43.921729 lineto
156.232135 44.284889 lineto
158.080356 44.392370 lineto
159.795241 44.482464 lineto
161.549288 44.560236 lineto
163.269064 44.630691 lineto
164.983810 44.805959 lineto
166.695250 45.220704 lineto
168.500925 45.645608 lineto
170.274088 45.821249 lineto
172.032858 45.902634 lineto
173.757699 45.991941 lineto
175.528746 46.081004 lineto
177.293865 46.195964 lineto
179.078628 46.511201 lineto
180.992770 46.901220 lineto
182.857775 47.190048 lineto
184.837815 47.294639 lineto
186.745866 47.367797 lineto
188.613867 47.451583 lineto
190.577208 47.554159 lineto
192.500210 47.664031 lineto
194.334657 48.062391 lineto
196.263360 48.442026 lineto
198.186387 48.615360 lineto
200.143705 48.723162 lineto
202.118559 48.810433 lineto
204.142423 48.884339 lineto
206.136054 48.999458 lineto
208.133672 49.268407 lineto
210.170099 49.671408 lineto
212.212009 49.965354 lineto
214.274503 50.089549 lineto
216.306150 50.189093 lineto
218.341984 50.292095 lineto
220.384673 50.403285 lineto
222.417415 50.579399 lineto
224.581627 50.726890 lineto
226.573470 50.845800 lineto
228.781035 50.937480 lineto
230.898032 51.044918 lineto
233.008564 51.128250 lineto
235.127264 51.198120 lineto
237.271938 51.274930 lineto
239.369779 51.442389 lineto
241.513930 51.582273 lineto
243.662662 51.702467 lineto
245.802341 51.791177 lineto
247.955919 51.886157 lineto
250.225587 51.967620 lineto
252.428692 52.038513 lineto
254.661317 52.188838 lineto
256.961031 52.336155 lineto
259.166072 52.458865 lineto
261.451821 52.556039 lineto
263.719424 52.626584 lineto
265.972531 52.718442 lineto
268.296805 52.794834 lineto
270.690021 52.855681 lineto
273.057797 52.999935 lineto
275.471137 53.153788 lineto
277.847035 53.287553 lineto
280.164496 53.388763 lineto
282.452913 53.490401 lineto
284.834748 53.547913 lineto
287.019630 53.622991 lineto
289.504072 53.690592 lineto
292.019140 53.831573 lineto
294.567654 53.980560 lineto
297.034068 54.111239 lineto
299.490732 54.213892 lineto
301.902040 54.317634 lineto
304.345860 54.410260 lineto
306.744353 54.466242 lineto
309.215759 54.516275 lineto
311.754786 54.677224 lineto
314.406863 54.815746 lineto
316.931472 54.937309 lineto
319.463801 55.032673 lineto
321.951853 55.127846 lineto
324.538944 55.206320 lineto
327.291833 55.276667 lineto
329.963531 55.339965 lineto
332.570181 55.494287 lineto
335.152601 55.642918 lineto
337.790276 55.769455 lineto
340.426742 55.860736 lineto
343.103237 55.958647 lineto
345.840138 56.051285 lineto
348.516581 56.116238 lineto
351.160817 56.214099 lineto
353.889344 56.288176 lineto
356.548681 56.333169 lineto
359.251107 56.350527 lineto
362.385798 20.000000 lineto
362.385798 20.000000 lineto
362.385798 20.000000 lineto
359.251107 80.308339 lineto
356.548681 80.275331 lineto
353.889344 80.182701 lineto
351.160817 80.036730 lineto
348.516581 79.855374 lineto
345.840138 79.727716 lineto
343.103237 79.541611 lineto
340.426742 79.345177 lineto
337.790276 79.162995 lineto
335.152601 78.911304 lineto
332.570181 78.615303 lineto
329.963531 78.302443 lineto
327.291833 78.177472 lineto
324.538944 78.037225 lineto
321.951853 77.879335 lineto
319.463801 77.689151 lineto
316.931472 77.498171 lineto
314.406863 77.255410 lineto
311.754786 76.977621 lineto
309.215759 76.656297 lineto
306.744353 76.554594 lineto
304.345860 76.443694 lineto
301.902040 76.258787 lineto
299.490732 76.053287 lineto
297.034068 75.846728 lineto
294.567654 75.585949 lineto
292.019140 75.286334 lineto
289.504072 75.006420 lineto
287.019630 74.869771 lineto
284.834748 74.723149 lineto
282.452913 74.605638 lineto
280.164496 74.400746 lineto
277.847035 74.197275 lineto
275.471137 73.932959 lineto
273.057797 73.624112 lineto
270.690021 73.335877 lineto
268.296805 73.215172 lineto
265.972531 73.060643 lineto
263.719424 72.876574 lineto
261.451821 72.736020 lineto
259.166072 72.541415 lineto
256.961031 72.296211 lineto
254.661317 72.001176 lineto
252.428692 71.700572 lineto
250.225587 71.560421 lineto
247.955919 71.398945 lineto
245.802341 71.207303 lineto
243.662662 71.029289 lineto
241.513930 70.789595 lineto
239.369779 70.508313 lineto
237.271938 70.173615 lineto
235.127264 70.020987 lineto
233.008564 69.880875 lineto
230.898032 69.714164 lineto
228.781035 69.501216 lineto
226.573470 69.320442 lineto
224.581627 69.078767 lineto
222.417415 68.783750 lineto
220.384673 68.431031 lineto
218.341984 68.315025 lineto
216.306150 68.206951 lineto
214.274503 68.102181 lineto
212.212009 67.972744 lineto
210.170099 67.474259 lineto
208.133672 66.717884 lineto
206.136054 66.225150 lineto
204.142423 66.104797 lineto
202.118559 66.026253 lineto
200.143705 65.934143 lineto
198.186387 65.821091 lineto
196.263360 65.565914 lineto
194.334657 64.871631 lineto
192.500210 64.141378 lineto
190.577208 63.996617 lineto
188.613867 63.889373 lineto
186.745866 63.800935 lineto
184.837815 63.723124 lineto
182.857775 63.613119 lineto
180.992770 63.102925 lineto
179.078628 62.386735 lineto
177.293865 61.822270 lineto
175.528746 61.701727 lineto
173.757699 61.608213 lineto
172.032858 61.514051 lineto
170.274088 61.427827 lineto
168.500925 61.175407 lineto
166.695250 60.397974 lineto
164.983810 59.624884 lineto
163.269064 59.384794 lineto
161.549288 59.309880 lineto
159.795241 59.227711 lineto
158.080356 59.132320 lineto
156.232135 59.019807 lineto
154.595616 58.356655 lineto
153.055936 57.581219 lineto
151.502297 57.120531 lineto
149.915574 56.995351 lineto
148.342073 56.921984 lineto
146.754527 56.842955 lineto
145.227104 56.720008 lineto
143.657914 56.343738 lineto
142.134333 55.556709 lineto
140.648710 54.933711 lineto
139.142896 54.909175 lineto
137.652670 54.806251 lineto
136.136471 54.713128 lineto
134.653331 54.644402 lineto
133.140340 54.550683 lineto
131.636045 54.220057 lineto
130.195597 53.442213 lineto
128.756350 52.796637 lineto
127.325110 52.731346 lineto
125.920204 52.717345 lineto
124.476423 52.705279 lineto
123.030259 52.612385 lineto
121.604546 52.526087 lineto
120.163661 52.426008 lineto
118.803683 52.314872 lineto
117.369298 51.992722 lineto
115.954732 51.219321 lineto
114.571811 50.646776 lineto
113.020271 50.454680 lineto
111.676113 50.349716 lineto
110.345873 50.271579 lineto
108.999851 50.172230 lineto
107.669274 50.074505 lineto
106.367908 49.566603 lineto
105.082944 48.728524 lineto
103.826549 48.275312 lineto
102.589200 48.174268 lineto
101.339710 48.072530 lineto
100.107168 47.998081 lineto
98.849310 47.897320 lineto
97.595977 47.537804 lineto
96.381786 46.765446 lineto
95.157866 46.051932 lineto
93.946263 45.928508 lineto
92.765839 45.833528 lineto
91.646411 45.753639 lineto
90.450676 45.665774 lineto
89.279444 45.567445 lineto
88.099595 44.691337 lineto
87.025891 44.025331 lineto
85.988803 43.732975 lineto
85.003086 43.632827 lineto
84.216207 43.559545 lineto
82.801289 43.520884 lineto
81.760140 43.460219 lineto
80.642045 43.362816 lineto
79.617385 42.710268 lineto
78.735384 41.976076 lineto
77.872493 41.615482 lineto
77.020401 41.591779 lineto
76.159107 41.482155 lineto
75.309352 41.392080 lineto
74.482600 41.291118 lineto
73.615094 41.164918 lineto
72.777693 40.304315 lineto
71.988239 39.516557 lineto
71.225066 39.350715 lineto
70.460471 39.259419 lineto
69.699240 39.171833 lineto
68.959281 39.075411 lineto
68.143333 38.595267 lineto
67.325798 37.764435 lineto
66.641499 37.216735 lineto
65.938020 37.104265 lineto
65.197526 37.019637 lineto
64.496361 36.949810 lineto
63.796209 36.841147 lineto
63.100074 36.004841 lineto
62.421643 35.039926 lineto
61.772925 34.928208 lineto
61.161953 34.846942 lineto
60.533379 34.758329 lineto
59.903878 34.639104 lineto
59.301490 33.998604 lineto
58.710644 33.202913 lineto
58.159967 32.841117 lineto
57.614246 32.738223 lineto
57.044614 32.648087 lineto
56.503667 32.553437 lineto
55.967117 31.998800 lineto
55.482918 31.198282 lineto
55.003635 30.683055 lineto
54.529858 30.577067 lineto
54.102636 30.511521 lineto
53.612803 30.434823 lineto
53.134298 30.333228 lineto
52.671880 29.369124 lineto
52.232016 28.526365 lineto
51.818320 28.383609 lineto
51.419872 28.290727 lineto
51.007530 28.212451 lineto
50.594489 28.107386 lineto
50.196519 27.391235 lineto
49.848059 26.523905 lineto
49.521879 26.265301 lineto
49.163348 26.204477 lineto
48.849379 26.134991 lineto
48.556567 26.042609 lineto
48.227560 25.494251 lineto
47.926881 24.569990 lineto
47.668761 24.163368 lineto
47.415980 24.080606 lineto
47.163119 24.028137 lineto
46.900002 23.959163 lineto
46.652449 23.760108 lineto
46.406390 22.803440 lineto
46.219438 22.062163 lineto
46.021803 21.961988 lineto
45.832779 21.905576 lineto
45.655007 21.835993 lineto
45.488327 21.779927 lineto
45.309707 21.193717 lineto
45.155220 20.412500 lineto
45.000000 20.000000 lineto
closepath
gsave
0.000000 1.000000 1.000000 setrgbcolor
fill
grestore
stroke
45.000000 20.000000 moveto
45.000000 20.000000 lineto
45.155220 20.412500 lineto
45.309707 21.193717 lineto
45.488327 21.779927 lineto
45.655007 21.835993 lineto
45.832779 21.905576 lineto
46.021803 21.961988 lineto
46.219438 22.062163 lineto
46.406390 22.803440 lineto
46.652449 23.760108 lineto
46.900002 23.959163 lineto
47.163119 24.028137 lineto
47.415980 24.080606 lineto
47.668761 24.163368 lineto
47.926881 24.569990 lineto
48.227560 25.494251 lineto
48.556567 26.042609 lineto
48.849379 26.134991 lineto
49.163348 26.204477 lineto
49.521879 26.265301 lineto
49.848059 26.523905 lineto
50.196519 27.391235 lineto
50.594489 28.107386 lineto
51.007530 28.212451 lineto
51.419872 28.290727 lineto
51.818320 28.383609 lineto
52.232016 28.526365 lineto
52.671880 29.369124 lineto
53.134298 30.333228 lineto
53.612803 30.434823 lineto
54.102636 30.511521 lineto
54.529858 30.577067 lineto
55.003635 30.683055 lineto
55.482918 31.198282 lineto
55.967117 31.998800 lineto
56.503667 32.553437 lineto
57.044614 32.648087 lineto
57.614246 32.738223 lineto
58.159967 32.841117 lineto
58.710644 33.202913 lineto
59.301490 33.998604 lineto
59.903878 34.639104 lineto
60.533379 34.758329 lineto
61.161953 34.846942 lineto
61.772925 34.928208 lineto
62.421643 35.039926 lineto
63.100074 36.004841 lineto
63.796209 36.841147 lineto
64.496361 36.949810 lineto
65.197526 37.019637 lineto
65.938020 37.104265 lineto
66.641499 37.216735 lineto
67.325798 37.764435 lineto
68.143333 38.595267 lineto
68.959281 39.075411 lineto
69.699240 39.171833 lineto
70.460471 39.259419 lineto
71.225066 39.350715 lineto
71.988239 39.516557 lineto
72.777693 40.304315 lineto
73.615094 41.164918 lineto
74.482600 41.291118 lineto
75.309352 41.392080 lineto
76.159107 41.482155 lineto
77.020401 41.591779 lineto
77.872493 41.615482 lineto
78.735384 41.976076 lineto
79.617385 42.710268 lineto
80.642045 43.362816 lineto
81.760140 43.460219 lineto
82.801289 43.520884 lineto
84.216207 43.559545 lineto
85.003086 43.632827 lineto
85.988803 43.732975 lineto
87.025891 44.025331 lineto
88.099595 44.691337 lineto
89.279444 45.567445 lineto
90.450676 45.665774 lineto
91.646411 45.753639 lineto
92.765839 45.833528 lineto
93.946263 45.928508 lineto
95.157866 46.051932 lineto
96.381786 46.765446 lineto
97.595977 47.537804 lineto
98.849310 47.897320 lineto
100.107168 47.998081 lineto
101.339710 48.072530 lineto
102.589200 48.174268 lineto
103.826549 48.275312 lineto
105.082944 48.728524 lineto
106.367908 49.566603 lineto
107.669274 50.074505 lineto
108.999851 50.172230 lineto
110.345873 50.271579 lineto
111.676113 50.349716 lineto
113.020271 50.454680 lineto
114.571811 50.646776 lineto
115.954732 51.219321 lineto
117.369298 51.992722 lineto
118.803683 52.314872 lineto
120.163661 52.426008 lineto
121.604546 52.526087 lineto
123.030259 52.612385 lineto
124.476423 52.705279 lineto
125.920204 52.717345 lineto
127.325110 52.731346 lineto
128.756350 52.796637 lineto
130.195597 53.442213 lineto
131.636045 54.220057 lineto
133.140340 54.550683 lineto
134.653331 54.644402 lineto
136.136471 54.713128 lineto
137.652670 54.806251 lineto
139.142896 54.909175 lineto
140.648710 54.933711 lineto
142.134333 55.556709 lineto
143.657914 56.343738 lineto
145.227104 56.720008 lineto
146.754527 56.842955 lineto
148.342073 56.921984 lineto
149.915574 56.995351 lineto
151.502297 57.120531 lineto
153.055936 57.581219 lineto
154.595616 58.356655 lineto
156.232135 59.019807 lineto
158.080356 59.132320 lineto
159.795241 59.227711 lineto
161.549288 59.309880 lineto
163.269064 59.384794 lineto
164.983810 59.624884 lineto
166.695250 60.397974 lineto
168.500925 61.175407 lineto
170.274088 61.427827 lineto
172.032858 61.514051 lineto
173.757699 61.608213 lineto
175.528746 61.701727 lineto
177.293865 61.822270 lineto
179.078628 62.386735 lineto
180.992770 63.102925 lineto
182.857775 63.613119 lineto
184.837815 63.723124 lineto
186.745866 63.800935 lineto
188.613867 63.889373 lineto
190.577208 63.996617 lineto
192.500210 64.141378 lineto
194.334657 64.871631 lineto
196.263360 65.565914 lineto
198.186387 65.821091 lineto
200.143705 65.934143 lineto
202.118559 66.026253 lineto
204.142423 66.104797 lineto
206.136054 66.225150 lineto
208.133672 66.717884 lineto
210.170099 67.474259 lineto
212.212009 67.972744 lineto
214.274503 68.102181 lineto
216.306150 68.206951 lineto
218.341984 68.315025 lineto
220.384673 68.431031 lineto
222.417415 68.783750 lineto
224.581627 69.078767 lineto
226.573470 69.320442 lineto
228.781035 69.501216 lineto
230.898032 69.714164 lineto
233.008564 69.880875 lineto
235.127264 70.020987 lineto
237.271938 70.173615 lineto
239.369779 70.508313 lineto
241.513930 70.789595 lineto
243.662662 71.029289 lineto
245.802341 71.207303 lineto
247.955919 71.398945 lineto
250.225587 71.560421 lineto
252.428692 71.700572 lineto
254.661317 72.001176 lineto
256.961031 72.296211 lineto
259.166072 72.541415 lineto
261.451821 72.736020 lineto
263.719424 72.876574 lineto
265.972531 73.060643 lineto
268.296805 73.215172 lineto
270.690021 73.335877 lineto
273.057797 73.624112 lineto
275.471137 73.932959 lineto
277.847035 74.197275 lineto
280.164496 74.400746 lineto
282.452913 74.605638 lineto
284.834748 74.723149 lineto
287.019630 74.869771 lineto
289.504072 75.006420 lineto
292.019140 75.286334 lineto
294.567654 75.585949 lineto
297.034068 75.846728 lineto
299.490732 76.053287 lineto
301.902040 76.258787 lineto
304.345860 76.443694 lineto
306.744353 76.554594 lineto
309.215759 76.656297 lineto
311.754786 76.977621 lineto
314.406863 77.255410 lineto
316.931472 77.498171 lineto
319.463801 77.689151 lineto
321.951853 77.879335 lineto
324.538944 78.037225 lineto
327.291833 78.177472 lineto
329.963531 78.302443 lineto
332.570181 78.615303 lineto
335.152601 78.911304 lineto
337.790276 79.162995 lineto
340.426742 79.345177 lineto
343.103237 79.541611 lineto
345.840138 79.727716 lineto
348.516581 79.855374 lineto
351.160817 80.036730 lineto
353.889344 80.182701 lineto
356.548681 80.275331 lineto
359.251107 80.308339 lineto
362.385798 20.000000 lineto
362.385798 20.000000 lineto
362.385798 20.000000 lineto
359.251107 128.997982 lineto
356.548681 128.924397 lineto
353.889344 128.712725 lineto
351.160817 128.403413 lineto
348.516581 128.034723 lineto
345.840138 127.762703 lineto
343.103237 127.370536 lineto
340.426742 126.955721 lineto
337.790276 126.584030 lineto
335.152601 126.060246 lineto
332.570181 125.475006 lineto
329.963531 124.882949 lineto
327.291833 124.613527 lineto
324.538944 124.318705 lineto
321.951853 123.977544 lineto
319.463801 123.579394 lineto
316.931472 123.190367 lineto
314.406863 122.679627 lineto
311.754786 122.132516 lineto
309.215759 121.527397 lineto
306.744353 121.306019 lineto
304.345860 121.067081 lineto
301.902040 120.679652 lineto
299.490732 120.248626 lineto
297.034068 119.824463 lineto
294.567654 119.280311 lineto
292.019140 118.676874 lineto
289.504072 118.165761 lineto
287.019630 117.871195 lineto
284.834748 117.563476 lineto
282.452913 117.309440 lineto
280.164496 116.876688 lineto
277.847035 116.460155 lineto
275.471137 115.910246 lineto
273.057797 115.287636 lineto
270.690021 114.756217 lineto
268.296805 114.499269 lineto
265.972531 114.167235 lineto
263.719424 113.776107 lineto
261.451821 113.480133 lineto
259.166072 113.085825 lineto
256.961031 112.573573 lineto
254.661317 111.982365 lineto
252.428692 111.424825 lineto
250.225587 111.125633 lineto
247.955919 110.780936 lineto
245.802341 110.378051 lineto
243.662662 109.992782 lineto
241.513930 109.506899 lineto
239.369779 108.914629 lineto
237.271938 108.294551 lineto
235.127264 107.996095 lineto
233.008564 107.695573 lineto
230.898032 107.341842 lineto
228.781035 106.900770 lineto
226.573470 106.521816 lineto
224.581627 106.019943 lineto
222.417415 105.418069 lineto
220.384673 104.763847 lineto
218.341984 104.613603 lineto
216.306150 104.439394 lineto
214.274503 104.250307 lineto
212.212009 104.073558 lineto
210.170099 103.193565 lineto
208.133672 101.786616 lineto
206.136054 100.903072 lineto
204.142423 100.762708 lineto
202.118559 100.584974 lineto
200.143705 100.402777 lineto
198.186387 100.221247 lineto
196.263360 99.790853 lineto
194.334657 98.536908 lineto
192.500210 97.284065 lineto
190.577208 97.067604 lineto
188.613867 96.921106 lineto
186.745866 96.745570 lineto
184.837815 96.549074 lineto
182.857775 96.336862 lineto
180.992770 95.467586 lineto
179.078628 94.143070 lineto
177.293865 93.143969 lineto
175.528746 92.996482 lineto
173.757699 92.840938 lineto
172.032858 92.663766 lineto
170.274088 92.475075 lineto
168.500925 92.038446 lineto
166.695250 90.743557 lineto
164.983810 89.348764 lineto
163.269064 88.970718 lineto
161.549288 88.800676 lineto
159.795241 88.639448 lineto
158.080356 88.435364 lineto
156.232135 88.248684 lineto
154.595616 87.117094 lineto
153.055936 85.759562 lineto
151.502297 84.954352 lineto
149.915574 84.795512 lineto
148.342073 84.622850 lineto
146.754527 84.426159 lineto
145.227104 84.250007 lineto
143.657914 83.589984 lineto
142.134333 82.131843 lineto
140.648710 81.166998 lineto
139.142896 81.142098 lineto
137.652670 81.010745 lineto
136.136471 80.860645 lineto
134.653331 80.661104 lineto
133.140340 80.482040 lineto
131.636045 79.940959 lineto
130.195597 78.561140 lineto
128.756350 77.465900 lineto
127.325110 77.345031 lineto
125.920204 77.330999 lineto
124.476423 77.318898 lineto
123.030259 77.194780 lineto
121.604546 77.040938 lineto
120.163661 76.867163 lineto
118.803683 76.667502 lineto
117.369298 76.092308 lineto
115.954732 74.686100 lineto
114.571811 73.748905 lineto
113.020271 73.422874 lineto
111.676113 73.265631 lineto
110.345873 73.090061 lineto
108.999851 72.897795 lineto
107.669274 72.711236 lineto
106.367908 71.909220 lineto
105.082944 70.393624 lineto
103.826549 69.610542 lineto
102.589200 69.491596 lineto
101.339710 69.332749 lineto
100.107168 69.141952 lineto
98.849310 68.947960 lineto
97.595977 68.315855 lineto
96.381786 66.887224 lineto
95.157866 65.689741 lineto
93.946263 65.526796 lineto
92.765839 65.366909 lineto
91.646411 65.186205 lineto
90.450676 64.998948 lineto
89.279444 64.819306 lineto
88.099595 63.263378 lineto
87.025891 62.107318 lineto
85.988803 61.705209 lineto
85.003086 61.556423 lineto
84.216207 61.393830 lineto
82.801289 61.306039 lineto
81.760140 61.163434 lineto
80.642045 60.942289 lineto
79.617385 59.866687 lineto
78.735384 58.532780 lineto
77.872493 57.905808 lineto
77.020401 57.883758 lineto
76.159107 57.736577 lineto
75.309352 57.533726 lineto
74.482600 57.362502 lineto
73.615094 57.155377 lineto
72.777693 55.639467 lineto
71.988239 54.247830 lineto
71.225066 54.012068 lineto
70.460471 53.843752 lineto
69.699240 53.635208 lineto
68.959281 53.451724 lineto
68.143333 52.638964 lineto
67.325798 51.159482 lineto
66.641499 50.213791 lineto
65.938020 50.053025 lineto
65.197526 49.864186 lineto
64.496361 49.665045 lineto
63.796209 49.455284 lineto
63.100074 47.973619 lineto
62.421643 46.347413 lineto
61.772925 46.193378 lineto
61.161953 46.003682 lineto
60.533379 45.818453 lineto
59.903878 45.628245 lineto
59.301490 44.488590 lineto
58.710644 43.061941 lineto
58.159967 42.529719 lineto
57.614246 42.369406 lineto
57.044614 42.208097 lineto
56.503667 42.006722 lineto
55.967117 41.074346 lineto
55.482918 39.630237 lineto
55.003635 38.751435 lineto
54.529858 38.621179 lineto
54.102636 38.433154 lineto
53.612803 38.230815 lineto
53.134298 38.032484 lineto
52.671880 36.372181 lineto
52.232016 34.897856 lineto
51.818320 34.705485 lineto
51.419872 34.544144 lineto
51.007530 34.356624 lineto
50.594489 34.177560 lineto
50.196519 32.888436 lineto
49.848059 31.549682 lineto
49.521879 31.120060 lineto
49.163348 30.971910 lineto
48.849379 30.788914 lineto
48.556567 30.608016 lineto
48.227560 29.622354 lineto
47.926881 28.006230 lineto
47.668761 27.367932 lineto
47.415980 27.208014 lineto
47.163119 27.053645 lineto
46.900002 26.873678 lineto
46.652449 26.507795 lineto
46.406390 24.765893 lineto
46.219438 23.550180 lineto
46.021803 23.407551 lineto
45.832779 23.273705 lineto
45.655007 23.127273 lineto
45.488327 22.990018 lineto
45.309707 21.965218 lineto
45.155220 20.598090 lineto
45.000000 20.000000 lineto
closepath
gsave
1.000000 0.000000 0.000000 setrgbcolor
fill
grestore
stroke
45.000000 20.000000 moveto
45.000000 20.000000 lineto
45.155220 20.598090 lineto
45.309707 21.965218 lineto
45.488327 22.990018 lineto
45.655007 23.127273 lineto
45.832779 23.273705 lineto
46.021803 23.407551 lineto
46.219438 23.550180 lineto
46.406390 24.765893 lineto
46.652449 26.507795 lineto
46.900002 26.873678 lineto
47.163119 27.053645 lineto
47.415980 27.208014 lineto
47.668761 27.367932 lineto
47.926881 28.006230 lineto
48.227560 29.622354 lineto
48.556567 30.608016 lineto
48.849379 30.788914 lineto
49.163348 30.971910 lineto
49.521879 31.120060 lineto
49.848059 31.549682 lineto
50.196519 32.888436 lineto
50.594489 34.177560 lineto
51.007530 34.356624 lineto
51.419872 34.544144 lineto
51.818320 34.705485 lineto
52.232016 34.897856 lineto
52.671880 36.372181 lineto
53.134298 38.032484 lineto
53.612803 38.230815 lineto
54.102636 38.433154 lineto
54.529858 38.621179 lineto
55.003635 38.751435 lineto
55.482918 39.630237 lineto
55.967117 41.074346 lineto
56.503667 42.006722 lineto
57.044614 42.208097 lineto
57.614246 42.369406 lineto
58.159967 42.529719 lineto
58.710644 43.061941 lineto
59.301490 44.488590 lineto
59.903878 45.628245 lineto
60.533379 45.818453 lineto
61.161953 46.003682 lineto
61.772925 46.193378 lineto
62.421643 46.347413 lineto
63.100074 47.973619 lineto
63.796209 49.455284 lineto
64.496361 49.665045 lineto
65.197526 49.864186 lineto
65.938020 50.053025 lineto
66.641499 50.213791 lineto
67.325798 51.159482 lineto
68.143333 52.638964 lineto
68.959281 53.451724 lineto
69.699240 53.635208 lineto
70.460471 53.843752 lineto
71.225066 54.012068 lineto
71.988239 54.247830 lineto
72.777693 55.639467 lineto
73.615094 57.155377 lineto
74.482600 57.362502 lineto
75.309352 57.533726 lineto
76.159107 57.736577 lineto
77.020401 57.883758 lineto
77.872493 57.905808 lineto
78.735384 58.532780 lineto
79.617385 59.866687 lineto
80.642045 60.942289 lineto
81.760140 61.163434 lineto
82.801289 61.306039 lineto
84.216207 61.393830 lineto
85.003086 61.556423 lineto
85.988803 61.705209 lineto
87.025891 62.107318 lineto
88.099595 63.263378 lineto
89.279444 64.819306 lineto
90.450676 64.998948 lineto
91.646411 65.186205 lineto
92.765839 65.366909 lineto
93.946263 65.526796 lineto
95.157866 65.689741 lineto
96.381786 66.887224 lineto
97.595977 68.315855 lineto
98.849310 68.947960 lineto
100.107168 69.141952 lineto
101.339710 69.332749 lineto
102.589200 69.491596 lineto
103.826549 69.610542 lineto
105.082944 70.393624 lineto
106.367908 71.909220 lineto
107.669274 72.711236 lineto
108.999851 72.897795 lineto
110.345873 73.090061 lineto
111.676113 73.265631 lineto
113.020271 73.422874 lineto
114.571811 73.748905 lineto
115.954732 74.686100 lineto
117.369298 76.092308 lineto
118.803683 76.667502 lineto
120.163661 76.867163 lineto
121.604546 77.040938 lineto
123.030259 77.194780 lineto
124.476423 77.318898 lineto
125.920204 77.330999 lineto
127.325110 77.345031 lineto
128.756350 77.465900 lineto
130.195597 78.561140 lineto
131.636045 79.940959 lineto
133.140340 80.482040 lineto
134.653331 80.661104 lineto
136.136471 80.860645 lineto
137.652670 81.010745 lineto
139.142896 81.142098 lineto
140.648710 81.166998 lineto
142.134333 82.131843 lineto
143.657914 83.589984 lineto
145.227104 84.250007 lineto
146.754527 84.426159 lineto
148.342073 84.622850 lineto
149.915574 84.795512 lineto
151.502297 84.954352 lineto
153.055936 85.759562 lineto
154.595616 87.117094 lineto
156.232135 88.248684 lineto
158.080356 88.435364 lineto
159.795241 88.639448 lineto
161.549288 88.800676 lineto
163.269064 88.970718 lineto
164.983810 89.348764 lineto
166.695250 90.743557 lineto
168.500925 92.038446 lineto
170.274088 92.475075 lineto
172.032858 92.663766 lineto
173.757699 92.840938 lineto
175.528746 92.996482 lineto
177.293865 93.143969 lineto
179.078628 94.143070 lineto
180.992770 95.467586 lineto
182.857775 96.336862 lineto
184.837815 96.549074 lineto
186.745866 96.745570 lineto
188.613867 96.921106 lineto
190.577208 97.067604 lineto
192.500210 97.284065 lineto
194.334657 98.536908 lineto
196.263360 99.790853 lineto
198.186387 100.221247 lineto
200.143705 100.402777 lineto
202.118559 100.584974 lineto
204.142423 100.762708 lineto
206.136054 100.903072 lineto
208.133672 101.786616 lineto
210.170099 103.193565 lineto
212.212009 104.073558 lineto
214.274503 104.250307 lineto
216.306150 104.439394 lineto
218.341984 104.613603 lineto
220.384673 104.763847 lineto
222.417415 105.418069 lineto
224.581627 106.019943 lineto
226.573470 106.521816 lineto
228.781035 106.900770 lineto
230.898032 107.341842 lineto
233.008564 107.695573 lineto
235.127264 107.996095 lineto
237.271938 108.294551 lineto
239.369779 108.914629 lineto
241.513930 109.506899 lineto
243.662662 109.992782 lineto
245.802341 110.378051 lineto
247.955919 110.780936 lineto
250.225587 111.125633 lineto
252.428692 111.424825 lineto
254.661317 111.982365 lineto
256.961031 112.573573 lineto
259.166072 113.085825 lineto
261.451821 113.480133 lineto
263.719424 113.776107 lineto
265.972531 114.167235 lineto
268.296805 114.499269 lineto
270.690021 114.756217 lineto
273.057797 115.287636 lineto
275.471137 115.910246 lineto
277.847035 116.460155 lineto
280.164496 116.876688 lineto
282.452913 117.309440 lineto
284.834748 117.563476 lineto
287.019630 117.871195 lineto
289.504072 118.165761 lineto
292.019140 118.676874 lineto
294.567654 119.280311 lineto
297.034068 119.824463 lineto
299.490732 120.248626 lineto
301.902040 120.679652 lineto
304.345860 121.067081 lineto
306.744353 121.306019 lineto
309.215759 121.527397 lineto
311.754786 122.132516 lineto
314.406863 122.679627 lineto
316.931472 123.190367 lineto
319.463801 123.579394 lineto
321.951853 123.977544 lineto
324.538944 124.318705 lineto
327.291833 124.613527 lineto
329.963531 124.882949 lineto
332.570181 125.475006 lineto
335.152601 126.060246 lineto
337.790276 126.584030 lineto
340.426742 126.955721 lineto
343.103237 127.370536 lineto
345.840138 127.762703 lineto
348.516581 128.034723 lineto
351.160817 128.403413 lineto
353.889344 128.712725 lineto
356.548681 128.924397 lineto
359.251107 128.997982 lineto
362.385798 20.000000 lineto
362.385798 20.000000 lineto
362.385798 20.000000 lineto
359.251107 198.289248 lineto
356.548681 197.948522 lineto
353.889344 197.495647 lineto
351.160817 196.864731 lineto
348.516581 196.206833 lineto
345.840138 195.630348 lineto
343.103237 194.967545 lineto
340.426742 194.271328 lineto
337.790276 193.601383 lineto
335.152601 192.784087 lineto
332.570181 191.886103 lineto
329.963531 191.012643 lineto
327.291833 190.461819 lineto
324.538944 189.887633 lineto
321.951853 189.283130 lineto
319.463801 188.603577 lineto
316.931472 187.921841 lineto
314.406863 187.141004 lineto
311.754786 186.295519 lineto
309.215759 185.405868 lineto
306.744353 184.943288 lineto
304.345860 184.443047 lineto
301.902040 183.784700 lineto
299.490732 183.053461 lineto
297.034068 182.295919 lineto
294.567654 181.470365 lineto
292.019140 180.539896 lineto
289.504072 179.789896 lineto
287.019630 179.196940 lineto
284.834748 178.607818 lineto
282.452913 178.149011 lineto
280.164496 177.399681 lineto
277.847035 176.669083 lineto
275.471137 175.828976 lineto
273.057797 174.885406 lineto
270.690021 174.074372 lineto
268.296805 173.544059 lineto
265.972531 172.919746 lineto
263.719424 172.247622 lineto
261.451821 171.690346 lineto
259.166072 171.031924 lineto
256.961031 170.258307 lineto
254.661317 169.347113 lineto
252.428692 168.510290 lineto
250.225587 167.888630 lineto
247.955919 167.246377 lineto
245.802341 166.558143 lineto
243.662662 165.878691 lineto
241.513930 165.083984 lineto
239.369779 164.193026 lineto
237.271938 163.249965 lineto
235.127264 162.769173 lineto
233.008564 162.126947 lineto
230.898032 161.485408 lineto
228.781035 160.749237 lineto
226.573470 160.088881 lineto
224.581627 159.272539 lineto
222.417415 158.355863 lineto
220.384673 157.386202 lineto
218.341984 157.235958 lineto
216.306150 157.061749 lineto
214.274503 156.872662 lineto
212.212009 156.695913 lineto
210.170099 155.219350 lineto
208.133672 152.699046 lineto
206.136054 151.133502 lineto
204.142423 150.993138 lineto
202.118559 150.815404 lineto
200.143705 150.633207 lineto
198.186387 150.451677 lineto
196.263360 149.779863 lineto
194.334657 147.510416 lineto
192.500210 145.214084 lineto
190.577208 144.906110 lineto
188.613867 144.759611 lineto
186.745866 144.584076 lineto
184.837815 144.387579 lineto
182.857775 144.175368 lineto
180.992770 142.605853 lineto
179.078628 140.319920 lineto
177.293865 138.590550 lineto
175.528746 138.443063 lineto
173.757699 138.287519 lineto
172.032858 138.110347 lineto
170.274088 137.921656 lineto
168.500925 137.312186 lineto
166.695250 134.946127 lineto
164.983810 132.549747 lineto
163.269064 132.025374 lineto
161.549288 131.855333 lineto
159.795241 131.694104 lineto
158.080356 131.490020 lineto
156.232135 131.303341 lineto
154.595616 129.323714 lineto
153.055936 126.966271 lineto
151.502297 125.617083 lineto
149.915574 125.458244 lineto
148.342073 125.285581 lineto
146.754527 125.088902 lineto
145.227104 124.912739 lineto
143.657914 123.786925 lineto
142.134333 121.217367 lineto
140.648710 119.437805 lineto
139.142896 119.412905 lineto
137.652670 119.281552 lineto
136.136471 119.131451 lineto
134.653331 118.931911 lineto
133.140340 118.752847 lineto
131.636045 117.875305 lineto
130.195597 115.379948 lineto
128.756350 113.384983 lineto
127.325110 113.223914 lineto
125.920204 113.209881 lineto
124.476423 113.197780 lineto
123.030259 113.073662 lineto
121.604546 112.919820 lineto
120.163661 112.746045 lineto
118.803683 112.546385 lineto
117.369298 111.576503 lineto
115.954732 109.123793 lineto
114.571811 107.356464 lineto
113.020271 106.909831 lineto
111.676113 106.752589 lineto
110.345873 106.577018 lineto
108.999851 106.384752 lineto
107.669274 106.198193 lineto
106.367908 104.720269 lineto
105.082944 102.112058 lineto
103.826549 100.705575 lineto
102.589200 100.586629 lineto
101.339710 100.427782 lineto
100.107168 100.236985 lineto
98.849310 100.042993 lineto
97.595977 99.062398 lineto
96.381786 96.583001 lineto
95.157866 94.429925 lineto
93.946263 94.229904 lineto
92.765839 94.070017 lineto
91.646411 93.889313 lineto
90.450676 93.702056 lineto
89.279444 93.522414 lineto
88.099595 90.836396 lineto
87.025891 88.746002 lineto
85.988803 88.016392 lineto
85.003086 87.867606 lineto
84.216207 87.705013 lineto
82.801289 87.617222 lineto
81.760140 87.474629 lineto
80.642045 87.253472 lineto
79.617385 85.327726 lineto
78.735384 82.888412 lineto
77.872493 81.825067 lineto
77.020401 81.803016 lineto
76.159107 81.655836 lineto
75.309352 81.452984 lineto
74.482600 81.281772 lineto
73.615094 81.074647 lineto
72.777693 78.329472 lineto
71.988239 75.835465 lineto
71.225066 75.539402 lineto
70.460471 75.371086 lineto
69.699240 75.162542 lineto
68.959281 74.979073 lineto
68.143333 73.689019 lineto
67.325798 71.046757 lineto
66.641499 69.349201 lineto
65.938020 69.188434 lineto
65.197526 68.999607 lineto
64.496361 68.800454 lineto
63.796209 68.590693 lineto
63.100074 65.971676 lineto
62.421643 63.090898 lineto
61.772925 62.936862 lineto
61.161953 62.747166 lineto
60.533379 62.561937 lineto
59.903878 62.371730 lineto
59.301490 60.315518 lineto
58.710644 57.678882 lineto
58.159967 56.881279 lineto
57.614246 56.720966 lineto
57.044614 56.559656 lineto
56.503667 56.358282 lineto
55.967117 54.749730 lineto
55.482918 52.166575 lineto
55.003635 50.711070 lineto
54.529858 50.580814 lineto
54.102636 50.392789 lineto
53.612803 50.190450 lineto
53.134298 49.992119 lineto
52.671880 47.143752 lineto
52.232016 44.505185 lineto
51.818320 44.273195 lineto
51.419872 44.111855 lineto
51.007530 43.924334 lineto
50.594489 43.745282 lineto
50.196519 41.488475 lineto
49.848059 38.934365 lineto
49.521879 38.295846 lineto
49.163348 38.147696 lineto
48.849379 37.964700 lineto
48.556567 37.783802 lineto
48.227560 36.111491 lineto
47.926881 33.283984 lineto
47.668761 32.151793 lineto
47.415980 31.991875 lineto
47.163119 31.837506 lineto
46.900002 31.657539 lineto
46.652449 31.108009 lineto
46.406390 28.113648 lineto
46.219438 25.942116 lineto
46.021803 25.799488 lineto
45.832779 25.665641 lineto
45.655007 25.519209 lineto
45.488327 25.381955 lineto
45.309707 23.417776 lineto
45.155220 20.881218 lineto
45.000000 20.000000 lineto
closepath
gsave
1.000000 0.000000 1.000000 setrgbcolor
fill
grestore
stroke
45.000000 20.000000 moveto
45.000000 20.000000 lineto
45.155220 20.881218 lineto
45.309707 23.417776 lineto
45.488327 25.381955 lineto
45.655007 25.519209 lineto
45.832779 25.665641 lineto
46.021803 25.799488 lineto
46.219438 25.942116 lineto
46.406390 28.113648 lineto
46.652449 31.108009 lineto
46.900002 31.657539 lineto
47.163119 31.837506 lineto
47.415980 31.991875 lineto
47.668761 32.151793 lineto
47.926881 33.283984 lineto
48.227560 36.111491 lineto
48.556567 37.783802 lineto
48.849379 37.964700 lineto
49.163348 38.147696 lineto
49.521879 38.295846 lineto
49.848059 38.934365 lineto
50.196519 41.488475 lineto
50.594489 43.745282 lineto
51.007530 43.924334 lineto
51.419872 44.111855 lineto
51.818320 44.273195 lineto
52.232016 44.505185 lineto
52.671880 47.143752 lineto
53.134298 49.992119 lineto
53.612803 50.190450 lineto
54.102636 50.392789 lineto
54.529858 50.580814 lineto
55.003635 50.711070 lineto
55.482918 52.166575 lineto
55.967117 54.749730 lineto
56.503667 56.358282 lineto
57.044614 56.559656 lineto
57.614246 56.720966 lineto
58.159967 56.881279 lineto
58.710644 57.678882 lineto
59.301490 60.315518 lineto
59.903878 62.371730 lineto
60.533379 62.561937 lineto
61.161953 62.747166 lineto
61.772925 62.936862 lineto
62.421643 63.090898 lineto
63.100074 65.971676 lineto
63.796209 68.590693 lineto
64.496361 68.800454 lineto
65.197526 68.999607 lineto
65.938020 69.188434 lineto
66.641499 69.349201 lineto
67.325798 71.046757 lineto
68.143333 73.689019 lineto
68.959281 74.979073 lineto
69.699240 75.162542 lineto
70.460471 75.371086 lineto
71.225066 75.539402 lineto
71.988239 75.835465 lineto
72.777693 78.329472 lineto
73.615094 81.074647 lineto
74.482600 81.281772 lineto
75.309352 81.452984 lineto
76.159107 81.655836 lineto
77.020401 81.803016 lineto
77.872493 81.825067 lineto
78.735384 82.888412 lineto
79.617385 85.327726 lineto
80.642045 87.253472 lineto
81.760140 87.474629 lineto
82.801289 87.617222 lineto
84.216207 87.705013 lineto
85.003086 87.867606 lineto
85.988803 88.016392 lineto
87.025891 88.746002 lineto
88.099595 90.836396 lineto
89.279444 93.522414 lineto
90.450676 93.702056 lineto
91.646411 93.889313 lineto
92.765839 94.070017 lineto
93.946263 94.229904 lineto
95.157866 94.429925 lineto
96.381786 96.583001 lineto
97.595977 99.062398 lineto
98.849310 100.042993 lineto
100.107168 100.236985 lineto
101.339710 100.427782 lineto
102.589200 100.586629 lineto
103.826549 100.705575 lineto
105.082944 102.112058 lineto
106.367908 104.720269 lineto
107.669274 106.198193 lineto
108.999851 106.384752 lineto
110.345873 106.577018 lineto
111.676113 106.752589 lineto
113.020271 106.909831 lineto
114.571811 107.356464 lineto
115.954732 109.123793 lineto
117.369298 111.576503 lineto
118.803683 112.546385 lineto
120.163661 112.746045 lineto
121.604546 112.919820 lineto
123.030259 113.073662 lineto
124.476423 113.197780 lineto
125.920204 113.209881 lineto
127.325110 113.223914 lineto
128.756350 113.384983 lineto
130.195597 115.379948 lineto
131.636045 117.875305 lineto
133.140340 118.752847 lineto
134.653331 118.931911 lineto
136.136471 119.131451 lineto
137.652670 119.281552 lineto
139.142896 119.412905 lineto
140.648710 119.437805 lineto
142.134333 121.217367 lineto
143.657914 123.786925 lineto
145.227104 124.912739 lineto
146.754527 125.088902 lineto
148.342073 125.285581 lineto
149.915574 125.458244 lineto
151.502297 125.617083 lineto
153.055936 126.966271 lineto
154.595616 129.323714 lineto
156.232135 131.303341 lineto
158.080356 131.490020 lineto
159.795241 131.694104 lineto
161.549288 131.855333 lineto
163.269064 132.025374 lineto
164.983810 132.549747 lineto
166.695250 134.946127 lineto
168.500925 137.312186 lineto
170.274088 137.921656 lineto
172.032858 138.110347 lineto
173.757699 138.287519 lineto
175.528746 138.443063 lineto
177.293865 138.590550 lineto
179.078628 140.319920 lineto
180.992770 142.605853 lineto
182.857775 144.175368 lineto
184.837815 144.387579 lineto
186.745866 144.584076 lineto
188.613867 144.759611 lineto
190.577208 144.906110 lineto
192.500210 145.214084 lineto
194.334657 147.510416 lineto
196.263360 149.779863 lineto
198.186387 150.451677 lineto
200.143705 150.633207 lineto
202.118559 150.815404 lineto
204.142423 150.993138 lineto
206.136054 151.133502 lineto
208.133672 152.699046 lineto
210.170099 155.219350 lineto
212.212009 156.695913 lineto
214.274503 156.872662 lineto
216.306150 157.061749 lineto
218.341984 157.235958 lineto
220.384673 157.386202 lineto
222.417415 158.355863 lineto
224.581627 159.272539 lineto
226.573470 160.088881 lineto
228.781035 160.749237 lineto
230.898032 161.485408 lineto
233.008564 162.126947 lineto
235.127264 162.769173 lineto
237.271938 163.249965 lineto
239.369779 164.193026 lineto
241.513930 165.083984 lineto
243.662662 165.878691 lineto
245.802341 166.558143 lineto
247.955919 167.246377 lineto
250.225587 167.888630 lineto
252.428692 168.510290 lineto
254.661317 169.347113 lineto
256.961031 170.258307 lineto
259.166072 171.031924 lineto
261.451821 171.690346 lineto
263.719424 172.247622 lineto
265.972531 172.919746 lineto
268.296805 173.544059 lineto
270.690021 174.074372 lineto
273.057797 174.885406 lineto
275.471137 175.828976 lineto
277.847035 176.669083 lineto
280.164496 177.399681 lineto
282.452913 178.149011 lineto
284.834748 178.607818 lineto
287.019630 179.196940 lineto
289.504072 179.789896 lineto
292.019140 180.539896 lineto
294.567654 181.470365 lineto
297.034068 182.295919 lineto
299.490732 183.053461 lineto
301.902040 183.784700 lineto
304.345860 184.443047 lineto
306.744353 184.943288 lineto
309.215759 185.405868 lineto
311.754786 186.295519 lineto
314.406863 187.141004 lineto
316.931472 187.921841 lineto
319.463801 188.603577 lineto
321.951853 189.283130 lineto
324.538944 189.887633 lineto
327.291833 190.461819 lineto
329.963531 191.012643 lineto
332.570181 191.886103 lineto
335.152601 192.784087 lineto
337.790276 193.601383 lineto
340.426742 194.271328 lineto
343.103237 194.967545 lineto
345.840138 195.630348 lineto
348.516581 196.206833 lineto
351.160817 196.864731 lineto
353.889344 197.495647 lineto
356.548681 197.948522 lineto
359.251107 198.289248 lineto
362.385798 20.000000 lineto
362.385798 20.000000 lineto
362.385798 20.000000 lineto
359.251107 382.000000 lineto
356.548681 380.950966 lineto
353.889344 379.858607 lineto
351.160817 378.375045 lineto
348.516581 376.950404 lineto
345.840138 375.566720 lineto
343.103237 374.186405 lineto
340.426742 372.744091 lineto
337.790276 371.283394 lineto
335.152601 369.687894 lineto
332.570181 367.960831 lineto
329.963531 366.341275 lineto
327.291833 365.044416 lineto
324.538944 363.729512 lineto
321.951853 362.426857 lineto
319.463801 361.001239 lineto
316.931472 359.543462 lineto
314.406863 358.046535 lineto
311.754786 356.409873 lineto
309.215759 354.765979 lineto
306.744353 353.663915 lineto
304.345860 352.470899 lineto
301.902040 351.094267 lineto
299.490732 349.567156 lineto
297.034068 347.925705 lineto
294.567654 346.354085 lineto
292.019140 344.556570 lineto
289.504072 343.173277 lineto
287.019630 341.789174 lineto
284.834748 340.453988 lineto
282.452913 339.452285 lineto
280.164496 337.863632 lineto
277.847035 336.300371 lineto
275.471137 334.690885 lineto
273.057797 332.896345 lineto
270.690021 331.344014 lineto
268.296805 330.088973 lineto
265.972531 328.689787 lineto
263.719424 327.272625 lineto
261.451821 326.022574 lineto
259.166072 324.663937 lineto
256.961031 323.197285 lineto
254.661317 321.437815 lineto
252.428692 319.860581 lineto
250.225587 318.383952 lineto
247.955919 316.952828 lineto
245.802341 315.508044 lineto
243.662662 314.048639 lineto
241.513930 312.435175 lineto
239.369779 310.752426 lineto
237.271938 308.952976 lineto
235.127264 307.988748 lineto
233.008564 306.440586 lineto
230.898032 305.035976 lineto
228.781035 303.517456 lineto
226.573470 302.111035 lineto
224.581627 300.460953 lineto
222.417415 298.709730 lineto
220.384673 296.903709 lineto
218.341984 296.753465 lineto
216.306150 296.579255 lineto
214.274503 296.390168 lineto
212.212009 296.213419 lineto
210.170099 293.155109 lineto
208.133672 287.685026 lineto
206.136054 284.309455 lineto
204.142423 284.169091 lineto
202.118559 283.991357 lineto
200.143705 283.809160 lineto
198.186387 283.627630 lineto
196.263360 282.315254 lineto
194.334657 277.355431 lineto
192.500210 272.298224 lineto
190.577208 271.740509 lineto
188.613867 271.594011 lineto
186.745866 271.418475 lineto
184.837815 271.221979 lineto
182.857775 271.009767 lineto
180.992770 267.584613 lineto
179.078628 262.751048 lineto
177.293865 259.083396 lineto
175.528746 258.935909 lineto
173.757699 258.780365 lineto
172.032858 258.603193 lineto
170.274088 258.414502 lineto
168.500925 257.346702 lineto
166.695250 252.142663 lineto
164.983810 247.094937 lineto
163.269064 246.176667 lineto
161.549288 246.006625 lineto
159.795241 245.845397 lineto
158.080356 245.641312 lineto
156.232135 245.454633 lineto
154.595616 241.227634 lineto
153.055936 236.220973 lineto
151.502297 233.426823 lineto
149.915574 233.267983 lineto
148.342073 233.095320 lineto
146.754527 232.898642 lineto
145.227104 232.722478 lineto
143.657914 230.361847 lineto
142.134333 224.847481 lineto
140.648710 220.905991 lineto
139.142896 220.881090 lineto
137.652670 220.749737 lineto
136.136471 220.599637 lineto
134.653331 220.400097 lineto
133.140340 220.221033 lineto
131.636045 218.451342 lineto
130.195597 213.000153 lineto
128.756350 208.618196 lineto
127.325110 208.350546 lineto
125.920204 208.336514 lineto
124.476423 208.324412 lineto
123.030259 208.200294 lineto
121.604546 208.046453 lineto
120.163661 207.872677 lineto
118.803683 207.673017 lineto
117.369298 205.656870 lineto
115.954732 200.431223 lineto
114.571811 196.461285 lineto
113.020271 195.694910 lineto
111.676113 195.537668 lineto
110.345873 195.362097 lineto
108.999851 195.169831 lineto
107.669274 194.983272 lineto
106.367908 191.713766 lineto
105.082944 186.210237 lineto
103.826549 183.149100 lineto
102.589200 183.030155 lineto
101.339710 182.871307 lineto
100.107168 182.680510 lineto
98.849310 182.486518 lineto
97.595977 180.582144 lineto
96.381786 175.318588 lineto
95.157866 170.638528 lineto
93.946263 170.331876 lineto
92.765839 170.171989 lineto
91.646411 169.991285 lineto
90.450676 169.804028 lineto
89.279444 169.624386 lineto
88.099595 163.943115 lineto
87.025891 159.377173 lineto
85.988803 157.776811 lineto
85.003086 157.628025 lineto
84.216207 157.465432 lineto
82.801289 157.377641 lineto
81.760140 157.235047 lineto
80.642045 157.013891 lineto
79.617385 152.834944 lineto
78.735384 147.466439 lineto
77.872493 145.243932 lineto
77.020401 145.221881 lineto
76.159107 145.074701 lineto
75.309352 144.871849 lineto
74.482600 144.700637 lineto
73.615094 144.493513 lineto
72.777693 138.490774 lineto
71.988239 133.072647 lineto
71.225066 132.616713 lineto
70.460471 132.448397 lineto
69.699240 132.239854 lineto
68.959281 132.056385 lineto
68.143333 129.501328 lineto
67.325798 123.778201 lineto
66.641499 120.084959 lineto
65.938020 119.924192 lineto
65.197526 119.735365 lineto
64.496361 119.536212 lineto
63.796209 119.326451 lineto
63.100074 113.693267 lineto
62.421643 107.485103 lineto
61.772925 107.331067 lineto
61.161953 107.141371 lineto
60.533379 106.956142 lineto
59.903878 106.765935 lineto
59.301490 102.280735 lineto
58.710644 96.437883 lineto
58.159967 94.933930 lineto
57.614246 94.773617 lineto
57.044614 94.612308 lineto
56.503667 94.410933 lineto
55.967117 91.010086 lineto
55.482918 85.409232 lineto
55.003635 82.422168 lineto
54.529858 82.291912 lineto
54.102636 82.103887 lineto
53.612803 81.901548 lineto
53.134298 81.703217 lineto
52.671880 75.706415 lineto
52.232016 69.988224 lineto
51.818320 69.642740 lineto
51.419872 69.481399 lineto
51.007530 69.293879 lineto
50.594489 69.114826 lineto
50.196519 64.293696 lineto
49.848059 58.521183 lineto
49.521879 57.323837 lineto
49.163348 57.175687 lineto
48.849379 56.992691 lineto
48.556567 56.811793 lineto
48.227560 53.319684 lineto
47.926881 47.282325 lineto
47.668761 44.838231 lineto
47.415980 44.678313 lineto
47.163119 44.523944 lineto
46.900002 44.343976 lineto
46.652449 43.307094 lineto
46.406390 36.994423 lineto
46.219438 32.287000 lineto
46.021803 32.144372 lineto
45.832779 32.010525 lineto
45.655007 31.864093 lineto
45.488327 31.726839 lineto
45.309707 27.273107 lineto
45.155220 21.637457 lineto
45.000000 20.000000 lineto
closepath
gsave
1.000000 1.000000 0.000000 setrgbcolor
fill
grestore
stroke
showpage
