X_RANGE 320.50
Y_RANGE 744065368.00
ORDER (15233)new_/insert'.go.ary'/insert'.go/insert'/insert/insert/updateValueTable.wMap/updateValueTable/updatePlayer/learnPolicy.update/updateStep.newTable/updateStep/updateEpisode/batch/learnPolicy.runBatch/learnPolicy.recurLearn/learnPolicy/runSimulation.policies/runSimulation/processParams/processArgs 1
ORDER (15329)new_/insert'.go.ary'/insert'.go/insert'/insert/insert/updateValueTable.mMap/updateValueTable/updatePlayer/learnPolicy.update/updateStep.newTable/updateStep/updateEpisode/batch/learnPolicy.runBatch/learnPolicy.recurLearn/learnPolicy/runSimulation.policies/runSimulation/processParams/processArgs 2
ORDER (16395)selection.newValue/selection/optimalRoster.selectPlayer/optimalRoster.\/optimalRoster/weeklyOwnerCache.updateState/weeklyOwnerCache/nextState.nextCaches.newOwnerCache/nextState.nextCaches/nextState/newGame.ns/newGame/runSimulation.game/episode.nextState/episode.recurEpisode.ns/episode.recurEpisode/episode/runSimulation.e/runSimulation.results/runSimulation/processParams/processArgs 3
ORDER (15405)nextState.nextCaches.newOwnerCache/nextState.nextCaches/nextState/newGame.ns/newGame/runSimulation.game/episode.nextState/episode.recurEpisode.ns/episode.recurEpisode/episode/learnPolicy.episodeReturnsFromPolicy/updateEpisode.epReturns/updateEpisode/batch/learnPolicy.runBatch/learnPolicy.recurLearn/learnPolicy/runSimulation.policies/runSimulation/processParams/processArgs 4
ORDER (16284)selection.newValue/selection/optimalRoster.selectPlayer/optimalRoster.\/optimalRoster/weeklyOwnerCache.updateState/weeklyOwnerCache/nextState.nextCaches.newOwnerCache/nextState.nextCaches/nextState/newGame.ns/newGame/runSimulation.game/episode.nextState/episode/runSimulation.e/runSimulation.results/runSimulation/processParams/processArgs 5
ORDER (14895)updateValueTable/updatePlayer/learnPolicy.update/updateStep.newTable/updateStep/updateEpisode/batch/learnPolicy.runBatch/learnPolicy.recurLearn/learnPolicy/runSimulation.policies/runSimulation/processParams/processArgs 6
ORDER (16401)selection.newRosters/selection/optimalRoster.selectPlayer/optimalRoster.\/optimalRoster/weeklyOwnerCache.updateState/weeklyOwnerCache/nextState.nextCaches.newOwnerCache/nextState.nextCaches/nextState/newGame.ns/newGame/runSimulation.game/episode.nextState/episode.recurEpisode.ns/episode.recurEpisode/episode/runSimulation.e/runSimulation.results/runSimulation/processParams/processArgs 7
ORDER (15323)insert'.go/insert'/insert/insert/updateValueTable.mMap/updateValueTable/updatePlayer/learnPolicy.update/updateStep.newTable/updateStep/updateEpisode/batch/learnPolicy.runBatch/learnPolicy.recurLearn/learnPolicy/runSimulation.policies/runSimulation/processParams/processArgs 8
ORDER (15227)insert'.go/insert'/insert/insert/updateValueTable.wMap/updateValueTable/updatePlayer/learnPolicy.update/updateStep.newTable/updateStep/updateEpisode/batch/learnPolicy.runBatch/learnPolicy.recurLearn/learnPolicy/runSimulation.policies/runSimulation/processParams/processArgs 9
ORDER (16290)selection.newRosters/selection/optimalRoster.selectPlayer/optimalRoster.\/optimalRoster/weeklyOwnerCache.updateState/weeklyOwnerCache/nextState.nextCaches.newOwnerCache/nextState.nextCaches/nextState/newGame.ns/newGame/runSimulation.game/episode.nextState/episode/runSimulation.e/runSimulation.results/runSimulation/processParams/processArgs 10
ORDER (15926)clone16/insert'.go/insert'/insert/insert/updateValueTable.mMap/updateValueTable/updatePlayer/learnPolicy.update/updateStep.newTable/updateStep/updateEpisode/batch/learnPolicy.runBatch/learnPolicy.recurLearn/learnPolicy/runSimulation.policies/runSimulation/processParams/processArgs 11
ORDER (15920)clone16/insert'.go/insert'/insert/insert/updateValueTable.wMap/updateValueTable/updatePlayer/learnPolicy.update/updateStep.newTable/updateStep/updateEpisode/batch/learnPolicy.runBatch/learnPolicy.recurLearn/learnPolicy/runSimulation.policies/runSimulation/processParams/processArgs 12
ORDER (16383)weeklyOwnerCache.updateState/weeklyOwnerCache/nextState.nextCaches.newOwnerCache/nextState.nextCaches/nextState/newGame.ns/newGame/runSimulation.game/episode.nextState/episode.recurEpisode.ns/episode.recurEpisode/episode/runSimulation.e/runSimulation.results/runSimulation/processParams/processArgs 13
ORDER (16272)weeklyOwnerCache.updateState/weeklyOwnerCache/nextState.nextCaches.newOwnerCache/nextState.nextCaches/nextState/newGame.ns/newGame/runSimulation.game/episode.nextState/episode/runSimulation.e/runSimulation.results/runSimulation/processParams/processArgs 14
ORDER (15597)selection.newValue/selection/optimalRoster.selectPlayer/optimalRoster.\/optimalRoster/weeklyOwnerCache.updateState/weeklyOwnerCache/nextState.nextCaches.newOwnerCache/nextState.nextCaches/nextState/newGame.ns/newGame/runSimulation.game/episode.nextState/episode.recurEpisode.ns/episode.recurEpisode/episode/learnPolicy.episodeReturnsFromPolicy/updateEpisode.epReturns/updateEpisode/batch/learnPolicy.runBatch/learnPolicy.recurLearn/learnPolicy/runSimulation.policies/runSimulation/processParams/processArgs 15
ORDER (15612)selection.newRosters/selection/optimalRoster.selectPlayer/optimalRoster.\/optimalRoster/weeklyOwnerCache.updateState/weeklyOwnerCache/nextState.nextCaches.newOwnerCache/nextState.nextCaches/nextState/newGame.ns/newGame/runSimulation.game/episode.nextState/episode.recurEpisode.ns/episode.recurEpisode/episode/learnPolicy.episodeReturnsFromPolicy/updateEpisode.epReturns/updateEpisode/batch/learnPolicy.runBatch/learnPolicy.recurLearn/learnPolicy/runSimulation.policies/runSimulation/processParams/processArgs 16
ORDER (15465)weeklyOwnerCache.updateState/weeklyOwnerCache/nextState.nextCaches.newOwnerCache/nextState.nextCaches/nextState/newGame.ns/newGame/runSimulation.game/episode.nextState/episode.recurEpisode.ns/episode.recurEpisode/episode/learnPolicy.episodeReturnsFromPolicy/updateEpisode.epReturns/updateEpisode/batch/learnPolicy.runBatch/learnPolicy.recurLearn/learnPolicy/runSimulation.policies/runSimulation/processParams/processArgs 17
SHADE (15233)new_/insert'.go.ary'/insert'.go/insert'/insert/insert/updateValueTable.wMap/updateValueTable/updatePlayer/learnPolicy.update/updateStep.newTable/updateStep/updateEpisode/batch/learnPolicy.runBatch/learnPolicy.recurLearn/learnPolicy/runSimulation.policies/runSimulation/processParams/processArgs 0.00
SHADE (15329)new_/insert'.go.ary'/insert'.go/insert'/insert/insert/updateValueTable.mMap/updateValueTable/updatePlayer/learnPolicy.update/updateStep.newTable/updateStep/updateEpisode/batch/learnPolicy.runBatch/learnPolicy.recurLearn/learnPolicy/runSimulation.policies/runSimulation/processParams/processArgs 0.00
SHADE (16395)selection.newValue/selection/optimalRoster.selectPlayer/optimalRoster.\/optimalRoster/weeklyOwnerCache.updateState/weeklyOwnerCache/nextState.nextCaches.newOwnerCache/nextState.nextCaches/nextState/newGame.ns/newGame/runSimulation.game/episode.nextState/episode.recurEpisode.ns/episode.recurEpisode/episode/runSimulation.e/runSimulation.results/runSimulation/processParams/processArgs 0.00
SHADE (15405)nextState.nextCaches.newOwnerCache/nextState.nextCaches/nextState/newGame.ns/newGame/runSimulation.game/episode.nextState/episode.recurEpisode.ns/episode.recurEpisode/episode/learnPolicy.episodeReturnsFromPolicy/updateEpisode.epReturns/updateEpisode/batch/learnPolicy.runBatch/learnPolicy.recurLearn/learnPolicy/runSimulation.policies/runSimulation/processParams/processArgs 0.00
SHADE (16284)selection.newValue/selection/optimalRoster.selectPlayer/optimalRoster.\/optimalRoster/weeklyOwnerCache.updateState/weeklyOwnerCache/nextState.nextCaches.newOwnerCache/nextState.nextCaches/nextState/newGame.ns/newGame/runSimulation.game/episode.nextState/episode/runSimulation.e/runSimulation.results/runSimulation/processParams/processArgs 0.10
SHADE (14895)updateValueTable/updatePlayer/learnPolicy.update/updateStep.newTable/updateStep/updateEpisode/batch/learnPolicy.runBatch/learnPolicy.recurLearn/learnPolicy/runSimulation.policies/runSimulation/processParams/processArgs 0.10
SHADE (16401)selection.newRosters/selection/optimalRoster.selectPlayer/optimalRoster.\/optimalRoster/weeklyOwnerCache.updateState/weeklyOwnerCache/nextState.nextCaches.newOwnerCache/nextState.nextCaches/nextState/newGame.ns/newGame/runSimulation.game/episode.nextState/episode.recurEpisode.ns/episode.recurEpisode/episode/runSimulation.e/runSimulation.results/runSimulation/processParams/processArgs 0.10
SHADE (15323)insert'.go/insert'/insert/insert/updateValueTable.mMap/updateValueTable/updatePlayer/learnPolicy.update/updateStep.newTable/updateStep/updateEpisode/batch/learnPolicy.runBatch/learnPolicy.recurLearn/learnPolicy/runSimulation.policies/runSimulation/processParams/processArgs 0.10
SHADE (15227)insert'.go/insert'/insert/insert/updateValueTable.wMap/updateValueTable/updatePlayer/learnPolicy.update/updateStep.newTable/updateStep/updateEpisode/batch/learnPolicy.runBatch/learnPolicy.recurLearn/learnPolicy/runSimulation.policies/runSimulation/processParams/processArgs 0.00
SHADE (16290)selection.newRosters/selection/optimalRoster.selectPlayer/optimalRoster.\/optimalRoster/weeklyOwnerCache.updateState/weeklyOwnerCache/nextState.nextCaches.newOwnerCache/nextState.nextCaches/nextState/newGame.ns/newGame/runSimulation.game/episode.nextState/episode/runSimulation.e/runSimulation.results/runSimulation/processParams/processArgs 0.00
SHADE (15926)clone16/insert'.go/insert'/insert/insert/updateValueTable.mMap/updateValueTable/updatePlayer/learnPolicy.update/updateStep.newTable/updateStep/updateEpisode/batch/learnPolicy.runBatch/learnPolicy.recurLearn/learnPolicy/runSimulation.policies/runSimulation/processParams/processArgs 0.00
SHADE (15920)clone16/insert'.go/insert'/insert/insert/updateValueTable.wMap/updateValueTable/updatePlayer/learnPolicy.update/updateStep.newTable/updateStep/updateEpisode/batch/learnPolicy.runBatch/learnPolicy.recurLearn/learnPolicy/runSimulation.policies/runSimulation/processParams/processArgs 0.00
SHADE (16383)weeklyOwnerCache.updateState/weeklyOwnerCache/nextState.nextCaches.newOwnerCache/nextState.nextCaches/nextState/newGame.ns/newGame/runSimulation.game/episode.nextState/episode.recurEpisode.ns/episode.recurEpisode/episode/runSimulation.e/runSimulation.results/runSimulation/processParams/processArgs 0.05
SHADE (16272)weeklyOwnerCache.updateState/weeklyOwnerCache/nextState.nextCaches.newOwnerCache/nextState.nextCaches/nextState/newGame.ns/newGame/runSimulation.game/episode.nextState/episode/runSimulation.e/runSimulation.results/runSimulation/processParams/processArgs 0.05
SHADE (15597)selection.newValue/selection/optimalRoster.selectPlayer/optimalRoster.\/optimalRoster/weeklyOwnerCache.updateState/weeklyOwnerCache/nextState.nextCaches.newOwnerCache/nextState.nextCaches/nextState/newGame.ns/newGame/runSimulation.game/episode.nextState/episode.recurEpisode.ns/episode.recurEpisode/episode/learnPolicy.episodeReturnsFromPolicy/updateEpisode.epReturns/updateEpisode/batch/learnPolicy.runBatch/learnPolicy.recurLearn/learnPolicy/runSimulation.policies/runSimulation/processParams/processArgs 0.05
SHADE (15612)selection.newRosters/selection/optimalRoster.selectPlayer/optimalRoster.\/optimalRoster/weeklyOwnerCache.updateState/weeklyOwnerCache/nextState.nextCaches.newOwnerCache/nextState.nextCaches/nextState/newGame.ns/newGame/runSimulation.game/episode.nextState/episode.recurEpisode.ns/episode.recurEpisode/episode/learnPolicy.episodeReturnsFromPolicy/updateEpisode.epReturns/updateEpisode/batch/learnPolicy.runBatch/learnPolicy.recurLearn/learnPolicy/runSimulation.policies/runSimulation/processParams/processArgs 0.05
SHADE (15465)weeklyOwnerCache.updateState/weeklyOwnerCache/nextState.nextCaches.newOwnerCache/nextState.nextCaches/nextState/newGame.ns/newGame/runSimulation.game/episode.nextState/episode.recurEpisode.ns/episode.recurEpisode/episode/learnPolicy.episodeReturnsFromPolicy/updateEpisode.epReturns/updateEpisode/batch/learnPolicy.runBatch/learnPolicy.recurLearn/learnPolicy/runSimulation.policies/runSimulation/processParams/processArgs 0.10
